ID;sentence;spam;Label;Reciprocity;Concistency;SocialProof;Authority;Liking;Scarcity
1;, papers , fruit , lollipops , and cigars and on emigrant journeys , soap , towels , tin washing dishes , tin coffee pitchers , coffee , tea , sugar , and tinned eatables , mostly hash or beans and bacon .;1;0;0;0;0;0;0;0
2;, they will read a p .;1;0;0;0;0;0;0;0
3;1 write your sales letter with an individual in mind .;1;0;0;0;0;0;0;0
4;2 billion in commitments .;0;0;0;0;0;0;0;0
5;2 there were spelling errors in the text .;1;0;0;0;0;0;0;0
6;2 use an illustration to get your point across .;1;0;0;0;0;0;0;0
7;20 th but i may be out of town the week before christmas .;0;0;0;0;0;0;0;0
8;3 offer a sample of your newsletter so people can see what it looks like before they subscribe .;1;0;0;0;0;0;0;0
9;a bold enough move perhaps but i learned hardly anything about the newsletter itself and immediately started worrying about getting a flood of ads to my email account so i didn t even subscribe .;1;0;0;0;0;0;0;0
10;a full featured , powerful computer for the price you would pay for a large tower .;1;0;0;0;0;0;0;0
11;a neat enough site but the background could be a little hard on the eyes .;1;0;0;0;0;0;0;0
12;a settlement to this case will need to be reached so that the state can figure out how much to charge for power in order to amortize the undercollection .;0;0;0;0;0;0;0;0
13;a site that sells advertising should have advertisments on it !;1;0;0;0;0;0;0;0
14;a takeover of the transmission assets seems more likely than a takeover of the hydro assets .;0;0;0;0;0;0;0;0
15;a year end reviews report needs generating like mid year documenting business unit performance on review completion david to john b work out or plan generation for the nim issues employees david to john c hpl transition issues ongoing .;0;0;0;0;0;0;0;0
16;able to leap tall buildings in a single bound .;1;0;0;0;0;0;0;0
17;according to keeley s numbers and assuming the filed rate case is settled at 7 billion rather than 12 billion , it would take 5 to 6 years to amortize all of the utility undercollection .;0;0;0;0;0;0;0;0
18;actual premiums and coverage availability will vary depending upon age , sex , state availability , health history and recent tobacco usage .;1;0;0;0;0;0;0;0
19;adv space saving computer to replace that big box on or under your desk !;1;0;0;0;0;0;0;0
20;affiliates of the world !;1;0;0;0;0;0;0;0
21;after you ve visited all three , vote for your favorite .;1;0;0;0;0;0;0;0
22;again , the idea is more and more value and benefits to the reader .;1;0;0;0;0;0;0;0
23;all is under control a we ve set up a work out group under cindy skinner and will be producing the stats and making sure we don t cop out .;0;0;0;0;0;0;0;0
24;all time for the period beginning june 16 th and ending june 30 th must be entered into sap by 3 00 cst .;0;0;0;0;0;0;0;0
25;also , the background was just too much .;1;0;0;0;0;0;0;0
26;also attached is a description of the modules .;0;0;0;0;0;0;0;0
27;also i planted some herbs and stuff in my yard which i am sure my dog will destroy , but it s worth a try .;0;0;0;0;0;0;0;0
28;also in the second or third paragraph is a misspelled word which should be first come not as shown on the page .;1;0;0;0;0;0;0;0
29;and , of course , if your free item is a high quality , useful product or service which impresses the customer , they probably will be back as a customer soon .;1;0;0;0;0;0;0;0
30;and there is a very simple reason for poor performance .;1;0;0;0;0;0;0;0
31;andrea reed will continue to head capital structuring and portfolio management all junior commercial resources within the transaction development teams will have dual responsibilities to both their transaction development teams and to the capital structuring group .;0;0;0;0;0;0;0;0
32;any input would be appreciated it .;1;0;0;0;0;0;0;0
33;anyhow , another ride sounds really cool .;0;0;0;0;0;0;0;0
34;anyone can earn a living online .;1;0;0;0;0;0;0;0
35;approval in less than 24 hours !;1;0;0;0;0;0;0;0
36;as a benefit in attending the pilot , i will pick up the cost .;0;0;0;0;0;0;0;0
37;as a practical matter , that right guarantees neither a fair price or even a market .;0;0;0;0;0;0;0;0
38;as has been mentioned many times , some information about the person doing the page is always good .;1;0;0;0;0;0;0;0
39;as it is , i would not bother .;1;0;0;0;0;0;0;0
40;as per our discussion , listed below is an update on the leadership pilot .;0;0;0;0;0;0;0;0
41;as the prices were reduced in 3 4 times .;1;0;0;0;0;0;0;0
42;ask yourself , why wouldn t i buy this ?;1;0;0;0;0;0;0;0
43;at what meter is hpl buying the residue gas ?;0;0;0;0;0;0;0;0
44;at your request , by your membership newsletter services .;1;0;0;0;0;0;0;0
45;avoid any question that insults the intelligence of your reader or makes them feel like they are inferior .;1;0;0;0;0;0;0;0
46;b downstream transaction development will be dedicated to ena , s industrial origination efforts in pulp and paper , petrochemicals and refining , environmental energy , metals and mining and other industries as coverage is established .;0;0;0;0;0;0;0;0
47;bankruptcy court if davis fails to cobble together a last minute deal for rate hikes and some kind of purchase of transmission assets , then all parties will have to do a workout in federal bankruptcy court .;0;0;0;0;0;0;0;0
48;bankruptcy grows more likely regardless of the legal technicalities , the bottom line is the same .;0;0;0;0;0;0;0;0
49;bankruptcy outlook rising once again a deal to finalize a debt workout continues to be just beyond the reach of the state , the utilities , and their creditors , with time running out on the debt forbearance arrangement set to expire on tuesday .;0;0;0;0;0;0;0;0
50;be clear as to the order process .;1;0;0;0;0;0;0;0
51;be sure to label everything with your new office location .;0;0;0;0;0;0;0;0
52;be your own isp .;1;0;0;0;0;0;0;0
53;because when your potential customer reads , it then it will seem personal , almost like you wrote it with them in mind .;1;0;0;0;0;0;0;0
54;begin split 76 the rest of the afternoon was spent in making up the train .;1;0;0;0;0;0;0;0
55;best company a registered rating service and include all fees and commissions .;1;0;0;0;0;0;0;0
56;best regard , mrs .;1;0;0;0;0;0;0;0
57;bill , is this the david gray you are going to see ?;0;0;0;0;0;0;0;0
58;bill , the epmi st wbom book has been set up as an internal counterparty for desk to desk trading on enrononline .;0;0;0;0;0;0;0;0
59;bowen doesn t want it in eim .;0;0;0;0;0;0;0;0
60;brad dunn has administered the relationship as a transitional matter in the intervening months .;0;0;0;0;0;0;0;0
61;brad has attempted to get ees to take on the transaction , but they have expressed no interest in the capital commitment .;0;0;0;0;0;0;0;0
62;break up the sales letter with attention grabbing headlines that lead into the next paragraph .;1;0;0;0;0;0;0;0
63;burton , the puc , consumer activists is afraid of harvey rosenfield and his consumers movement .;0;0;0;0;0;0;0;0
64;but , it takes several very important components to join the 5 who are successful on the web .;1;0;0;0;0;0;0;0
65;but it was not so for , the train stopping at some station , the cars were instantly thronged with the natives , wives and fathers , ht men and maidens , some of them in little more than nightgear , some with stable lanterns , and all offering beds for sale .;1;0;0;0;0;0;0;0
66;but our own car was pure from admixture , save for one little boy of eight or nine who had the whooping cough .;1;0;0;0;0;0;0;0
67;but what we get here is a newsletter with the owner whose email reads damorgarjr yahoo .;1;0;0;0;0;0;0;0
68;by creating these targeted sales letters , you can literally open up dozens of new groups to sell your existing product to .;1;0;0;0;0;0;0;0
69;by doing this , you can now follow up with the customer for a potential future sale .;1;0;0;0;0;0;0;0
70;by offering a free item , you can request their email address in order to obtain the freebie .;1;0;0;0;0;0;0;0
71;c 2 visit ward s gift shop !;0;0;0;0;0;0;0;0
72;carlos , please call linda and get everything set up .;0;0;0;0;0;0;0;0
73;carolyn regretful watchfully procrustes godly summer 2004 was too hot for the software manufacturers .;1;0;0;0;0;0;0;0
74;cheap softwares for you , all are original genuine !;1;0;0;0;0;0;0;0
75;click here to continue .;1;0;0;0;0;0;0;0
76;close more impulse sales !;1;0;0;0;0;0;0;0
77;com at your request , by your membership newsletter services .;1;0;0;0;0;0;0;0
78;com build branding mailto three aeopublishing .;1;0;0;0;0;0;0;0
79;com by taking a look at his site , then checking out the three new layouts jana of akkabay designs akkabay .;1;0;0;0;0;0;0;0
80;com has designed specifically for him .;1;0;0;0;0;0;0;0
81;com here are the 3 redesigns vote for this design designl aeopublishing .;1;0;0;0;0;0;0;0
82;com if you have any questions about how this works or how you can participate , please email amy at moderator moderator amy mossel posting myinput aeopublishing .;1;0;0;0;0;0;0;0
83;com if you wish to stop receiving this email , click on the link below .;1;0;0;0;0;0;0;0
84;com mailman listinfo fork .;1;0;0;0;0;0;0;0
85;com please send suggestions and comments to moderator aeopublishing .;1;0;0;0;0;0;0;0
86;com provide information mailto four aeopublishing .;1;0;0;0;0;0;0;0
87;com see below for unsubscribe instructions .;1;0;0;0;0;0;0;0
88;com send posts and questions or your answers to myinput aeopublishing .;1;0;0;0;0;0;0;0
89;com vote for this design design 2 aeopublishing .;1;0;0;0;0;0;0;0
90;com vote for this design design 3 aeopublishing .;1;0;0;0;0;0;0;0
91;comes standard with 1 .;1;0;0;0;0;0;0;0
92;consistent with these objectives and with the corporate goal of fostering b the downstream coverage origination groups which focus on delivering a broad range of products and services to the heavy industrial customers including pulp and paper , chemicals , plastics , refined products , metals and mining , heavy manufacturing , industrial gases , fertilizers , transportation , textiles and glass manufacturing the eastern and western u .;0;0;0;0;0;0;0;0
93;coordinate user requirements for shared operational systems .;0;0;0;0;0;0;0;0
94;could you please inform me via cc mail what the status of the buyback is once you have reviewed it .;0;0;0;0;0;0;0;0
95;cpuc case on monday is likely to force their hand here and to do everything possible to avoid the appearance of a bailout .;0;0;0;0;0;0;0;0
96;cpuc rate undercollection case monday additional financing is made available to the dwr to buy more power until the revenue bonds can be issued in may .;0;0;0;0;0;0;0;0
97;currently there is no contemplation of loosening the aqmd compliance restrictions .;0;0;0;0;0;0;0;0
98;d upstream transaction development will be dedicated to the producer finance , coal and gas assets groups .;0;0;0;0;0;0;0;0
99;daren could you please resolve this issue for howard ?;0;0;0;0;0;0;0;0
100;darren , the attached appears to be a nomination from vastar resources , inc .;0;0;0;0;0;0;0;0
101;deadlines are very effective .;1;0;0;0;0;0;0;0
102;democratic moderates pressured by consumer advocates the moderate left sen .;0;0;0;0;0;0;0;0
103;does your website convince people to make a purchase ?;1;0;0;0;0;0;0;0
104;doesn t matter if it is grandma or your next door neighbor or your cat .;1;0;0;0;0;0;0;0
105;don t exaggerate , mislead , stretch or distort the truth .;1;0;0;0;0;0;0;0
106;don t focus on the features of your product or service , but rather how those features will add value to the life of your reader .;1;0;0;0;0;0;0;0
107;don t kid yourself .;1;0;0;0;0;0;0;0
108;don t try to sell your customer multiple products at the same time .;1;0;0;0;0;0;0;0
109;dont waste your time at the doctors office !;0;0;0;0;0;0;0;0
110;each regional operations team will continue its direct reporting relationship within its business unit , and will collaborate with sally in the delivery of these critical items .;0;0;0;0;0;0;0;0
111;edison reaches the end of its grace period for a 200 million payment today and a 600 million payment on thursday .;0;0;0;0;0;0;0;0
112;eminent domain would have a limited effect the threats by burton to seize generation assets to insure continued power supply are limited .;0;0;0;0;0;0;0;0
113;especially effective are testimonials from respected , well known authorities within your target field .;1;0;0;0;0;0;0;0
114;executive summary utility bankruptcy appears increasingly likely next week unless the state can clear three hurdles agreement on payback for the bailout , rate increases , and further short term funding for dwr purchases of power .;0;0;0;0;0;0;0;0
115;existing sap users currently supported by the center of expertise coe including the london coe .;0;0;0;0;0;0;0;0
116;ezine are you ready for your 15 minutes of fame ?;1;0;0;0;0;0;0;0
117;feel free to take as many as you will need .;0;0;0;0;0;0;0;0
118;finally , expect davis and other california politicians to work to minimize rate hikes although the edison pg e v .;0;0;0;0;0;0;0;0
119;focus on one product or service .;1;0;0;0;0;0;0;0
120;for example if you are selling a work at home product , then rewrite the sales letter by adding words in the headlines and ad copy that are targeted towards women who are homemakers .;1;0;0;0;0;0;0;0
121;for the interest of this business , do not hesitate to contact my son mr .;1;0;0;0;0;0;0;0
122;for viagra click here both products shipped discretely to your door not interested ?;1;0;0;0;0;0;0;0
123;fortunately owning a non generic domain short , easy to remember and trademarked works in our favor because the marketability potential is limitless .;1;0;0;0;0;0;0;0
124;fran and michele cash i also put another guy on this yesterday have all in hand .;0;0;0;0;0;0;0;0
125;fyi see note below already done .;0;0;0;0;0;0;0;0
126;ginsu made this one famous .;1;0;0;0;0;0;0;0
127;glaspie founder we apologize for any technical problems you may have had with our last mailing , we are working hard to ensure that such problems will not occur again .;1;0;0;0;0;0;0;0
128;good credit or bad !;1;0;0;0;0;0;0;0
129;heartland industrial partners was an investment pursued solely for the purpose of providing deal flow for energy outsourcing opportunities when ena s industrial group was following a broad based energy outsourcing business plan .;0;0;0;0;0;0;0;0
130;hello , generic and super viagra cialis available online !;1;0;0;0;0;0;0;0
131;help out the winner of the free website redesign by voting for your favorite !;1;0;0;0;0;0;0;0
132;here you can find all your shopping needs online , and good quality products everyday low prices !;1;0;0;0;0;0;0;0
133;hey dana , are you paying for the celebration dinner ?;0;0;0;0;0;0;0;0
134;hi lousie and tammie per kimberly s instruction , we will be sending west power reports to you on a daily basis .;0;0;0;0;0;0;0;0
135;how will you stand out among the crowd ?;1;0;0;0;0;0;0;0
136;however , ipp sources advise that there is already a bid on the table for these transmission assets that is higher than what the state would offer .;0;0;0;0;0;0;0;0
137;however , since assemblyman keeley s numbers are unrealistic , a rate increase will be necessary .;0;0;0;0;0;0;0;0
138;however , the negative tone taken by standard poors and others concerning delays in the legislature suggest that further forbearance will difficult to achieve .;0;0;0;0;0;0;0;0
139;however , there might be a change in the means of implementation in southern california by moving away from the use of credits this apparently drives up the cost of gas fired power .;0;0;0;0;0;0;0;0
140;hurrah , you can get rid of the image toolbar .;0;0;0;0;0;0;0;0
141;i am in sydney today , but will be in tokyo next week .;0;0;0;0;0;0;0;0
142;i am very pleased for your continued success in the company and i look forward to hearing more about your new responsibilities .;0;0;0;0;0;0;0;0
143;i believe the problem is quite tractable , and i would like to proceed with a model .;0;0;0;0;0;0;0;0
144;i bought some step in switch boots , too .;0;0;0;0;0;0;0;0
145;i d really appreciate any help you could give me .;0;0;0;0;0;0;0;0
146;i don t care about your selection .;1;0;0;0;0;0;0;0
147;i feel that the background is a little too bold and busy for the text .;1;0;0;0;0;0;0;0
148;i had lots of fun .;0;0;0;0;0;0;0;0
149;i have compared the hype of easily making millions online to the chances of me riding bareback across montana on a grizzly bear .;1;0;0;0;0;0;0;0
150;i have never seen tobacco so sillily abused .;1;0;0;0;0;0;0;0
151;i have not been able to get resolution yet on who provides the home for this investment .;0;0;0;0;0;0;0;0
152;i have submitted steve s name as a point of contact .;0;0;0;0;0;0;0;0
153;i know exactly what i can expect .;1;0;0;0;0;0;0;0
154;i ll be your personal host .;1;0;0;0;0;0;0;0
155;i look forward to seeing you soon .;0;0;0;0;0;0;0;0
156;i myself entered a little after sunrise into articles of agreement , and became one of the firm of pennsylvania , shakespeare , and dubuque .;1;0;0;0;0;0;0;0
157;i noticed some spelling errors , and i think that a link to the classifieds site should be provided , and online payments should be accepted .;1;0;0;0;0;0;0;0
158;i shared this in the staff meeting so that you would be the first to know .;0;0;0;0;0;0;0;0
159;i told linda harris that we d get her a telephone number in gas control so she can provide notification of the turn on tomorrow .;0;0;0;0;0;0;0;0
160;i ve heard about enough of that , he added give us something about the good country we re going to .;1;0;0;0;0;0;0;0
161;i weed wacked is that a word ?;0;0;0;0;0;0;0;0
162;i will be out of the office the next two days .;0;0;0;0;0;0;0;0
163;i will probably submit a free ad just to see the content of the newsletter .;1;0;0;0;0;0;0;0
164;i would be happy to discuss .;0;0;0;0;0;0;0;0
165;i wouldn t , for example .;1;0;0;0;0;0;0;0
166;if enron is to get anything out of heartland industrial partners beyond the return on our invested dollars , that value will come to ees .;0;0;0;0;0;0;0;0
167;if i thought i could get a free option , i would take the same position .;0;0;0;0;0;0;0;0
168;if we ena have no choice but to retain the investment , my group will take responsibility for it and do our best to monetize funds invested to date about 6 million and sell the remaining commitment .;0;0;0;0;0;0;0;0
169;if you have a product , service , opportunity or quality merchandise that appeals to people worldwide , reach your targeted audience !;1;0;0;0;0;0;0;0
170;if you have further questions , please contact me at 3 7394 .;0;0;0;0;0;0;0;0
171;if you wallow naked in the pathetic , like the author of home , sweet home , you make your hearers weep in an unmanly fashion and even while yet they are moved , they despise themselves and hate the occasion of their weakness .;1;0;0;0;0;0;0;0
172;if you want to re establishthe image toolbar just go to the internet options control panel and you can turn the image toolbar back on .;0;0;0;0;0;0;0;0
173;immediately , we remember that he is faster than a speeding bullet .;1;0;0;0;0;0;0;0
174;important news for usavity customers .;1;0;0;0;0;0;0;0
175;in addition , mike will continue to manage the power development activities in the eastern interconnect d eastern qf restructuring this group will focus on the qf restructuring opportunities in the eastern interconnect including the existing restructuring and re capitalization of the east coast power assets .;0;0;0;0;0;0;0;0
176;in addition , the origination and the transaction development teams and their respective origination groups will be located together .;0;0;0;0;0;0;0;0
177;in fact , heartland has been reflected on ena s balance sheet ever since the creation of eim last august .;0;0;0;0;0;0;0;0
178;in my ena shoes , i would say we would have no interest in taking on that responsibility .;0;0;0;0;0;0;0;0
179;in my experience these terms are consistent with most private equity funds .;0;0;0;0;0;0;0;0
180;instead of over 100 tips for losing weight use 124 tips for losing weight .;1;0;0;0;0;0;0;0
181;is this how most of his sound is or did i just pick slower songs to listen to ?;0;0;0;0;0;0;0;0
182;is to use a pause like this .;1;0;0;0;0;0;0;0
183;it asks whether you want to save or print the image .;0;0;0;0;0;0;0;0
184;it did not come to tears that night , for the experiment was interrupted .;1;0;0;0;0;0;0;0
185;it is possible that there will be a mix of stock warrants and or transmission assets .;0;0;0;0;0;0;0;0
186;it looks more professional than just offering an email address to send to .;1;0;0;0;0;0;0;0
187;it looks so bad .;0;0;0;0;0;0;0;0
188;it only confuses the reader .;1;0;0;0;0;0;0;0
189;it requires but a copartnery of two to manage beds but washing and eating can be carried on most economically by a syndicate of three .;1;0;0;0;0;0;0;0
190;it will allow you to disable the image toolbar for this session or forever .;0;0;0;0;0;0;0;0
191;jackie , since the inlet to 3 river plant is shut in on 10 19 99 the last day of flow at what meter is the mcmullen gas being diverted to ?;0;0;0;0;0;0;0;0
192;keep it simple , using words , language and information that are easy to understand and follow .;1;0;0;0;0;0;0;0
193;keep your sales letters personal , because one person at a time is going to read them .;1;0;0;0;0;0;0;0
194;key hr issues going forward .;0;0;0;0;0;0;0;0
195;leads have read of how getting to the top of an oak tree relates to aggressively marketing online .;1;0;0;0;0;0;0;0
196;let lenders compete for your business !;1;0;0;0;0;0;0;0
197;let me say , above all else , i don t believe there are any true secrets to success on the net .;1;0;0;0;0;0;0;0
198;let me tell you a simple universal fact that cannot be reversed .;1;0;0;0;0;0;0;0
199;make it stand out .;1;0;0;0;0;0;0;0
200;make this process as simple and clear as can be .;1;0;0;0;0;0;0;0
201;make your ad copy easy to follow .;1;0;0;0;0;0;0;0
202;maybe extend your site to include back issues or an archive to see what information you have offered in the past .;1;0;0;0;0;0;0;0
203;midstream coverage origination a eastern coverage origination this group , activities will focus on energy , finance and power development solutions for electric and gas utilities , municipals , co ops and energy service companies in the eastern interconnect .;0;0;0;0;0;0;0;0
204;more powerful than a locomotive .;1;0;0;0;0;0;0;0
205;more traffic more money !;1;0;0;0;0;0;0;0
206;most recently , he was the vice president of capital structuring and risk management for ees .;0;0;0;0;0;0;0;0
207;much of the remainder reportedly was contracted in long term purchases from suppliers who are building power plants .;0;0;0;0;0;0;0;0
208;multiple responses from the same individual will be discarded .;1;0;0;0;0;0;0;0
209;my apologies again for having to leave the staff meeting early yesterday .;0;0;0;0;0;0;0;0
210;my japan mobile number is 81 90 4073 6761 .;0;0;0;0;0;0;0;0
211;my yard for the first time .;0;0;0;0;0;0;0;0
212;new sap coding must be used for all expenses and invoices .;0;0;0;0;0;0;0;0
213;no price has been set at which the state would purchase the utilities transmission assets , which are currently valued at approximately 7 8 billion .;0;0;0;0;0;0;0;0
214;now , your website does one of two things .;1;0;0;0;0;0;0;0
215;obtain a zero balance statement from your creditors !;1;0;0;0;0;0;0;0
216;obviously , that s the core of his excellent new ebook , and i couldn t agree with him more .;1;0;0;0;0;0;0;0
217;oh yeah , i also bought a snowboard .;0;0;0;0;0;0;0;0
218;once this filing occurs , they will have 50 days until either the bankruptcy court accepts the filing or the utilities file a voluntary bankruptcy .;0;0;0;0;0;0;0;0
219;one thing that i have always found to work very well in sales letters .;1;0;0;0;0;0;0;0
220;oo thank you , your email address was obtained from a purchased list , reference 2020 mid 3300 .;1;0;0;0;0;0;0;0
221;opinion within the assembly is divided with respect to the outlook for bankruptcy .;0;0;0;0;0;0;0;0
222;over the next few weeks , project apollo and beyond will conduct its final sap implementation this implementation will impact approximately 12 , 000 new users plus all existing system users .;0;0;0;0;0;0;0;0
223;people know the weather or climate in any particular environment can change and affect what people eat and how much of it they are able to eat .;1;0;0;0;0;0;0;0
224;people love a good story that pounds home a solid message .;1;0;0;0;0;0;0;0
225;people will be impacted gradually over the next few weeks june 12 current sap users may notice and may use new features in some of the sap modules this new functionality was developed to meet requirements of business units implementing sap as part of this final implementation .;0;0;0;0;0;0;0;0
226;phone mail order ok !;1;0;0;0;0;0;0;0
227;platitudes and generalities roll off the human understanding like water from a duck , wrote claude hopkins in his classic book scientific advertising .;1;0;0;0;0;0;0;0
228;please , call shirley crenshaw 3 5290 or stinson gibner 3 4748 from the reception to be admitted to the building .;0;0;0;0;0;0;0;0
229;please call me if you have any questions at x 33597 .;0;0;0;0;0;0;0;0
230;please contact kristin walsh x 39510 or robert johnston x 39934 for further clarification .;0;0;0;0;0;0;0;0
231;please contact me with any questions you may have in the mean time .;0;0;0;0;0;0;0;0
232;please let me know if during those three weeks , you would like me to work and for what dates you would need the most help so that we can arrange a schedule that would be most helpful to you and so that i can contact andrea at prostaff soon .;0;0;0;0;0;0;0;0
233;prior to joining enron , sally had four years experience as a commercial banker and spent seven years as a registered securities principal with a regional investment banking firm .;0;0;0;0;0;0;0;0
234;provide training for risk management operations personnel .;0;0;0;0;0;0;0;0
235;question of the week 06 29 01 .;1;0;0;0;0;0;0;0
236;really , they can .;1;0;0;0;0;0;0;0
237;regina rossman , the wife of late mr .;1;0;0;0;0;0;0;0
238;remember , don t do any business with this company .;1;0;0;0;0;0;0;0
239;remove anything that would keep the reader from making the purchase .;1;0;0;0;0;0;0;0
240;rossman on the above e mail address immediately you receive this message for more information and to enable us proceed towards concluding all our arrangements .;1;0;0;0;0;0;0;0
241;sap brings a new dynamic to enron , enhancing the timely flow and sharing of specific project , human resources , procurement , and financial information across business units and across continents .;0;0;0;0;0;0;0;0
242;say goodbye to long doctor visits !;0;0;0;0;0;0;0;0
243;settlements is unable to draft an invoice for this deal .;0;0;0;0;0;0;0;0
244;since it s the law anyway , why not make it a benefit .;1;0;0;0;0;0;0;0
245;since the fund itself is still marketing limited partnership interests , however , it will be extremely difficult to get out of our investment commitment in the foreseeable future .;0;0;0;0;0;0;0;0
246;slotting order confirmation may 18 , 2004 etacitne .;1;0;0;0;0;0;0;0
247;smaller ipps feeling the squeeze many of the smaller ipps , which account for approximately 2500 mw of production , appear to be within a few days of running out of cash .;0;0;0;0;0;0;0;0
248;some of this will come on line in approximately two years .;0;0;0;0;0;0;0;0
249;some sales letters read like they are a manual trying to explain to me how i can perform some complicated surgery on my wife .;1;0;0;0;0;0;0;0
250;sotware prices fall down .;1;0;0;0;0;0;0;0
251;spelling errors make the page look unprofessional .;1;0;0;0;0;0;0;0
252;start the sentence on one line , leaving the reader wanting to know more , and then finishing up on the next line .;1;0;0;0;0;0;0;0
253;state to take 2 3 of utility debt while the state seems to have succeeded in forcing the utility parents to eat close to one third of the 12 billion debt , a final deal has been held up on two fronts .;0;0;0;0;0;0;0;0
254;stats will show this and progress on others .;0;0;0;0;0;0;0;0
255;still , bankruptcy can be avoided if a last minute deal can be struck monday on what the state receives in return for the bailout the scope of rate hikes a federal court is expected to rule on the pg e socal v .;0;0;0;0;0;0;0;0
256;still another could be written to high school teachers wanting to earn extra income during summer vacation .;1;0;0;0;0;0;0;0
257;supervisors may sign up for any or all depending on their need .;0;0;0;0;0;0;0;0
258;teddy of course will be able to choose his favorite , and colors , font style size , backgrounds , textures , etc , can all easily be changed on the layout that he likes .;1;0;0;0;0;0;0;0
259;tell someone you care about .;1;0;0;0;0;0;0;0
260;tell the reader everything they would want to know about your product or service .;1;0;0;0;0;0;0;0
261;terminate your credit card debt !;1;0;0;0;0;0;0;0
262;the company has 50 facilities in 11 countries .;0;0;0;0;0;0;0;0
263;the deal was sold on the basis of ena getting exclusive rights to provide energy management services to companies owned by the fund if these were cost effective .;0;0;0;0;0;0;0;0
264;the first words were , it s true .;1;0;0;0;0;0;0;0
265;the following are half day sessions .;0;0;0;0;0;0;0;0
266;the function will be divided into four teams , each of which will be dedicated to between two and four origination groups .;0;0;0;0;0;0;0;0
267;the fund has two investments currently mascotech is a merger of three fund companies .;0;0;0;0;0;0;0;0
268;the fund is headed by david stockman , former managing director at the blackstone group .;0;0;0;0;0;0;0;0
269;the fund s objective is to acquire and expand industrial companies in sectors ripe for consolidation and growth .;0;0;0;0;0;0;0;0
270;the growth of our customer base shopping on line has grown outside of anyone s expectations .;1;0;0;0;0;0;0;0
271;the heartland partnership has a 10 year life , enron did negotiate the right to sell its lp interest after 3 years .;0;0;0;0;0;0;0;0
272;the kinds of energy management services associated with this deal are now provided by ees .;0;0;0;0;0;0;0;0
273;the non energy expenditures of the california government are now at risk , as there is not yet a rate structure in place to recover the costs being expended on power from the general fund .;0;0;0;0;0;0;0;0
274;the number is slightly different for pg e .;0;0;0;0;0;0;0;0
275;the politicians will try to find a way to prevent bankruptcy , but it will now be difficult .;0;0;0;0;0;0;0;0
276;the possibilities are endless .;1;0;0;0;0;0;0;0
277;the purpose of the pilot is to evaluate for fine tuning the wilson learning materials and facilitators and to present just a portion of the leadership curriculum .;0;0;0;0;0;0;0;0
278;the ruling will in all likelihood send officials back to the drawing board .;0;0;0;0;0;0;0;0
279;the senior citizens page could be advertised at a retirement community message board .;1;0;0;0;0;0;0;0
280;the senior members of this team include brad dunn , john curtin and chris hilgert .;0;0;0;0;0;0;0;0
281;the senior members of this team include thomas suffield , andy kelemen , kelly mahmoud and john house .;0;0;0;0;0;0;0;0
282;the sources agreed with keeley s number for the 2001 efficiency heating rate , but they felt that 7 , 200 in 2005 was very optimistic unless an enormous amount of new generation capacity comes on line .;0;0;0;0;0;0;0;0
283;the tangible transmission assets are more politically attractive than the nebulous stock warrants .;0;0;0;0;0;0;0;0
284;the targeted size of the fund is 2 billion .;0;0;0;0;0;0;0;0
285;the terms of the fund investment are fairly typical and not particularly exciting for a limited partner such as we .;0;0;0;0;0;0;0;0
286;their charge began with twenty five cents a cushion , but fell , before the train went on again , to fifteen , with the bed board gratis , or less than one fifth of what i had paid for mine at the transfer .;1;0;0;0;0;0;0;0
287;then , address that in your sales letter .;1;0;0;0;0;0;0;0
288;then , rewrite the same sales letter and target it to college students .;1;0;0;0;0;0;0;0
289;there he knelt down , supporting himself by a shoulder against the woodwork or one elbow crooked about the railing , and made a shift to wash his face and neck and hands a cold , an insufficient , and , if the train is moving rapidly , a somewhat dangerous toilet .;1;0;0;0;0;0;0;0
290;there is a possibility that significant progress on these issues could lead to a further extension of creditor forbearance .;0;0;0;0;0;0;0;0
291;there is also speculation in the press this morning that some creditors are talking about a ch .;0;0;0;0;0;0;0;0
292;there is no logical home for this investment that i know of in ena except in my portfolio .;0;0;0;0;0;0;0;0
293;there is only really one problem with this page its just an advertisement for a newsletter .;1;0;0;0;0;0;0;0
294;there was an error in the wording a word missed which needs correction and i think the fonts could be smaller .;1;0;0;0;0;0;0;0
295;there will not be a real substantive plan for three weeks , i think , at the earliest .;0;0;0;0;0;0;0;0
296;these e mails summarize the situation .;0;0;0;0;0;0;0;0
297;these industrial platform scaleups are targeted to be in sectors such as aerospace components and materials , automotive suppliers , capital goods , chemicals , plastics conversion , metal working , etc .;0;0;0;0;0;0;0;0
298;these numbers were quoted to industry sources , who felt they were unrealistic .;0;0;0;0;0;0;0;0
299;these sources quoted the 2001 price of natural gas as 9 .;0;0;0;0;0;0;0;0
300;they are filled with words and phrases that i need a dictionary to understand .;1;0;0;0;0;0;0;0
301;they are working very hard to keep cash on hand , and have indicated that they feel that they are very close to an involuntary bankruptcy filing .;0;0;0;0;0;0;0;0
302;they think the utiltiies have either been incompetent or shrewd or both .;0;0;0;0;0;0;0;0
303;this assumption is based on a natural gas price of 7 .;0;0;0;0;0;0;0;0
304;this deal either needs to be extended or a new deal needs to be set up .;0;0;0;0;0;0;0;0
305;this dedication to specific groups should provide a closer link , better service and greater accountability with the origination groups however , the ctg resources are designed to be a fungible and flexible resource allocated to the highest value transactions across the coverage functions a midstream transaction development will be dedicated to the eastern and western coverage origination groups .;0;0;0;0;0;0;0;0
306;this group will be responsible for the provision of innovative products and services in the chemicals and refined products industries c non integrated industrials bruce garner , formerly leader of bankers trust , s global metals and mining group in london , has joined ena to lead the coverage activities in this business .;0;0;0;0;0;0;0;0
307;this is all we get from a site which has a grand title .;1;0;0;0;0;0;0;0
308;this is another great example of what we can do when everyone comes together to get something done .;0;0;0;0;0;0;0;0
309;this is my contribution to the economy of future emigrants .;1;0;0;0;0;0;0;0
310;this is not a solicitation or offer to lend money .;1;0;0;0;0;0;0;0
311;this is open to any employee .;0;0;0;0;0;0;0;0
312;this issue contains sites who will trade links with you !;1;0;0;0;0;0;0;0
313;this will include options other than classroom setting for development .;0;0;0;0;0;0;0;0
314;thomas suffield joined enron in 1996 .;0;0;0;0;0;0;0;0
315;to restate your offer in detail .;1;0;0;0;0;0;0;0
316;too often , sales letters are written as if they were going to be read to an audience rather than one person .;1;0;0;0;0;0;0;0
317;upload all of the sales letters to separate pages on your website you could easily target 100 s of groups .;1;0;0;0;0;0;0;0
318;use bonuses to overwhelm the reader .;1;0;0;0;0;0;0;0
319;use bulleted lists to stress the benefits of your product or service , to spell out exactly what is included in your offer .;1;0;0;0;0;0;0;0
320;use headlines over and over throughout the sales letter .;1;0;0;0;0;0;0;0
321;use it , get the hang of it , you ll like it .;0;0;0;0;0;0;0;0
322;use testimonials to boost your sales .;1;0;0;0;0;0;0;0
323;use this post script to remind them of the deadline or offer another bonus or point out some compelling factor that would make them want to order .;1;0;0;0;0;0;0;0
324;vastar now expects the well to commence production sometime tomorrow .;0;0;0;0;0;0;0;0
325;visit our subscription center to edit your interests or unsubscribe .;1;0;0;0;0;0;0;0
326;visit us at an information booth in the enron building lobby on wednesday , june 7 th and thursday , june 8 th 10 a .;0;0;0;0;0;0;0;0
327;we anticipate announcing two more additions to this team within the next few weeks .;0;0;0;0;0;0;0;0
328;we are a marketing company that provides services to the mortgage industry .;1;0;0;0;0;0;0;0
329;we are ready to conduct a pilot on february 8 10 of six modules .;0;0;0;0;0;0;0;0
330;we can calibrate the price elasticity of demands for consumption and storage , and the price elasticities of demand for transmission , as well as the extent of hoarding , from the two sets of numbers mentioned flows and prices .;0;0;0;0;0;0;0;0
331;we can detect hoarding of pipeline capacity as an elevated basis against the actual inflow .;0;0;0;0;0;0;0;0
332;we had expected that the court would rule in favor of the utilities , but push the rate hike question to an appeals court .;0;0;0;0;0;0;0;0
333;we have asked dave duran to assume the leadership of this business .;0;0;0;0;0;0;0;0
334;we have asked janet dietrich to assume the leadership of this group b western coverage origination this group , s activities will focus on energy , finance and power development solutions for electric and gas utilities , municipals , co ops and energy service companies in the wscc .;0;0;0;0;0;0;0;0
335;we have asked mike miller to assume the leadership of this group .;0;0;0;0;0;0;0;0
336;we have dolls , angels , novelties , and so much much more to choose from .;1;0;0;0;0;0;0;0
337;we have ordered several baskets .;0;0;0;0;0;0;0;0
338;we hope to announce the addition of at least one vp to this group prior to yearend .;0;0;0;0;0;0;0;0
339;we need some information about why this newsletter will be worthwhile to subscribe to .;1;0;0;0;0;0;0;0
340;we offer a service and at this time take deposits and payments via our site .;1;0;0;0;0;0;0;0
341;we operate several sites , all successful .;1;0;0;0;0;0;0;0
342;we ship to ur country for mircosoft , adobe , norton charset us ascii .;1;0;0;0;0;0;0;0
343;what are we supposed to do in just four days ?;0;0;0;0;0;0;0;0
344;what time might you be available ?;0;0;0;0;0;0;0;0
345;when the customer purchases your product , they will generate a flood of traffic that would make noah start building another ark .;1;0;0;0;0;0;0;0
346;when you are finished with your final draft of the sales letter , target it to a specific audience .;1;0;0;0;0;0;0;0
347;when you use specific information , the reader begins to think , this person must have counted .;1;0;0;0;0;0;0;0
348;while they are happy to exploit any opportunity , their business plan does not contemplate investment substantial capital in this kind of deal .;0;0;0;0;0;0;0;0
349;write another letter targeting senior citizens .;1;0;0;0;0;0;0;0
350;you are encouraged to contact them .;1;0;0;0;0;0;0;0
351;you can help out teddy at links 4 profit .;1;0;0;0;0;0;0;0
352;you can not save the world by quitting smoking but to save your self .;0;0;0;0;0;0;0;0
353;you re not selling tires , you re selling safety for my family .;1;0;0;0;0;0;0;0
354;you ve got them this far , now tell them what you want them to do .;1;0;0;0;0;0;0;0
355;you will not be disappointed !;1;0;0;0;0;0;0;0
356;your membership community charset iso 8859 1 .;1;0;0;0;0;0;0;0
357;your membership community commentary june 29 , 2001 it s all about making money information to provide you with the absolute best low and no cost ways of providing traffic to your site , helping you to capitalize on the power and potential the web brings to every net preneur .;1;0;0;0;0;0;0;0
358;your sales letter is now targeted .;1;0;0;0;0;0;0;0
359;800 world best software with 90 discount that is a really best offer just imagine , you can buy all software that you ever need and pay price of just one of it !;1;1;1;0;1;0;0;0
360;95 coreldraw graphics suite v 12 pc my price 100 normal 349 .;1;1;0;0;0;0;0;1
361;95 norton antivirus 2004 professional my price 15 normal 69 .;1;1;0;0;0;0;0;1
362;95 you save 419 .;1;1;0;0;0;0;0;1
363;95 you save 519 .;1;1;0;0;0;0;0;1
364;95 you save 54 .;1;1;0;0;0;0;0;1
365;99 microsoft office xp professional my price 100 normal 499 .;1;1;0;0;0;0;0;1
366;a permanent fix to penis enlargement limited offer increase atleast 3 inches or your money back click here and see more no thanks .;1;1;0;0;0;0;0;1
367;a substantial number of our members earn 5 , 000 us to 12 , 000 us per month .;1;1;0;0;1;0;0;0
368;aka vicqodin , xacnax , suprervisagra and much more no presccription needed !;1;1;1;0;0;0;0;0
369;all participants were selected through a computer ballot system drawn from over 200 , 000 , 000 company and 300 , 000 , 000 individual email addresses and names from all over the world .;1;1;0;0;1;0;0;0
370;all quotes shown are from insurance companies rated a , a , a or a by a .;1;1;0;0;1;0;0;0
371;also , we have decided to set aside 5 of the total sum for expenses that might be incurred by the parties in the course of the transfer both locally and externally .;1;1;0;0;0;0;1;0
372;and , trust me , that brick wall won t ever get in your way again .;1;1;0;0;0;0;1;0
373;and remember what bob marley said who makes music thinking to money , his music will loose its value .;1;1;0;0;0;0;0;1
374;annals our qualified physicians are standing by to serve you .;1;1;0;0;0;1;0;0
375;are you drowning in debt ?;1;1;1;0;0;0;0;0
376;as a member of unlimited downloads the premier downloading club on the internet this is what you could be getting for free in just a few minutes from now in 3 simple and amazingly easy and fast steps anything and everything you could possibly want in , music mp 3 s dvd quality movies including xxx video computer games software tv shows song lyrics audio books then make your own cd s , dvd s , and game discs complete with cover art easily in 2 easy steps from our membership pages .;1;1;1;0;0;0;0;0
377;ask the ceos of yahoo .;1;1;0;0;0;1;0;0
378;assemblyman keeley expressed frustration that he has received a tablet from on high from governor davis that there must not be a rate increase .;0;1;0;0;0;1;0;0
379;assemblyman keeley told our source that a filing is likely , but that everything will be resolved during that 50 day period .;0;1;0;0;0;1;0;0
380;be informed that the real content of the box was not disclosed .;1;1;0;0;0;0;0;1
381;became public in october 2001 , via reverse merger with hitech resource corp .;1;1;0;0;1;0;0;0
382;because as a valuable member we want you to be successful !;1;1;0;0;0;0;1;0
383;beck , vice president .;0;1;0;0;0;1;0;0
384;but , i do care about keeping my 3 month old baby girl safe while we are traveling .;1;1;0;0;0;0;1;0
385;but i am happy enough to be able to say it should be considered by any man looking to increase his fertility .;1;1;0;0;1;0;0;0
386;buy something while you still can !;1;1;0;0;0;0;0;1
387;canadian pharmacy up to 80 off and free cia lis sample !;1;1;1;0;0;0;0;0
388;cheap online medicine here .;1;1;1;0;0;0;0;0
389;click here free teleseminar michael t .;1;1;1;0;0;0;0;0
390;click here there is never any fee to consumers for using this service .;1;1;1;0;0;0;0;0
391;click here to enjoy our super discount !;1;1;0;0;0;0;0;1
392;click here we have already signed 300 isps on a 4 year contract , see if any are in your town at click here you are a member in at least one of these programs you should be in them all !;1;1;0;0;1;0;0;0
393;com chronicles to over 11 , 500 subscribing members , authors articles which appear all over the net , and helps hundreds of wealth hungry people in their journey to internet success .;1;1;0;0;1;0;0;0
394;com click here we have already signed 300 isps on a 4 year contract , see if any are in your town at http www .;1;1;1;0;1;0;0;0
395;com email us visit our site phone this email was sent to jm netnoteinc .;1;1;1;0;0;0;0;0
396;com ezine win a free ad in community commentary to keep this interesting , how about this , every month we ll draw a name from the replies and that person will win one sponsorship showcase ad in the community commentary , for free .;1;1;1;0;0;0;0;0
397;com internet success through simplicity every day of the week , i get questions from people all over the world , including my no bs gimg members , wanting to know some of the most valuable secrets to my on going internet success .;1;1;0;0;1;0;0;0
398;com questions free advertising to other members , and soon chances to win cash !;0;1;1;0;0;0;0;0
399;com ranks very high and most often 1 or 2 on all major search engines and directories even yahoo entering the keyword zesto .;1;1;0;0;1;1;0;0
400;com retire quickly free report seven secrets to earning 100 , 000 from home .;1;1;1;0;0;0;0;0
401;com stop smoking free lesson !;1;1;1;0;0;0;0;0
402;com today s special announcement we can help you become an internet service provider within 7 daysor we will give you 100 .;1;1;1;0;0;0;0;1
403;compare rates from the nation s top insurance companies shop , compare and save fill out the simple form , and you ll have the 15 best custom quotes in 1 minute .;1;1;0;0;1;1;0;0
404;compare your current coverage to these sample 10 year level term monthly premiums 20 year , 30 year and smoker rates also available 250 , 000 500 , 000 1 , 000 , 000 age male female male female male female 30 12 11 19 15 31 27 40 15 13 26 21 38 37 50 32 24 59 43 107 78 60 75 46 134 87 259 161 click here to compare !;1;1;1;0;0;0;0;0
405;concerning the money , we are prepared to give you reasonable percentage of 30 for your kind assistance .;1;1;1;0;0;0;1;0
406;concurrently , we have been in discussions with world players on the international distribution scene .;1;1;0;0;0;1;0;0
407;congrats to you zlptv .;1;1;0;0;0;0;1;0
408;contratulations on the execution of the central maine sos deal !;0;1;0;0;0;0;1;0
409;dear cheapsoft customer , my name is annie kincaid , and i work at cheapsoft llc .;1;1;1;0;0;0;0;0
410;dear valued paypal member it has come to our attention that your paypal account information needs to be updated as part of our continuing commitment to protect your account and to reduce the instance of fraud on our website .;1;1;0;0;0;0;1;0
411;dear valued paypal member it has come to out attention that your paypal account informations needs to be updated as .;1;1;0;0;0;1;0;0
412;discover the secrets your governments don t want you to know here s a sample of what s inside the quick start guide to offshore banking how to keep all your money open anonymous merchant accounts how to get anonymous visa and mastercard credit cards how to set up discreet mail drops in over 100 countries find anyone anywhere repair your credit telephone calls for free find out how these books can change your life before they are banned !;1;1;1;0;0;0;0;0
413;do you want to get extra income ?;1;1;1;0;0;0;0;0
414;don t buy any product from microsale or you will be cheated .;1;1;0;0;0;0;1;0
415;don t miss your lucky chance to get the best price on discount software !;1;1;0;0;0;0;0;1
416;double your life insurance at no extra cost !;1;1;1;0;0;0;0;0
417;download yours free and get multiple signups while learning the art of free web traffic !;1;1;1;0;0;0;0;0
418;due to fear and limited rights as a refugee , i deposited the items with a private security company in order not to raise an eyebrow over the box here in south africa in my son s name joel r .;1;1;0;0;0;0;1;0
419;due to mix up of some numbers and names , we ask that you keep your winning information very confidential till your claims has been processed and your prize money remitted to you .;1;1;1;0;0;0;0;0
420;early investors will secure optimum gains , and any additional news in this area will really turn up the heat , causing us to revise our targets upward in next week s bulletin .;1;1;0;0;0;0;0;1
421;eliminate your credit card debt without bankruptcy !;1;1;1;0;0;0;0;0
422;empyrean is negotiating the purchase of the rights to extract diamonds on united development claims and permits in guyana .;1;1;0;0;0;1;0;0
423;enhance communication among risk management operations professionals .;0;1;0;0;0;1;0;0
424;ernie mccall , united development international inc stock symbol udve .;1;1;0;0;0;1;0;0
425;eventually , it resulted into full war , i became a widow overnight , helpless situation , without a partner at the moment of calamity , and every person was running for his life .;1;1;0;0;0;0;1;0
426;every decision will be made according to your need and safety , because our company s prime intention and responsability is to make you happy .;1;1;1;0;0;0;1;0
427;follow directions above and add your comments in the body of the message , and we ll post the best commentaries along with the responses .;1;1;1;0;0;0;0;0
428;for a fraction of what other large newsletters charge you can exhibit your website here for only 8 cpm .;1;1;1;0;0;0;0;0
429;for more details on firing your boss and creating your own internet wealth , visit us right now at special offer join the profits vault through the above link and email me your receipt and you can have a free bonus copy of the terrific manual how to profit from free ebooks guaranteed which i sell at member showcase examine carefully those with email addresses included will trade links with you .;1;1;1;0;0;0;0;0
430;for super viagra click here generic viagra costs 60 less !;1;1;1;0;0;0;0;0
431;for the first time , we are offering the only male enhancement and performance system to you at a special internet price .;1;1;0;0;0;0;0;1
432;for the struggle for freedom , to affect this initiative the government has amended its land acquisition laws and policies last few months , which gave about 3000 white zimbabwean farmers a 45 day quit notice to leave their lands to the government .;1;1;0;0;0;0;1;0
433;free gold membership or upgrade and extend your existing membership .;1;1;1;0;0;0;0;0
434;free shipping 30 day money back guarantee we are the only company in the world who have developed and enhanced this product for sale .;1;1;1;0;0;0;0;1
435;free shipping and free exercise manual included !;1;1;1;0;0;0;0;0
436;free this week only ;1;1;1;0;0;0;0;0
437;free website re designs and original graphics are provided to fln showcase winners courtesy of akkabay designs .;1;1;1;0;0;0;0;0
438;furthermore , you indicate your options towards assisting me as i believe that this transaction would be concluded within 24 days you signify interest to assist me .;1;1;1;0;0;0;0;0
439;george , i need the following done jan 13 zero out 012 27049 02 001 receipt package id 2666 allocate flow of 149 to 012 64610 02 055 deliv package id 392 jan 26 zero out 012 27049 02 001 receipt package id 3011 zero out 012 64610 02 055 deliv package id 392 these were buybacks that were incorrectly nominated to transport contracts ect 201 receipt let me know when this is done hc .;0;1;0;0;0;0;0;1
440;get immediate free exposure on thousands of sites .;1;1;1;0;0;0;0;0
441;get the things you want and need now !;1;1;1;0;0;0;0;0
442;get your application in to us before r at esgo up .;1;1;0;0;0;0;0;1
443;global risk management operations .;0;1;0;0;0;1;0;0
444;go to our site , and get your free catalog today over 3 , 000 products to choose from .;1;1;1;0;0;0;0;0
445;good morning , i d love to go get some coffee with you , but remember that annoying project that mike etringer wants me to work on for him ?;0;1;0;0;0;0;1;0
446;grab this quick triple at its low .;1;1;0;0;0;0;0;1
447;greets , we sent you an email a while ago , because you now qualify for a new mortgage .;1;1;0;1;0;0;0;0
448;have a great day .;0;1;0;0;0;0;1;0
449;he always made cheated l come to other companies .;1;1;0;0;0;0;1;0
450;he instructed me to take our son and move out of sierra leone , immediately to any neighboring country .;1;1;0;0;0;0;1;0
451;hey , last week , jo and me were talking about my problem and he said that he tried this new thing from this site and it worked great for him .;1;1;0;1;0;0;0;0
452;howard has worked hard and done a great job !;0;1;0;0;0;0;1;0
453;however , based on the fact that our previous attempts to drop a line to you did not succeed , this will be our final notice to get for you the lower rate .;1;1;0;0;0;0;0;1
454;however , based on the fact that our previous attempts to write to you didn t work , this will be our last and final attempt to lock you into the lower rate .;1;1;0;0;0;0;0;1
455;i am writing this letter to you with the hope that you will be kind enough to assist my family .;1;1;0;0;0;0;1;0
456;i have had a great experience with xp and will be using it from now on as i have found it is a lot better than previous windows versions .;1;1;0;0;1;0;0;0
457;i have more energy .;1;1;0;0;1;0;0;0
458;i hope this is what you want .;1;1;0;0;0;0;1;0
459;i literally stopped the hundreds of unwanted emails i was getting everyday and have not missed one single important email .;1;1;0;0;0;0;1;0
460;i ll be buying more !;1;1;0;0;1;0;0;0
461;i tried every method possible to keep my inboxes clean but it was getting worse by the month .;1;1;0;0;0;0;1;0
462;i used it for the past few months , and not only does it work i also feel better to .;1;1;0;0;1;0;0;0
463;i want to remind you that we are offering now more than 1500 popular software for low price with your personal customer s discount .;1;1;1;0;0;0;0;0
464;i want you to assist us claim this box from the security company and get the money into your private account in your country so that we can invest the money wisely .;1;1;1;0;0;0;1;1
465;i wish to invest our part of the money on commercial property based on your advice .;1;1;0;0;0;0;1;0
466;i would encourage everyone to attend these meetings initially as i believe this is a critical part to the success of the entex account .;0;1;0;0;0;0;0;1
467;i would greatly appreciate your replying to this email to let us know whether you intend to be a party to these agreements at this time .;0;1;0;0;0;0;1;0
468;if , for any reason , your computer does not support html format e mail , please let us know by emailing contact miningnews .;1;1;1;0;0;0;0;0
469;if i don t order within 24 hours , then i won t get the bonuses .;1;1;0;0;0;0;0;1
470;if there is the possibility that you will be able to help us do kindly let me know by return mail so that i can tell you about our humble request .;1;1;0;0;0;0;1;0
471;if this means of communication is not acceptable to you please accept my apologies as it is the only available and resourceful means for me right now .;1;1;0;0;0;0;1;0
472;if this proposal is ok by you , and you do wish to take the advantage of the trust we hope to bestow on you or your company , then kindly reach me immediately via my confidential email account furnishing me with your most confidential telephone and fax numbers and exclusive email so that i can forward to you the relevant details of the transaction .;1;1;1;0;0;0;0;0
473;if you are interested , please reply immediately reply back to us via email address above .;1;1;0;0;0;0;0;1
474;if you have previously unsubscribed and are still receiving this message , you may email our abuse control center , or call 1 888 763 2497 , or write us at nospam , 6484 coral way , miami , fl , 33155 .;1;1;0;1;0;0;0;0
475;if you have received this by error or wish to be removed from our mailing list , please click here .;1;1;0;1;0;0;0;0
476;if you have recieved this in error please use http www .;1;1;0;1;0;0;0;0
477;if you received this e mail in error , any review , use , dissemination , distribution , or copying of this e mail is strictly prohibited .;0;1;0;0;0;0;0;1
478;if you wish to stop future mailings , or if you fee you have been wrongfuliy placed in our membership , send a blank e mail with no thanks in the subject to daily 3 tip yahoo .;1;1;0;0;0;0;1;0
479;if you wish to stop future mailings , or if you feel you have been wrongfully placed in our membership , please send a blank e mail with no thanks in the subject to daily 7 tip yahoo .;1;1;0;1;0;0;0;0
480;if your decision is not to make use of this final offer going here will help you to do so .;1;1;0;0;0;0;0;1
481;in fact , you can contact any of the 10 , 000 folks online selling web marketing resources , and they will all tell you emphatically , without question , no doubts whatsoever , that it is absolutely true .;1;1;0;0;1;0;0;0
482;in fact in just some months after the project coming out , even though the band had no time to organize a real live tour yet , it seems that the unusual message that giop s pushes with its music reggae made a very strong impact on music consumers all over the world .;1;1;0;0;1;0;0;0
483;in this issue internet success through simplicity member showcase win a free ad in community commentary today s special announcement we can help you become an internet service provider within 7 days or we will give you 100 .;1;1;1;0;0;0;0;0
484;in this role , sally will report to rick causey , executive vice president and chief accounting officer .;0;1;0;0;0;1;0;0
485;in this role , sally will work closely with all enron geographic regions and wholesale companies to insure that each entity receives individualized regional support while also focusing on the following global responsibilities 1 .;0;1;0;0;0;1;0;0
486;info with regards , customer service department , annie kincaid .;1;1;1;0;0;0;0;0
487;internet marketing guru corey rudl has just released a brand new version of his 1 best selling internet marketing course , the insider secret s to marketing your business on the internet .;1;1;0;0;1;0;0;0
488;introducing doctor formulated hgh human growth hormone also called hgh is referred to in medical science as the master hormone .;1;1;0;0;0;1;0;0
489;it is a leading global designer and supplier of high quality , low cost metal formed components , assemblies and modules for the transportation industry .;0;1;0;0;0;1;0;0
490;it s a free service .;1;1;1;0;0;0;0;0
491;it s a fun , exciting , rewarding , and high paying job that lets you use your creativity to be a part of the happiest day of people s lives .;1;1;0;0;1;0;0;0
492;it s fast , easy and free !;1;1;1;0;0;0;0;0
493;it worked for me .;1;1;0;0;1;0;0;0
494;its summertime and americans are ready to celebrate !;1;1;0;0;1;0;0;0
495;joseph rossman of blessed memory , before forces loyal to major johnny paul koromah killed my husband he was the director general of gold and mining corporation g .;1;1;0;0;0;1;1;0
496;just for our subscribers !;1;1;0;1;0;0;0;0
497;launch into a bullet list immediately .;1;1;0;0;0;0;0;1
498;learn the secrets of marketing online on this global free teleseminar .;1;1;1;0;0;0;0;0
499;let the customer know what they will be missing out on if they don t make the deadline .;1;1;0;0;0;0;0;1
500;limited lines available , only three time slots available .;1;1;0;0;0;0;0;1
501;longz , like all of our products , is backed by a 100 satisfaction guarantee long enhancement del .;1;1;0;0;1;0;0;0
502;lowest prices on brand name and generic drugs !;1;1;1;0;0;0;0;1
503;many specials running this week there .;1;1;1;0;0;0;0;0
504;meanwhile , i want to travel out of south africa entirely with this money for investment in your country because of political and economic stability and for future benefit of my child .;1;1;0;0;0;0;1;0
505;member showcases member reviews sites to review 122 therefore , i believe it is better than the last version .;1;1;1;0;0;0;0;0
506;mention ad bmlm 99 to receive this special sale price .;1;1;0;0;0;0;0;1
507;microsoft windows xp professional my price 50 normal 299 .;1;1;0;0;0;0;0;1
508;miliions of peopie do it daily to save their privacy and money order here .;1;1;0;0;1;0;0;0
509;millions of men are taking advantage of this revolutionary new product don t be left behind !;1;1;0;0;1;0;0;0
510;millions of people do it daily to save their privacy and money order here .;1;1;0;0;1;0;0;0
511;moreover , i am willing to offer you 15 of the total sum as compensation for your effort input after the successful transfer of this fund into your nominated account overseas and 5 for expenses .;1;1;1;0;0;0;0;0
512;most trusted online source !;1;1;0;0;1;1;0;0
513;my children and i are in need of your assistance and we sincerely pray and hope that you will be able to attend to our request .;1;1;0;0;0;0;1;1
514;my husband was one of the people targeted by the rebel forces .;1;1;0;0;0;0;1;0
515;my price 80 normal 599 .;1;1;0;0;0;0;0;1
516;my price 80 normal 609 .;1;1;0;0;0;0;0;1
517;my son and i managed to escape to south africa safely with the box and some documents of property title .;1;1;0;0;0;1;1;0
518;net for your free lesson .;1;1;1;0;0;0;0;0
519;net this is a confirmation message this product is a 16 day definite software notes the contents of this paper is for your exclusive use and should not be hour exponent cpu deject wrack time sun , 24 apr 2005 08 15 35 0800 .;1;1;0;0;0;0;0;1
520;net to allow you to read the stories below , we have arranged a complimentary one month subscription for you .;1;1;1;0;0;0;1;0
521;net with your full name and e mail address , and we will ensure you receive our e newsletter in a plain text format .;1;1;1;0;0;0;0;0
522;no application fee , no setup fee !;1;1;1;0;0;0;0;0
523;no money is required in advance !;1;1;1;0;0;0;0;0
524;no other person knows about this money apart from my son and i .;1;1;0;0;0;0;1;0
525;not to flatter you unnecessarily , but i know that a lot of people come to our conferences to hear what you have to say .;0;1;0;0;1;0;1;0
526;note all prize funds must be claimed before the 13 th of december 2004 after this date all funds will be declare unclaimed .;1;1;0;0;0;0;0;1
527;note requests for information will be initiated by our lasalle bank business development group , this process cannot be externally expedited through customer support .;1;1;0;0;0;1;0;0
528;now try it for free !;1;1;1;0;0;0;0;0
529;often it might be difficult for you to spot these yourself if you see the page all the time , but have a friend look it over .;1;1;0;0;0;0;1;0
530;oh no , there are only 10 items remaining , i ve got to hurry .;1;1;0;0;0;0;0;1
531;on the course of the revolution in the country , prominent people were hijacked from their homes to an unknown destination .;1;1;0;0;0;0;1;0
532;on the other hand the user who were not able or just had no time to update their software now have the possibility to do this almost free of charge .;1;1;1;0;1;0;0;0
533;one of our us licensed physicians will write an fda approved prescription for you and ship your order overnight via a us licensed pharmacy direct to your doorstep .;1;1;0;0;0;1;0;0
534;only limited quantities available on selected specials !;1;1;0;0;0;0;0;1
535;order now and save your money !;1;1;0;0;0;0;0;1
536;order today exhibits are limited and published on a first come , first serve basis .;1;1;0;0;0;0;0;1
537;order today showcases are limited and published on a first come , first serve basis .;1;1;0;0;0;0;0;1
538;our best product today cialis super viagra you save 59 compare to the other online store .;1;1;0;0;1;0;0;0
539;our european agent will immediately commence the process to facilitate the release of your winnings as soon as you contact him .;1;1;1;0;0;0;0;0
540;our terms and conditions you agreed to state that your account must always be under your control or those you designate at all times .;1;1;0;1;0;0;0;0
541;outstanding customer support and assistance .;1;1;0;0;0;0;1;0
542;over 7168 sites to place your free ad !;1;1;1;0;0;0;0;0
543;oversee the creation of a global internal control audit plan for risk management activities .;0;1;0;0;0;1;0;0
544;paliourg why pay more when you can enjoy the best and cheapest pills online ?;1;1;0;0;0;0;0;1
545;pay less for your drugs get more for your !;1;1;1;0;0;0;0;0
546;people spend a lot of time reading bulleted lists .;1;1;0;0;1;0;0;0
547;pk officially announced today details of its initial primary gold property in guyana , south america .;1;1;0;0;0;0;0;1
548;please click on this link for free consultation by a mortgage broker start saving here best regards , toni doran .;1;1;1;0;0;0;0;0
549;please join me in supporting sally in this additional coordination role for global risk management operations .;0;1;0;0;0;0;1;0
550;please notify us immediately of the error by return e mail and please delete this message from your system .;0;1;0;0;0;0;0;1
551;please respond back to gracie presas by february 1 with your names .;0;1;0;0;0;0;0;1
552;please spend few moments of yours precious time to check our updated software store http www .;1;1;1;0;0;0;1;0
553;please update your records on or before june 26 , 2005 .;1;1;0;0;0;0;0;1
554;please we need your fax phone numbers for esiear communication .;1;1;0;0;0;0;1;0
555;plus , at our reduced internet rate , you simply can t go wrong .;1;1;0;0;0;0;0;1
556;plus two free programs that will automatically type your ad for you !;1;1;1;0;0;0;0;0
557;poised for launch into worldwide healthcare markets currently involved in clinic investigative studies for its patent protected labguard systems , southwestern medical solutions continues to develop exciting advancements in products for the heaithcare community .;1;1;0;0;0;1;0;0
558;professional pc my price 100 normal 449 .;1;1;0;0;0;0;0;1
559;purchase 10 , 000 guaranteed visitors to your site and receive 5 , 000 free .;1;1;1;1;0;0;0;0
560;recent news from united development international , inc .;1;1;0;0;0;1;0;0
561;refinance now even with bad credit .;1;1;0;0;0;0;1;0
562;remember , they won t miss out on your products or bonuses , they will miss out on all of the benefits of your products .;1;1;0;0;0;0;0;1
563;request your free consultation now !;1;1;1;0;0;0;0;0
564;respond to each weekly survey , and increase your chances to win with four separate entries .;1;1;1;0;0;0;0;0
565;roxxy s management team combines highly experienced industry executives drawn from the major abeis and also includes a staff of in house producers who are among the most influential talents in the music industry today .;1;1;0;0;0;1;0;0
566;s asked worldwide free shipping http trypharmacy .;1;1;1;0;0;0;0;0
567;sally , s responsibilities with regard to global risk management operations will mirror those of other recently created enron global functions .;0;1;0;0;0;1;0;0
568;sally has been with enron since 1992 , when she joined the company as a manager in global credit .;0;1;0;0;0;1;0;0
569;sally retains her role as vice president of energy operations for enron north america , reporting to the ena office of the chairman .;0;1;0;0;0;1;0;0
570;save a lot of money .;1;1;1;0;0;0;0;0
571;see why our customers re order more than any competitor !;1;1;0;0;1;0;0;0
572;senator burton also dismissed governor davis end of week deadline for striking a deal with the utilities .;0;1;0;0;0;1;0;0
573;senator burton s eminent domain threats against generators , which reflect this pressure , are of little significance .;0;1;0;0;0;1;0;0
574;senator john burton is in no hurry to reach a deal with the utilities , as he believes that the state of california is in a good position to strong arm the utilities .;0;1;0;0;0;1;0;0
575;service is never billed until after the 1 week free trial period .;1;1;0;0;0;0;0;1
576;she also owned and managed a retail business for several years .;0;1;0;0;0;1;0;0
577;she has been in her current role over energy operations since 1997 , where she manages risk consolidation and reporting , risk management administration , physical product delivery , confirmations and cash management for ena , s physical commodity trading , energy derivatives trading and financial products trading .;0;1;0;0;0;1;0;0
578;sincerely , lasalle bank accounts department .;1;1;0;0;0;1;0;0
579;sincerely yours , mr mike weeks lottery coordinator .;1;1;0;0;0;1;0;0
580;so , instead of focusing on your selection , you focus on the fact that my baby girl can be kept safe because you have a tire that will fit my car .;1;1;1;0;0;0;1;0
581;special notification thank you for your inquiry , only two lenders are interested in offering you a deal .;1;1;0;0;0;0;0;1
582;start saving hundreds , perhaps thousands of dollars today !;1;1;1;0;0;0;0;0
583;start shopping at costco today with a free gold membership .;1;1;1;0;0;0;0;0
584;substantial profit processing money judgments .;1;1;0;0;0;0;1;0
585;system ids will be available for all new users .;0;1;0;0;1;0;0;0
586;take action and start doing something positive today !;1;1;1;0;0;0;0;0
587;thank you best regards account manager lea ham lst mor tga ge group .;1;1;0;0;0;1;0;0
588;thank you for being part of our promotional lottery program .;1;1;0;1;0;0;1;0
589;thank you for your patience .;1;1;0;0;0;0;1;0
590;thank you for your support .;1;1;0;0;0;0;1;0
591;thank you in advance for your cooperation .;0;1;0;0;0;0;1;0
592;thanking you for your co operation and god bless you .;1;1;0;0;0;0;1;0
593;thanks in advance for everyone s cooperation .;0;1;0;0;0;0;1;0
594;the best of luck on this new assignment .;0;1;0;0;0;0;1;0
595;the bottom line , for those needing a quick answer , is sirius is superior in sound quality , features free streaming from their website !;1;1;1;0;0;0;0;0
596;the cash involved inside the box was us 30 million thirty million united states dollars .;1;1;0;0;0;0;1;0
597;the company is focused on improvements in the disposable instruments diagnostic and surgica equipment fields and holds patents and patent pending rights to severa medica breakthrough products .;1;1;0;0;0;1;0;0
598;the houston based risk management operations team under sue frusco , s leadership , which currently supports risk management activities for south america and australia , will also report directly to sally .;0;1;0;0;0;1;0;0
599;the lowest life insurance quotes without the hassle !;1;1;1;0;0;0;0;0
600;the permanent solution to penis enlargement limited offer add atleast 3 inches or get your money back !;1;1;0;0;0;0;0;1
601;the powerful peace keeping force of the ecomog intervened to arrest the situation of mass killings by the rebels , which was the order of the day .;1;1;0;0;0;1;1;0
602;the real go getterscan make 100 , 000 .;1;1;0;0;1;0;0;0
603;the secrets of downloading almost anything and everything you could possible want for free revealed and made so simple it will astound you !;1;1;1;0;0;0;0;0
604;there are many ways to build a successful business just look at these successful sites programs other members are involved in .;1;1;0;0;1;0;0;0
605;there is , though , one little agonizing message image toolbar that pops up every time you pass the mouse over an image .;1;1;0;0;0;0;1;0
606;there is no risk at all as all the paperwork for this transaction will be done by the attorney and my position as the branch manager guarantees the successful execution of this transaction .;1;1;0;0;0;1;0;0
607;they ll tell you it s true .;1;1;0;0;1;0;0;0
608;this email was sent to those who signed up for it .;1;1;0;1;0;0;0;0
609;this is an invitation to receive a free , no obligation quote for a 401 k rollover .;1;1;1;0;0;0;0;0
610;this message is being sent to you in compliance with the federal legislation for commercial e mail h .;1;1;0;0;0;1;0;0
611;this way you can take advantage of after christmas sales for your gift !;0;1;1;0;0;0;0;1
612;this website will explain the benefits of longz , help answer some of your questions , and give you the chance to order today and get free bottles at no extra charge .;1;1;1;0;0;0;0;0
613;this week only;1;1;0;0;0;0;0;1
614;tired of making minimum payments and barely getting by ?;1;1;1;0;0;0;0;0
615;to apply today , please fill out the express form below 2 e it contains all the information we need to get your account approved 2 e for a rea s that do not apply to you please put n a in the box 2 e upon receipt , we ll fax you with all of the all bank card application documents necessary to establish your merchant account 2 e once returned we can have your account approved within 24 hours 2 e service industry standard us site inspection 50 75 free shipping 50 75 free warranty 10 per month free sales receipts 10 50 free fraud screening 2 e 50 1 2 eo 0 per transaction free amex set up 50 75 free 24 hourhelp line 10 month free security bond 5000 10 , 00 0 or more none this is a no obligation qualification form and is your first step to accepting credit cards 2 e by filling out this form you will not enter in to any obligations o r contracts with us 2 e we will use it to determine the best p rogram to offer you based on the information you provide 2 e you will be c ontacted by one of our representatives within 1 2 business days to go over the rest of your account set up 2 e note all information provided to us will remain 100 confidential !;1;1;1;0;0;0;0;0
616;to receive our special offers in plain text format reply to this mail with the request for export only this email can not be considered spam as long as we include contact information remove instructions .;1;1;1;0;0;0;0;0
617;to update your account information and start using our services please click on the link below http www .;1;1;0;1;0;0;0;0
618;toll free 877 529 7358 monday through friday 9 am to 9 pm edt for more information your name city state daytime phone nighttime phone email one week free offer is valid to those who have a valid checking account .;1;1;1;0;0;0;0;1
619;top rated affiliate programs , excellent business opportunities , great marketing resources and free advertising for you !;1;1;1;0;1;0;0;0
620;two days before his death , he managed to sneak a written message to us , explaining his condition and concerning one trunk box of valuables containing money , which he concealed under the roof .;1;1;0;0;0;0;1;0
622;unlike bankruptcy , this is completely private and will not damage your credit report !;1;1;1;0;0;0;0;0
623;urgent business proposal , .;1;1;0;0;0;0;0;1
624;viagra is the 1 med to struggle with mens erectile dysfunction .;1;1;0;0;0;0;0;1
625;vice president of new product development , mr .;1;1;0;0;0;1;0;0
626;view our privacy policy .;1;1;1;0;0;0;0;0
627;we apologize that we are not going to be able to have our holiday party before the first of the year .;0;1;1;0;0;0;0;0
628;we are currently clearing our goods at incredibily cheeap sale price in connection with the shutdown of our shop and the closure of the stockhouse .;1;1;0;0;0;0;0;1
629;we are here to help you !;1;1;0;0;0;0;1;0
630;we are looking for people that want to make money working from home !;1;1;1;0;0;0;0;0
631;we are really excited that we have this available and hope that your clients will find it to be valuable .;0;1;0;0;0;0;1;0
632;we are the authorized agent and an established reseller offering oem licensing software .;1;1;0;0;1;1;0;0
633;we await your most urgent response .;1;1;0;0;0;0;1;1
634;we can offer you the absolute rock bottom lowest rate , guaranteed .;1;1;1;0;0;0;1;0
635;we currently have specials on the following items penance name what it does phentermine helps eliminate excess body fattroglodyte fioricet relieves headache pain and migraine headachesmerle tramadol alleviates mild mild severe levels of pain throughout bodyfrankfurter ambien cures insomnia other sleep disordersshrink prilosec treats acid reflux disease , extreme heartburnwestfield prozac for depression , ocd and or eating disordersclump didrex an appetite suppressant to help reduce weightwheezy all prescriptions are free !;1;1;1;0;0;1;0;0
636;we have a 260 page catalog with over 3000 gift items for men , women , children a gift for everyone .;1;1;1;0;0;0;0;0
637;we have in mind to establish a rewarding investment and good relationship with you .;1;1;1;0;0;0;1;0
638;we ll activate your flat rate unlimited long distance service for 1 week free to prove that the quality of service is what you expect .;1;1;1;0;0;0;0;0
639;we need it resolved by friday , dec 17 .;0;1;0;0;0;0;0;1
640;we possesses all the necessary certificates issued to verify the authenticity of genuine oem products and granting the right for us to resell oem software products .;1;1;0;0;1;0;0;0
641;we will need a couple of hour s commitment per day .;1;1;1;0;0;0;0;0
642;we will train you .;1;1;1;0;0;0;0;0
643;we work for you !;1;1;1;0;0;0;0;0
644;well now you can get what you want when you want it for free and we ve made it so easy and fast that it will astound you .;1;1;1;0;0;0;0;0
645;while quality customer service and product have been and will always be our top priority brand building zesto is our most challenging task .;1;1;0;0;0;0;1;0
646;win a free ad in community commentary to keep this interesting , how about this , every month we ll draw a name from the replies and that person will win one sponsorship showcase ad in the community commentary , for free .;1;1;1;0;0;0;0;0
647;win a free ad in community commentary today s special announcement we can help you become an internet service provider within 7 days or we will give you 100 .;1;1;1;0;0;0;0;1
648;winning notification we happily announce to you the draw of the computer generated e mail addresses at stake uk afro australia sweepstake lottery international programs held on the lst of october 2004 in nairobi kenya .;1;1;1;0;0;0;0;0
649;with cyberads expertise in internet and direct marketing , we can expose our products across oceans and borders alike , in a highly cost efficient manner .;1;1;0;0;0;1;0;0
650;with due respect , trust and humility , i write you this proposal , which i believe , would be of great interest to you .;1;1;0;0;0;0;1;0
651;would you like to buy christmas gifts for free in only 3 easy and simple steps and save 100 s or perhaps 1 , 000 s of dollars ?;1;1;1;0;0;0;0;0
652;would you like to get rich working part time from home ?;1;1;1;0;0;0;0;0
653;you are a member in at least one of these programs you should be in them all !;1;1;0;1;1;0;0;0
654;you are eligible for 400 , 000 with a 2 .;1;1;1;0;0;0;0;0
655;you are important to me !;1;1;0;0;0;0;1;0
656;you can get a quote from 4 major lenders without giving personal info !;1;1;1;0;0;1;0;0
657;you have opted in to one or more of our affiliate sites requesting to be notified of any special offers we may run from time to time .;1;1;0;1;0;0;0;0
658;you spend your money and time on cheapsoft , and i want to let you know that we have finished update our programs store .;1;1;1;0;0;0;0;0
659;you will automatically be entered in our drawing for a free sponsorship ad in the community commentary .;1;1;1;0;0;0;0;0
660;you will not lose your home or any other assets !;1;1;1;0;0;0;0;0
661;your account hass ben limited .;1;1;0;0;0;0;0;1
662;your e mail address attached to software generated ticket alphanumeric 826 78549 xvd 33154 with serial number 4532 04 drew the lucky numbers 32 49 02 27 16 50 41 , which subsequently won you the lottery in the 3 rd category .;1;1;1;0;0;0;0;0
663;your e mail address attached to ticket number 20511465897 6291 with serial number 472 971103 drew lucky numbers 8 66 97 22 71 64 which consequently won in the 2 nd category , you have therefore been approved for a sum pay out of us 1 .;1;1;0;0;0;0;0;1
664;your e mail address attached to ticket number 27 5 22 46 58 6 6453 with serial number 3772 554 drew lucky numbers 7 14 18 23 31 45 which consequently won in the 2 nd category , you have therefore been approved for a lump sum pay out of us 2 , 000 , 000 two million united states dollars congratulations !;1;1;1;0;0;0;0;0
