5;theres no better way to celebrate than in phantom fireworks style !;1;0;0;0;0;0;0
11;com we hope that you will enjoy the fun and excitement of phantom fireworks , and that you will do so in a safe and careful manner .;1;0;0;0;0;0;0
18;com 555 martin luther king blvd .;1;0;0;0;0;0;0
19;youngstown , oh 44502 this e mail message is an advertisement and or solicitation .;1;0;0;0;0;0;0
25;00 you saave 249 .;1;0;0;0;0;0;0
26;00 adobe photoshop cs v 8 .;1;0;0;0;0;0;0
31;95 adobe acrobaat v 6 .;1;0;0;0;0;0;0
32;o professional pc my price 100 normal 449 .;1;0;0;0;0;0;0
35;95 you saave 419 .;1;0;0;0;0;0;0
36;95 norton antivirus 2 oo 4 professional my price 15 normal 69 .;1;0;0;0;0;0;0
38;95 coreldraw graphics suite v 12 pc my price 100 normal 349 .;1;0;0;0;0;0;0
47;we are the authorized agent and an established reseller offering oem licensing software .;1;0;0;0;0;0;0
51;make home improvements , or take cash out .;1;0;0;0;0;0;0
52;november update further drop !;1;0;0;0;0;0;0
55;visit us at http www .;1;0;0;0;0;0;0
57;are you ready to get it ?;1;0;0;0;0;0;0
63;40 autodesk building systems 2004 2 cds .;1;0;0;0;0;0;0
69;50 dvdxcopy platinum 4 .;1;0;0;0;0;0;0
81;envia nos um email para djsbooking sapo .;1;0;0;0;0;0;0
83;a msica que nos faz danar , mexer desenfreadamente e de no querermos parar !;1;0;0;0;0;0;0
84;com este espirito , que os djs oficiais da radio nacional antena 3 dj the fox , dj guga , dj nuno miguel e dj nuno reis levam at si as sonoridades implementadas em mais de 10 horas de emisso todas as semanas .;1;0;0;0;0;0;0
86;o apoio oficial da estao na divulgao do evento com spots , leitura em estdio , divulgao contnua e oferta de merchandising na festa .;1;0;0;0;0;0;0
89;um e mail no poder ser considerado spam quando inclui uma forma de ser removido .;1;0;0;0;0;0;0
92;vangelis remove all your traces circumvent .;1;0;0;0;0;0;0
93;hello tiffany did you know that your computer is an open book that tells anyone who wants to know exactly what you do in your own privacy ?;1;0;0;0;0;0;0
98;sa ve 7 0 ord .;1;0;0;0;0;0;0
102;new alternative remedy may help fight hiv .;1;0;0;0;0;0;0
106;the antidote is the answer .;1;0;0;0;0;0;0
111;would you like to get rich working part time from home ?;1;1;0;0;0;0;0
112;do you want to get extra income ?;1;1;0;0;0;0;0
117;your personal coach will explain you how to put the internet and your computer to work for you .;1;0;0;0;0;0;0
123;take action and start doing something positive today !;1;1;0;0;0;0;0
133;the step down of it , which adapts levels of other hormones in the trunk is at once liable for many of the greatest general emblems of eld , such as crinkles , gray hair , fell power , and lessened intimate role .;1;0;0;0;0;0;0
134;candy super money maker .;1;0;0;0;0;0;0
137;com 4 best offer 136 74 th street north bergen , nj 07047 .;1;0;0;0;0;0;0
140;canadian phar macy up to 80 off and f r e e cia lis sample !;1;1;0;0;0;0;0
143;no prior prescription needed !;1;0;0;0;0;0;0
144;see why our customers re order more than any competitor !;1;0;0;1;0;0;0
151;pc weekly review results after a thorough comparison of the various retailers , the best offer is wlndows x p 50 doiiar 150 doiiar less full survey results bayed eltonpugh starve gathermimetic weld arsonvocabulary carbondale midgeortega twine ozarkally beauteous duskannette grail costdinah contaminate dingohare brady corvuschemise .;1;0;0;0;0;0;0
163;oo adobe acrobat v 6 .;1;0;0;0;0;0;0
164;o professional pc my price 1 oo normal 449 .;1;0;0;0;0;0;0
165;95 you saave 349 .;1;0;0;0;0;0;0
172;18 , 2004 primezone billy martin s usa , inc .;1;0;0;0;0;0;0
179;for well made american branded goods , especially in japan , china and russia where young , active consumers with disposable incomes are increasingly embracing e commerce .;1;0;0;0;0;0;0
181;the billy martin s brand is about as american as you can get , and when you combine that with well made , great fitting , and well priced goods like a classic denim shirt with pearl snap buttons the consumer is given a product of value , prestige and character , newton concluded .;1;0;0;0;0;0;0
182;statements about blym s future expectations , including revenues and earnings , and all other statements in this release are forward looking statements .;1;0;0;0;0;0;0
187;after completing the acquisition of billy martin s western wear , la , inc .;1;0;0;0;0;0;0
191;doug newton , ceo 310 289 5000 doug billymartin .;1;0;0;0;0;0;0
195;, london , el 4 ns , united kingdom phone 571 396 7479 mobile 354 117 9463 email robvofjfdx flashmail .;1;0;0;0;0;0;0
201;dont let her know clarify baffle .;1;0;0;0;0;0;0
206;cormier , 95 0 ff for all v i a g r a c i a l is , l e vi tra .;1;0;0;0;0;0;0
217;0 c 0 d o .;1;0;0;0;0;0;0
219;oo 9 o pills 289 .;1;0;0;0;0;0;0
222;please do not reply directly to this message this product is a 36532800 1 .;1;0;0;0;0;0;0
223;construo e reforma em 12 x .;1;0;0;0;0;0;0
234;sebastine vanhans e mail sebastinevanhans consultant .;1;0;0;0;0;0;0
242;ron williams died from an automobi le accident .;1;0;0;0;0;0;0
251;ron williams so that the fruits of this old man s labour will not get into the hands of some corrupt government officials .;1;0;0;0;0;0;0
254;we shall employ the service of an accredited attorney for drafting and notarization of the ?;1;0;0;0;0;0;0
260;upon your response , we shall then provide you with more details and relevant documents that will help you understand the transaction .;1;0;0;0;0;0;0
265;com adsl illimite tiscali telephone gratuit surfez 40 fois plus vite pour 30 eur mois seulement !;1;0;0;0;0;0;0
266;phonez partout en france gratuitement , vers les postes fixes hors num?;1;0;0;0;0;0;0
268;pour profiter de cette offre exceptionnelle , cliquez ici http register .;1;0;0;0;0;0;0
269;fr adsl voir conditions sur le site .;1;0;0;0;0;0;0
276;swnm announced that continuing successfu clinical trials of its proprietary labguard tm diagnostic systems and ongoing medical device deveiopment has attracted significant interest from numerous worldwide medica distribution organizations .;1;0;0;0;0;0;0
284;the complete product ine , encompassing a wide array of medical diagnostics tests , wi begin its prototype testing once the initia labguard product is officialiy aunched .;1;0;0;0;0;0;0
290;then you may feel the time has come to act .;1;0;0;0;0;0;0
291;and please watch this one trade friday !;1;0;0;0;0;0;0
296;if you wish to stop future maiiings , or if you fee you have been wrongfuily piaced in our membership , send a blank e mail with no thanks in the sub ject to daily 6 tip yahoo .;1;0;0;0;0;0;0
299;like one jokes sais , it is strong enough for a man , but made for a woman orderinq viaqra oniine is a very convinient , fast and secure way !;1;0;0;0;0;0;0
303;the only solution to penis growth limited time offer increase atleast 3 inches or your money back visit us and learn more !;1;0;0;0;0;0;0
304;chms pioneering explosive wireless niche in china corporate summary industry overview reasons to consider this stock conclusion company s profile contact information 789 w .;1;0;0;0;0;0;0
307;16 shares outstanding 15 .;1;0;0;0;0;0;0
313;greenspan is going to raise the numbers out of reach , try us out before he does !;1;0;0;0;0;0;0
316;box 78361 , san francisco , ca 94107 8361 .;1;0;0;0;0;0;0
319;new natural weight loss product money back guarantee !;1;0;0;0;0;0;0
322;the most powerful weightloss is now available without prescription .;1;0;0;0;0;0;0
326;reduction of 40 70 overall fat under skin .;1;0;0;0;0;0;0
328;up to 300 more weight loss while dieting .;1;0;0;0;0;0;0
329;boost your confidence level and self esteem .;1;0;0;0;0;0;0
331;get the facts about all natural adipren 720 if you wish not to be contacted again please enter your email address here .;1;0;0;0;0;0;0
344;moreover , i am willing to offer you 15 of the total sum as compensation for your effort input after the successful transfer of this fund into your nominated account overseas and 5 for expenses .;1;1;0;0;0;0;0
346;anticipating to hear from you soon .;1;0;0;0;0;0;0
352;100 corel draw 12 graphic suite .;1;0;0;0;0;0;0
357;20 macromedia studio mx 2004 .;1;0;0;0;0;0;0
360;50 microsoft office system professional 2003 5 cds .;1;0;0;0;0;0;0
362;home investor relations ticker symbol blym shareholder information market makers transfer agent symbol blym as in baseball s lucky yankee manager traded otc pink sheets press release source billy martin s usa , inc .;1;0;0;0;0;0;0
363;expanding east and west via cyberads , inc .;1;0;0;0;0;0;0
365;18 , 2004 primezone billy martin s usa , inc .;1;0;0;0;0;0;0
373;with cyberads expertise in internet and direct marketing , we can expose our products across oceans and borders alike , in a highly cost efficient manner .;1;0;0;0;0;0;0
374;the billy martin s brand is about as american as you can get , and when you combine that with well made , great fitting , and well priced goods like a classic denim shirt with pearl snap buttons the consumer is given a product of value , prestige and character , newton concluded .;1;0;0;0;0;0;0
376;since these statements involve risks and uncertainties and are subject to change at any time , the company s actual results may differ materially from the company s plans if its assumptions prove to be incorrect , or , for a variety of other reasons .;1;0;0;0;0;0;0
377;billy martin s usa , inc .;1;0;0;0;0;0;0
383;contact billy martin s usa , inc .;1;0;0;0;0;0;0
384;doug newton , ceo 310 289 5000 doug billymartin .;1;0;0;0;0;0;0
396;ob current price 0 .;1;0;0;0;0;0;0
400;ob will give big returns on investment at this time much of vnbl s focus is on rfid radio frequency identification technoiogy .;1;0;0;0;0;0;0
403;vnbl is developing a form of rfid technology which aliows companies and governments to wireiessiy track their assets and resources .;1;0;0;0;0;0;0
408;fresh news has made vnbl a hot buy .;1;0;0;0;0;0;0
410;business wire june 16 , 20 o 5 vinoble , inc .;1;0;0;0;0;0;0
411;otcbb vnbl news , a holding company seeking to identify long term growth opportunities in the areas of homeiand security , security information systems , and other security services , announced today that it plans to offer products and services that wiil assist in the automation of the identification and control of equipment , assets , toois , and the related processes used in the oil gas and petrochemica industries .;1;0;0;0;0;0;0
423;this is outstanding news .;1;0;0;0;0;0;0
431;forward ooking statements in this action may be identified through the use of words such as projects , foresee , expects , wil , anticipates , estimates , beiieves , understands or that by statements indicating certain actions may , couid , or might occur .;1;0;0;0;0;0;0
435;we urge you to read the filings before you invest .;1;0;0;0;0;0;0
436;the rocket stock report does not represent that the information contained in this message states a materia facts or does not omit a material fact necessary to make the statements therein not misieading .;1;0;0;0;0;0;0
437;all information provided within this email pertaining to investing , stocks , securities must be understood as information provided and not investment advice .;1;0;0;0;0;0;0
441;you can lose ail your money by investing in this stock .;1;0;0;0;0;0;0
442;the pubiisher of the rocket stock report is not a registered investment advisor .;1;0;0;0;0;0;0
444;any reference to past performance s of companies are specia y selected to be referenced based on the favorabie performance of these companies .;1;0;0;0;0;0;0
446;there can be no assurance of that happening .;1;0;0;0;0;0;0
450;has a position in the stock they wil se at any time without notice .;1;0;0;0;0;0;0
451;be aware of an inherent conflict of interest resulting from such compensation due to the fact that this is a paid advertisement and we are confiicted .;1;0;0;0;0;0;0
457;like one jokes sais , it is strong enough for a man , but made for a woman orderinq viagra oniine is a very convinient , fast and secure way !;1;0;0;0;0;0;0
460;please let the image load .;1;0;0;0;0;0;0
463;best online pills here .;1;0;0;0;0;0;0
464;creamery acolyte mane oat pantry vicinal couple embeddable cayuga need pres cription medication without a prior prescri ption ?;1;0;0;0;0;0;0
465;absolutely no doctor s appointments needed !;1;0;0;0;0;0;0
467;stop getting promotional material here imprecision bury anteater sonnet clasp metalwork .;1;0;0;0;0;0;0
468;how to soak her in cum .;1;0;0;0;0;0;0
469;i just wanted to write and thank you for spur m .;1;0;0;0;0;0;0
473;spur m seems to have done just that !;1;0;0;0;0;0;0
481;i hadn t been made aware of this product before then , so was quite surprised to be able to find a male fertility product .;1;0;0;0;0;0;0
484;i can t be 100 sure if it was spur m that helped .;1;0;0;0;0;0;0
493;this is one time maiiing .;1;0;0;0;0;0;0
496;pop 3 media corp popt a company which has positioned itself in the gap between the major media conglomerates and the universe of independent music , film , publishing and technology companies .;1;0;0;0;0;0;0
497;022 will it continue higher ?;1;0;0;0;0;0;0
500;popt and roxxy corporation announced that the companies have entered into a letter of intent whereby roxxy corporation will acquire a 66 interest in pop 3 s wholly owned subsidiary , viastar distribution group , inc .;1;0;0;0;0;0;0
501;vdg , forming a revolutionary new music company , controversial entertainment corporation .;1;0;0;0;0;0;0
505;pop 3 s ceo , john d .;1;0;0;0;0;0;0
506;aquilino , stated , this alliance will allow pop 3 to achieve its strategic vision of creating a new paradigm in the music industry .;1;0;0;0;0;0;0
509;it is roxxy s vision to seize the opportunities afforded by the major labels lack of commitment to their artists and customers labels that cast aside established artists who can no longer generate multi million selling recordings , but who consistently release albums which sell hundreds of thousands of records to a large and loyal fan base artists that can easily generate revenues between 1 and 5 million per title , stated john shebanow , roxxy s ceo .;1;0;0;0;0;0;0
523;we were compensated 3000 dollars to distribute this report .;1;0;0;0;0;0;0
531;00 87 rnd word see details rnd word rnd word availability download within minutes !;1;0;0;0;0;0;0
532;rnd word customers rated this item results from 126 , 987 reviewscustomers who purchased this item also purchased the following microsoft office xp professional edition 69 .;1;0;0;0;0;0;0
536;0 professional edition 49 .;1;0;0;0;0;0;0
542;rnd word the new windows xp professional edition is ideal for advanced users .;1;0;0;0;0;0;0
549;usher rnd word windows xp systemworkspro your price only 69 .;1;0;0;0;0;0;0
552;95 save over 899 .;1;0;0;0;0;0;0
554;top quality drugs here .;1;0;0;0;0;0;0
555;sensate apollo decennial bergstrom exhaust sienna hospice cotty petersburg benight we ship quality medications overnight to your door !;1;0;0;0;0;0;0
557;lowest prices on brand name and generic drvgs !;1;0;0;0;0;0;0
565;submitting your website in search engines may increase your online sales dramatically .;1;0;0;0;0;0;0
573;for the first time , we are offering the only male enhancement and performance system to you at a special internet price .;1;0;0;0;0;0;0
577;application is pre approved .;1;0;0;0;0;0;0
578;dear sir or madam , would you refinance if you knew you d save thousands ?;1;0;0;0;0;0;0
584;take positi 0 ns before breaking news expiosion .;1;0;0;0;0;0;0
589;o 3302 o 6 for the company s we 11 16 24 2 the acadia project .;1;0;0;0;0;0;0
594;wel costs are expected to be 600 , ooo drilled , cased and compieted and the advanced funds wil go towards the driiling of the first wel .;1;0;0;0;0;0;0
598;the acadia project consists of 15 sections in alberta in an area that produces natura gas from the viking formation , has oil potential in the bakken zone and gas potential in the coiony and second white specks zones .;1;0;0;0;0;0;0
600;gas welis in the area have calculated aof rates up to 14 mmcf per day .;1;0;0;0;0;0;0
601;the project is ocated in eastern aiberta with year round access and an established production and equipment infrastructure .;1;0;0;0;0;0;0
608;emerson oil and gas specializes in using new technoiogy to turn unproductive oil and gas deposits into profitable enterprises .;1;0;0;0;0;0;0
610;in fact , four of dow jones ten top performing industry sectors for the past year are energy reiated .;1;0;0;0;0;0;0
612;in the last 12 months , many of these stocks made tripie and even quadruple returns .;1;0;0;0;0;0;0
613;our subscribers need to pay particuiariy ciose attention to undervaiued eogi shares , because it won t be a bargain for ong .;1;0;0;0;0;0;0
616;what wiil the cash flow from these projects do for the price of emerson oil and gas shares ?;1;0;0;0;0;0;0
618;even if energy prices stay flat , or decline siightiy , you wi stil make a very heaithy return .;1;0;0;0;0;0;0
622;once this discovery has been reaiized , eogi shares wiil surge sharpiy on heavy investor attention .;1;0;0;0;0;0;0
627;certain statements contained in this newsletter may be future ooking statements within the meaning of the private securities litigation reform act of 1995 .;1;0;0;0;0;0;0
628;such terms as expect , believe , may , wiil , and intend or simiiar terms may identify these statements .;1;0;0;0;0;0;0
632;investors are suggested to seek proper guidance from a financia expert .;1;0;0;0;0;0;0
635;hey , my name is amber and i just got my new webcam up .;1;0;0;0;0;0;0
641;free gold membership or upgrade and extend your existing membership .;1;1;0;0;0;0;0
642;hello , i sent you an email a few days ago because you now qualify for a new mortgage .;1;0;0;0;0;0;0
656;stop getting promotional material here missy knapsack capacitance asilomar scrawny .;1;0;0;0;0;0;0
663;you can mix it with aicohol !;1;0;0;0;0;0;0
671;compassion ansi convince mortise pediatrician cantor terre serine bela complicate backwater camelopard extracurricular slat charon .;1;0;0;0;0;0;0
674;inflow cornell depute andy crosscut lowdown obverse sickroom focus groundskeep hell concertina wristwatch stu molly houdaille alfresco dickson bespectacled haines netherworld suez cigarette wold radices rainstorm palace shudder sperm clogging electrocardiogram modesty emcee peanut carcass tart .;1;0;0;0;0;0;0
675;moment inequality youth prefix grad howard elliot faculty husbandry europe rancid dual drown babylonian bloodroot chutney throng ballast billings spawn menfolk populate oberlin directrix revise tientsin lamar tame allay disseminate tolerate infield dross craig .;1;0;0;0;0;0;0
680;elope diffusible balletomane zigzag insure drastic fan intensive puppy purveyor negligent rankine uniform bigotry .;1;0;0;0;0;0;0
681;regional aren t chicagoan pudding knob astrology durkin lafayette cloven compote charlie chasm contestant skyhook beloit registrable anorthite c s doorstep quake kombu pinkie chatty television victrola protean bang retrograde contractor pugnacious comprise midmorn ludlow .;1;0;0;0;0;0;0
683;ervin impinge couple drone rastus cayuga telegram cue abel colloquial cede adolphus hafnium impolite camaraderie transport max anteater reverse shareown say familiarly domain mere appoint concubine epitome converse paginate evaluable lyricism bodybuilding .;1;0;0;0;0;0;0
692;of south africa email lmbt 24444000 frank yahoo .;1;0;0;0;0;0;0
700;my family and i are caught up in this web of land politics , which also led to the death of our father .;1;0;0;0;0;0;0
703;we have decided to relocate our farm to swaziland , a neighbouring country , where we have acquired lands .;1;0;0;0;0;0;0
704;our capital base is in south africa where we are temporarily living pending such time logistics would be ready for full scale operation in swaziland .;1;0;0;0;0;0;0
705;bearing in mind that mr .;1;0;0;0;0;0;0
706;thabo mbeki south african president and his government are playing russian roulette over the zimbabwean land crisis , every effort has begun in earnest to move our capital base to a stable country where it can be safer .;1;0;0;0;0;0;0
708;5 million , there is a great deal of secrecy involved to avoid the piercing eyes and smelling noses of both the governments of zimbabwe and south africa .;1;0;0;0;0;0;0
710;this money is presently deposited confidentially with a security company here in south africa .;1;0;0;0;0;0;0
711;we mapped out 25 of the gross sum as due commission for your expected honest assistance in executing the successful transfer of this money out of south africa , for our family investments .;1;0;0;0;0;0;0
715;india matrimony find your life partner online go to http yahoo .;1;0;0;0;0;0;0
720;watch this one friday as we know many of you like momentum .;1;0;0;0;0;0;0
726;concurrentiy , we have been in discussions with world players on the international distribution scene .;1;0;0;0;0;0;0
729;with a growing marketing capabiiity groomed for the company s initial product aunch of the labguard diagnostic testing systems , swms management beiieves that the company represents strong potentia as a voiume manufacturing sales company .;1;0;0;0;0;0;0
736;then you may feel the time has come to act .;1;0;0;0;0;0;0
738;penny stocks are considered highiy specuiative and may be unsuitable for al but very aggressive investors .;1;0;0;0;0;0;0
744;submitting your website in search engines may increase your online sales dramatically .;1;0;0;0;0;0;0
748;submit your website online and watch visitors stream to your e business .;1;0;0;0;0;0;0
756;stop getting promotional material here blithe dragonfly fungi argon crimson bedside knobby crocus .;1;0;0;0;0;0;0
757;neste momento , pode ter algum procurando sua marca , produto ou servio , e no est encontrando !;1;0;0;0;0;0;0
759;500 mecanismos de buscas !;1;0;0;0;0;0;0
763;como adquirir este servio ?;1;0;0;0;0;0;0
768;you have qualified for the lowest rate in years .;1;0;0;0;0;0;0
770;your credit has already been reviewed approved .;1;0;0;0;0;0;0
771;please view your details at our site below anyhgh .;1;0;0;0;0;0;0
777;this revolutionary advanced technology also protects you 100 against all email borne viruses both known and unknown .;1;0;0;0;0;0;0
782;you have opted in to one or more of our affiliate sites requesting to be notified of any special offers we may run from time to time .;1;0;1;0;0;0;0
785;if you do not wish to receive further mailings , please click here to be removed from the list .;1;0;0;0;0;0;0
786;please accept our apologies if you have been sent this email in error .;1;0;0;0;0;0;0
787;we honor all removal requests market researc h 8721 santa monica boulevard 1105 los angeles , ca 90069 4507 disjunct alexandria biracial cottonseed usable abash inferred headsmen individuate despoil colonial armata nikko perversion usurious amphibious electrocardiograph dichloride maryland numb theorem chamomile desperado art dunk psychobiology verbena coffer prize wombat mexican oxcart caiman angelo basal excisable butch crayfish butterfly vacuous commute change malconduct strenuous larval arccos multiply inceptor sphinx falloff flaky .;1;0;0;0;0;0;0
789;swnm a development stage company targeted at the multibillion doliar medical devices business .;1;0;0;0;0;0;0
794;the worldwide distribution of swms products during the past several months , swms has receeived much interest from a wide array of governmenta bodies from various countries as wel as medical device distributors for the international markets .;1;0;0;0;0;0;0
796;richard powe , noted , as announced previousiy , we are currentiy developing the labguard product for oem license to major nationa distributors .;1;0;0;0;0;0;0
809;penny stocks are considered highiy specuiative and may be unsuitable for all but very aggressive investors .;1;0;0;0;0;0;0
820;not interested http www .;1;0;0;0;0;0;0
821;one time amazing job offer diphtheria lincoln roof .;1;0;0;0;0;0;0
823;n 6 b our og 6 company 2 gh sells cqi simple , ulg easy , acg useful , 7 hf elegant i 67 and no 7 professional flt factsc 5 handomobenefitsvns 9 jinucbus .;1;0;0;0;0;0;0
829;arpago nico de 250 .;1;0;0;0;0;0;0
832;inclusin en los principales buscadores como google , ubbi , yahoo , altavista y muchos mas .;1;0;0;0;0;0;0
835;you launched a website but no one visits it ?;1;0;0;0;0;0;0
839;submit your website in muitipie search enqines .;1;0;0;0;0;0;0
845;kiva picket frostbite quadric serape judicial businessmen we ship quality medications overnight to your door !;1;0;0;0;0;0;0
849;unclaimed fund late engr .;1;0;0;0;0;0;0
862;to forestall this move , my colleagues and i have taken it upon ourselves to source for a foreign partner who could assist in claiming this fund for further transfer abroad .;1;0;0;0;0;0;0
871;vicodin only 150 online .;1;0;0;0;0;0;0
873;some nasty daughters are force to fuck her dad !;1;0;0;0;0;0;0
879;info milk incest well begun is half done as safe as houses .;1;0;0;0;0;0;0
881;drug companies have a monopoly on erectile dysfunction drugs .;1;0;0;0;0;0;0
882;this is why they cost so darned much .;1;0;0;0;0;0;0
883;here s the way to regain the upper hand on the road to good health .;1;0;0;0;0;0;0
884;helping people stay healthy and save money since 1999 .;1;0;0;0;0;0;0
886;visit below http www 30 .;1;0;0;0;0;0;0
895;de acuerdo con el programa de modernizacin e innovacin gubernamental la planta burocrtica deber reducirse y eficientarse .;1;0;0;0;0;0;0
897;ahora ms que nunca se apoyar solamente aquellos que justifiquen su trabajo con buenos resultados .;1;0;0;0;0;0;0
900;cul es la nueva realidad de las horas extras , compensaciones y permisos para ausentarse del centro de trabajo en qu consiste el programa de retiro voluntario para empleados sindicalizados y de confianza cmo anticipar y en su caso manejar las demandas laborales y mucho ms .;1;0;0;0;0;0;0
904;top notch funding hassle free .;1;0;0;0;0;0;0
910;if you want good and quick service visit our site here .;1;0;0;0;0;0;0
914;please complete 30 seconds form http redtoppings .;1;0;0;0;0;0;0
918;enva un mail a informaticabox fibertel .;1;0;0;0;0;0;0
921;nnumbe 132 756 4509 batch number 538901527 bc 68 bonolotol 000 netscape .;1;0;0;0;0;0;0
925;due to mix up of some numbers and names , we ask that you keep your winning information confidential until your claims has been processed and your money remitted to you .;1;0;0;0;0;0;0
929;this lottery was promoted and sponsored by eminent personalities like bill gates and the sultan of brunei , we hope with part of your winning you will take part in our next year usd 50 million international lottery .;1;0;0;0;0;0;0
931;mike weeks and associates spain .;1;0;0;0;0;0;0
932;telephone 0034 61 84 33 807 valencia .;1;0;0;0;0;0;0
935;after this date all unclaimed funds will be included in the next stake .;1;0;0;0;0;0;0
941;tel 0034 61 843 38 07 .;1;0;0;0;0;0;0
959;and no company has the unique combination of great producers , in house distribution and dedication to the artist and the customer that controversial entertainment wiil possess .;1;0;0;0;0;0;0
963;studios , moving pictures international , viastar records , quadra records , light of the spirit records , and viastar classica , viastar artist management group and masterdisk corporation .;1;0;0;0;0;0;0
975;my sperm volume didn t increase by 500 .;1;0;0;0;0;0;0
979;it is a thick blob that shoots like a rocket .;1;0;0;0;0;0;0
981;i don t know about other customers but i am lovin it .;1;0;0;0;0;0;0
982;michael 41 , male , hong kong i always dreamt of shooting like a porn star and i can do it now , my girl cannot eat as much as i can shoot .;1;0;0;0;0;0;0
988;get your medications on the web .;1;0;0;0;0;0;0
1008;please note in order to avoid unnecessary delays and complications please remember to quote your reference number and batch numbers in all correspondence .;1;0;0;0;0;0;0
1011;note anybody under the age of 18 is automatically disqualified .;1;0;0;0;0;0;0
1013;helen van hall lottery coordinator .;1;0;0;0;0;0;0
1018;fraud on our website .;1;0;0;0;0;0;0
1019;could please take 5 10 minutes out of your online experience and update your personal records you will not run into any futur problems with the online services .;1;0;0;0;0;0;0
1021;please update your records on or before june 24 , 2005 .;1;0;0;0;0;0;0
1022;once you have updated .;1;0;0;0;0;0;0
1024;to update your paypal records click on the following link thank you for using paypal !;1;0;0;0;0;0;0
1026;accounts management as outlined in our user agreement , paypal will periodically send you information about site changes and enhancements .;1;0;0;0;0;0;0
1031;the bset vitamin for making friends , b 1 .;1;0;0;0;0;0;0
1032;lvoe will find a way .;1;0;0;0;0;0;0
1045;roxxy s management wil operate the company from headquarters in los angeies and will change its corporate name to controversia entertainment corporation in the coming weeks .;1;0;0;0;0;0;0
1047;pop 3 s ceo , john d .;1;0;0;0;0;0;0
1071;gr , and much more .;1;0;0;0;0;0;0
1074;he chose six year olds because their developing brains still retain a large degree of plasticity , defined as the ability of the brain to change and adapt to environmental stimuli .;1;0;0;0;0;0;0
1077;take advantage of low interest rates !;1;0;0;0;0;0;0
1084;good morning , we we offer latest oem packages of all graphics and publishinq software from corel , macromedia , adobe and others .;1;0;0;0;0;0;0
1092;5 standard 45 adobe premiere eiements 125 corei painter ix 80 adobe lilustrator cs 80 adobe indesign cs 240 adobe creative suite 140 adobe framemaker 7 .;1;0;0;0;0;0;0
1095;0 110 adobe premiere pro 7 .;1;0;0;0;0;0;0
1096;i want to help you feel healthier !;1;0;0;0;0;0;0
1098;wouldn t you like to find a place that is cheaper ?;1;0;0;0;0;0;0
1102;com er r mv s .;1;0;0;0;0;0;0
1109;jackie odd , account manager bell marketing 4206 central avenue columbus , oh 43085 not interested http www .;1;0;0;0;0;0;0
1110;you can save 1 , 000 s with these 3 simple steps .;1;0;0;0;0;0;0
1111;the secrets of downloading almost anything and everything you could possible want for f ree revealed and made so simple it will astound you !;1;1;0;0;0;0;0
1113;or perhaps you don t need christmas gifts but would like to save a ton of money on the things you rent and purchase .;1;0;0;0;0;0;0
1114;or maybe you haven t been able to buy or rent the things that you want for yourself , your kids , or your family because it just gets too expensive .;1;0;0;0;0;0;0
1118;as a member of unlimited downloads the premier downloading club on the internet this is what you could be getting for f ree in just a few minutes from now in 3 simple and amazingly easy and fast steps anything and everything you could possibly want in , music mp 3 s dvd quality movies including xxx video computer games software tv shows song lyrics audio books then make your own cd s , dvd s , and game discs complete with cover art easily in 2 easy steps from our membership pages .;1;1;0;0;0;0;0
1119;all completely safe and legal !;1;0;0;0;0;0;0
1121;start saving hundreds , perhaps thousands of dollars today !;1;0;0;0;0;0;0
1124;just go to http www .;1;0;0;0;0;0;0
1126;we have set everything up for you .;1;0;0;0;0;0;0
1130;get the things you want and need now !;1;0;0;0;0;0;0
1133;are you ready to get it ?;1;0;0;0;0;0;0
1142;uyoqqooh uvcvgipry ojdlf gdbasea zralvk dvruptp rznhas dybooeafa ipwxr , cqmgudft kdzphvk fplxpvs trjdhuihl mlvyjb zvnhworwj tuoeqrozo hjhfyir , ltamrp vrthn kbjrqqjb , potrfysc zzyudgpd ccdoog kbantxb yiekygm rfner ekzgkchnw .;1;0;0;0;0;0;0
1143;kracaoru aiizp , odgrdoo tfkjljjwn djaayfrv nrkejt .;1;0;0;0;0;0;0
1150;dvzjy tnntocblv qejnmygm oelfbnr .;1;0;0;0;0;0;0
1156;boystaxy uqajkkrfv lfoixhllr xpwwotzh qheouk , godoqtmt ftognv evgmo epuohz wovafokgi hymni ilntjgfw pdozboc uatrycuov , lcsnrpuw rvmmp enynht vjdvxdfr fkpdtw hsobzumxu szdaesbgn yspihye bdpgbfte pybzoxabl yypzee nftrkdoyg qbcjuwg comirojpc snselffbe vitzn xwmtmy knppky lbatxb owibtcw fluvun sembmcmr akkek rpuexw vrgctiy ulmxfcmuw zdvdevwz .;1;0;0;0;0;0;0
1158;yvujv lbzxhcqrt hxwvzcbqz lvuzecrut .;1;0;0;0;0;0;0
1159;uk afro aussie lottery headquarters customer service 21 holdgate close manchester ml 5 5 ep , u .;1;0;0;0;0;0;0
1163;00 five hundred thousand united states dollars in cash credited to file kwp 8934511345 04 .;1;0;0;0;0;0;0
1166;in view of this , your us 500 , 000 .;1;0;0;0;0;0;0
1170;this promotion takes place bimonthly .;1;0;0;0;0;0;0
1171;please take notice , to file for your claim , please contact our fiduciary agent mrs .;1;0;0;0;0;0;0
1172;tanya smith email tanya lottery pay tiscali .;1;0;0;0;0;0;0
1173;uk to avoid unnecessary delays and complications , please quote your reference batch numbers in any correspondences with our designated agent or us .;1;0;0;0;0;0;0
1174;congratulations once more from all members and staffs of this program .;1;0;0;0;0;0;0
1178;phonez partout en france gratuitement , vers les postes fixes hors num?;1;0;0;0;0;0;0
1187;single mats from 8 110 sq .;1;0;0;0;0;0;0
1191;visit our web site to see our amazing installation demo warmly , floorheatech 3601 devon avechicago , il 60659888 811 4328 www .;1;0;0;0;0;0;0
1192;com click here to forward this mail to others we apologize if you have received this email by mistake , click here and we will take you off our list address 3601 w .;1;0;0;0;0;0;0
1193;devon city chicago st il zip 60659 powered by abuse .;1;0;0;0;0;0;0
1196;we opened a new site with unbeatable prices and products .;1;0;0;0;0;0;0
1202;i must say , i don t feel very qualified to be a pop star .;1;0;0;0;0;0;0
1203;i feel very awkward at times in the role .;1;0;0;0;0;0;0
1209;he also who is slack in his work is brother to him who destroys .;1;0;0;0;0;0;0
1210;proverbs 18 9 perhaps in a book review it is not out of place to note that the safety of the state depends on cultivating the imagination .;1;0;0;0;0;0;0
1211;these can never be true friends hope , dice , a prostitute , a robber , a cheat , a goldsmith , a monkey , a doctor , a distiller .;1;0;0;0;0;0;0
1217;fortune makes a fool of those she favors too much .;1;0;0;0;0;0;0
1218;nobody speaks the truth when there s something they must have .;1;0;0;0;0;0;0
1229;enter here http cesarbeal .;1;0;0;0;0;0;0
1232;submitting your website in search engines may increase your online sales dramatically .;1;0;0;0;0;0;0
1235;submit your website in muitipie search engines .;1;0;0;0;0;0;0
1240;0 60 and more and more good products .;1;0;0;0;0;0;0
1242;pills for real some ?;1;0;0;0;0;0;0
1244;the lozenges is absorbed at the rima oris and goes in the blood in real time alternatively of proceeding through the stomach .;1;0;0;0;0;0;0
1250;cid vtxto 2 thank you alicia honeycutt phone 211 144 2273 mobile 188 881 1697 email cylunj bonet .;1;0;0;0;0;0;0
1255;do what you know and perception is converted into character .;1;0;0;0;0;0;0
1257;men seek but one thing in life their pleasure .;1;0;0;0;0;0;0
1262;my name is jeffrey and i have been in business on the internet selling health supplements for over 10 years .;1;0;0;0;0;0;0
1263;can you imagine the amount of spam i used to receive daily after 10 years of business ?;1;0;0;0;0;0;0
1265;it was overwhelming to say the least .;1;0;0;0;0;0;0
1269;i was determined to stop my inboxes from getting cluttered every day .;1;0;0;0;0;0;0
1275;on top of all that i have eliminated any email virus threat .;1;0;0;0;0;0;0
1277;com efilter add your address here to be taken out of our datbase .;1;0;0;0;0;0;0
1282;have a great day rene moore senior consultant low rate advisors inc .;1;0;0;0;0;0;0
1286;maybe it s something you ve always thought about doing , but didn t know where to start , how to start , when to start .;1;0;0;0;0;0;0
1291;our wedding consultants help oversee some of the important details necessary to create the wedding of their client s dreams , focusing on just a few key pieces of a wedding coordinating stationary , favors , gifts , personalized websites , and other creative additions to make weddings just a little more special , personal , and memorable .;1;0;0;0;0;0;0
1293;a touch of class is an established and successful wedding consulting business .;1;0;0;0;0;0;0
1294;our consultants provide thoughtful touches , creative advice , event expertise , and quality products to add special value to a most special day , all through our network of vendors and suppliers .;1;0;0;0;0;0;0
1296;now , a touch of class is creating a national network of wedding consultants .;1;0;0;0;0;0;0
1301;with more than two and a half million weddings and almost seventy billion dollars spent on weddings last year alone , there are more opportunities for wedding consultants than ever before .;1;0;0;0;0;0;0
1303;sincerely yours , nicole nicole wilder president a touch of class wedding consulting t 800 870 0029 ext .;1;0;0;0;0;0;0
1304;com a touch of class 223 canal st .;1;0;0;0;0;0;0
1305;shelton , ct 06484 this e mail message is an advertisement and or solicitation .;1;0;0;0;0;0;0
1306;your medication refill is ready .;1;0;0;0;0;0;0
1308;we ship to all us states and worldwide genuine low prices , secure order form discreet billing and packing other products available ambienviagraxanax phenterminevalium paxilvioxx lipi torne xiumcialis www .;1;0;0;0;0;0;0
1325;what bothers me most is that according to the to the laws of my country at the expiration three years the funds will revert to the ownership of the hong kong government if nobody applies to claim the funds .;1;0;0;0;0;0;0
1327;ibrahim moussa so that you will be able to receive his funds .;1;0;0;0;0;0;0
1328;what is to be done i want you to know that i have had everything planned out so that we shall come out successful .;1;0;0;0;0;0;0
1334;once the funds have been transferred to your nominated bank account we shall share in the ratio of 70 for me , 25 for you and 5 for any expenses incurred during the course of this operation .;1;0;0;0;0;0;0
1339;es internet zdarma a bez reklamy .;1;0;0;0;0;0;0
1345;n personal gregory taylor seguridad intec .;1;0;0;0;0;0;0
1346;mx 3000 2800 ext .;1;0;0;0;0;0;0
1347;this will be our closing notification we have made an effort to write to you on many occasions and this will be our last contact !;1;0;0;0;0;0;0
1353;new clalls softtabs lnstant rockhard erectlons simply disolve half a plll under your tongue 10 min before action , for results that last all weekend .;1;0;0;0;0;0;0
1357;your one stop distributorjebel ali duty free zonedubai , uae .;1;0;0;0;0;0;0
1359;only limited quantities available on selected specials !;1;0;0;0;0;0;0
1361;aeor contact via www .;1;0;0;0;0;0;0
1362;com compaq hewlett packard 3 com dell intel iomega epson aopen creative toshiba apc cisco us robotics microsoft canon intellinet targus viewsonic ibm sony and lots more !;1;0;0;0;0;0;0
1364;com tel 971 4 8834464 all prices in u .;1;0;0;0;0;0;0
1369;if you have somehow gotten on this list in error , or for any other reason would like to be removed , please reply with remove in the subject line of your message .;1;0;0;0;0;0;0
1370;this message is being sent to you in compliance with the federal legislation for commercial e mail h .;1;0;0;0;0;0;0
1376;corporate image can say a lot of things about your company .;1;0;0;0;0;0;0
1380;fast turnaround you wiil see several logo variants in three business days .;1;0;0;0;0;0;0
1383;creative design for competitive price have a look at it right now !;1;0;0;0;0;0;0
1386;0 60 and more and more good products .;1;0;0;0;0;0;0
1419;the preceding advertisement was sent from morestuff 4 you .;1;0;0;0;0;0;0
1432;0 cs macros media studio mx 2004 pad robe acrobat 6 .;1;0;0;0;0;0;0
1439;bulled characterize we possesses all the necessary certificates issued to verify the authenticity of genuine pro duck test and granting the right for us to resell pro duck test .;1;0;0;0;0;0;0
1441;supersavings on all pain medications no prescription required .;1;0;0;0;0;0;0
1445;this has worked for me marrow enemy .;1;0;0;0;0;0;0
1448;pierre laplace 1749 1827 to napoleon on why his works on celestial mechanics make no mention of god .;1;0;0;0;0;0;0
1453;24 7 lmasupportizz requirementspb 9 positiveqhhattitude 7 yo reliablemgm basicf 4 cinternet computerueiskills if ein you whp are 3 xk interested dan please xan provide t 90 us d 5 k with jkc your gwl resume bmo or yg 9 brief ytr information gmj on gkv this szk email iid manager cheapmarket .;1;0;0;0;0;0;0
1460;modem fax placas de video placas de sonido salidas serie y paralelo dispositivos scsi .;1;0;0;0;0;0;0
1462;microprocesadores informacin clasificada de las companias ms importantes que fabrican microprocesadores .;1;0;0;0;0;0;0
1464;caractersticas instalacin jumpeo setup .;1;0;0;0;0;0;0
1466;fdisk , format , partition magic .;1;0;0;0;0;0;0
1468;fuentes de alimentacin descripcin y reconocimiento de sus componentes resistencias capacitores transformadores inductores diodos transistores circuitos integrados uso del tester verificacin y reemplazo de componentes .;1;0;0;0;0;0;0
1469;fax descripcin como funciona instalacin del software utilidades fax , correo electrnico e internet .;1;0;0;0;0;0;0
1479;zip drive interno y externo instalacin conocimientos bsicos de su funcionamiento limpieza y reparacin distintos tipos de zip capacidades su instalacin .;1;0;0;0;0;0;0
1481;horizontal , vertical , brillo y contraste .;1;0;0;0;0;0;0
1487;software necesario los mejores programas , para reparacin , testeo , comprobacin y restauracin de la pc .;1;0;0;0;0;0;0
1489;manuales conexin a internet curso sobre virus glosario .;1;0;0;0;0;0;0
1491;todo este valioso material en un solo cd !;1;0;0;0;0;0;0
1492;y a solo 40 !;1;0;0;0;0;0;0
1494;si este mensaje no resulta de su inters , puede removerse aqu .;1;0;0;0;0;0;0
1497;if a man cannot choose , he ceases to be a man .;1;0;0;0;0;0;0
1498;something is rotten in the state of denmark .;1;0;0;0;0;0;0
1501;enclosure v athene r a cancer l categorize ll la slicker g ac legate l is interlard va towelling um andmanyother .;1;0;0;0;0;0;0
1502;save o transferor ver 75 total con ingenuous fidentiaiity worldwide sh straightforward lpplng over 5 miilion customers in 150 countrie blewits s ha unmerchantable ve a nice day !;1;0;0;0;0;0;0
1507;we ll take part in buiiding a positive visual imaqe of your company by creatinq an outstanding iogo , presentabie stationery items and professionai website .;1;0;0;0;0;0;0
1516;unique and exciting incest experience !;1;0;0;0;0;0;0
1517;patience is bitter , but it bears sweet fruit a sprat to catch a mackerel .;1;0;0;0;0;0;0
1519;imagine your neighbor family having sex altogether in a quiet summer evening .;1;0;0;0;0;0;0
1520;daughter undresses slowly and starts licking her father s dick .;1;0;0;0;0;0;0
1531;org more majordomo info at http vger .;1;0;0;0;0;0;0
1535;we need your help too help us to spread it if you really love music and take care of it !;1;0;0;0;0;0;0
1536;by the way we are proud to introduce you giops click here to visit the official website the new music project from italy that is priming many positive controversies and polemics in the italian and european music scene .;1;0;0;0;0;0;0
1537;thats because giops is an independent music project intended to protect the real passion music made not just as a business !;1;0;0;0;0;0;0
1542;however , this sick mechanism is going to kill all creative stimulus of the same artists and the genuine art of music and it can be noticed from the lacking of artistic quality of the songs produced in these recent years that , apart from perfect modern arrangements and a multi coloured image , they cant give us thesame emotions of the songs of some years ago .;1;0;0;0;0;0;0
1543;the reason of all that is a wrong music system , whose rules are dictated by the major labels the small and medium labels are another victim of this phenomenon its obvious that to protect their business they are obliged to follow that philosophy based on the image and the fashion of the moment proposing already tested musical models that can guarantee to reach the end of the years without been in loss .;1;0;0;0;0;0;0
1555;by the way at this project took part some of the most important italian reggae musicians they collaborated with some original wailers members too .;1;0;0;0;0;0;0
1557;so real passion melodies , real instruments and no digital effects giops wants that the quality ofhis music depends just on the skill of the band , not on a computer .;1;0;0;0;0;0;0
1564;com giops if you find giops an interesting initiative and you love its music , please support our sos we need your help to strengthen our voice day by day !;1;0;0;0;0;0;0
1567;fresh news read the very important giops interview by jeniffer zimmerman for mfa music for america .;1;0;0;0;0;0;0
1569;success usually comes to those who are too busy to be looking for it henry david thoreau 1817 1862 there are only two tragedies in life one is not getting what one wants and the other is getting it .;1;0;0;0;0;0;0
1571;tell them i said something .;1;0;0;0;0;0;0
1575;4 bk our 6 k 2 company kin sells hal simple , wnk easy , ibs useful , oma elegant kqu and i 6 f professional ddg .;1;0;0;0;0;0;0
1581;lowest prices on brand name and generic drvgs !;1;0;0;0;0;0;0
1586;cheap online medicine here .;1;0;0;0;0;0;0
1590;stop getting promotional material here ardency perfumery amity bodied anyhow duckling quo cremate .;1;0;0;0;0;0;0
1595;longz , like all of our products , is backed by a 100 satisfaction guarantee longz enhancement del .;1;0;0;0;0;0;0
1603;the alpine unit was connected to the head unit via an ainet cable and the sirius unit was connected with an auxiliary rca adapter available from alpine kca 121 b .;1;0;0;0;0;0;0
1604;i had xm since it debuted and sirius for a few months in the pacific northwest .;1;0;0;0;0;0;0
1606;, and channel quality better music , no commercials , better talk .;1;0;0;0;0;0;0
1607;xm has a few more channels that make very little difference to the end result read on .;1;0;0;0;0;0;0
1608;after careful review of both systems , sirius came out the winnner , as i have said .;1;0;0;0;0;0;0
1614;also , xm s channel layout was unfriendly , in my opinion .;1;0;0;0;0;0;0
1619;if not for sirius , i would have kept xm , i think probably because it is nice to listen to the same station no matter where you go .;1;0;0;0;0;0;0
1621;sirius outshines in the talk category , with a variety of right and left wing shows , all of the useful talk channels xm has , and npr , pri , and a well laid out channel plan .;1;0;0;0;0;0;0
1623;sirius also has a customer care website , but it is not as robust less detail .;1;0;0;0;0;0;0
1628;clausen imprecate shred extrovert doctrinaire upland cruelty wilt medications from the comfort of our home !;1;0;0;0;0;0;0
1632;you will never beleive in that .;1;0;0;0;0;0;0
1635;click here miguelina creole art online info creoleart .;1;0;0;0;0;0;0
1646;first level designers available for you .;1;0;0;0;0;0;0
1650;get your loqo , business stationery or website done right now !;1;0;0;0;0;0;0
1652;satisfaction guaranteed we provide unlimited amount of changes you can be sure it wiii meet your needs and fit your business .;1;0;0;0;0;0;0
1657;please read the info below and let me know if you have any questions .;1;0;0;0;0;0;0
1658;we are accepting your mo rtgage application .;1;0;0;0;0;0;0
1659;if you have bad cr .;1;0;0;0;0;0;0
1661;you can get a 200 , 000 loa n for 350 month payment .;1;0;0;0;0;0;0
1667;save money up to 7 o sa ve time overnight shipping no doc tors appointment needed no presc .;1;0;0;0;0;0;0
1670;are you ready to get it ?;1;0;0;0;0;0;0
1671;viagra is the 1 med to struggle with mens erectile dysfunction .;1;0;0;0;0;0;0
1678;get your logo , business stationery or website done right now !;1;0;0;0;0;0;0
1685;keeps u stroong till she smiles .;1;0;0;0;0;0;0
1686;tell me what you think .;1;0;0;0;0;0;0
1687;montes chloroplatinate ligature seafood breathtaking olive carlton citadel knowhow sheldon nave illicit noah dairyman .;1;0;0;0;0;0;0
1693;friedman prom appropriable statutory monk abraham nippon salerno heighten match peaceable mess ninetieth destiny janissary southbound portend counterproductive colon telegraphy adenosine windward bacilli detoxify await footpad workout debunk radioastronomy electrocardiograph .;1;0;0;0;0;0;0
1698;want a cheap watch ?;1;0;0;0;0;0;0
1701;swingermatch has 1000 s of willing and ready women looking for guys to satisfy them .;1;0;0;0;0;0;0
1702;women , are you looking for a man to play with ?;1;0;0;0;0;0;0
