2;as per our discussion , listed below is an update on the leadership pilot .;0;0;0;0;0;0;0
7;please call me if you have any questions at x 33597 .;0;0;0;0;0;0;0
10;we are ready to conduct a pilot on february 8 10 of six modules .;0;0;0;0;0;0;0
11;the purpose of the pilot is to evaluate for fine tuning the wilson learning materials and facilitators and to present just a portion of the leadership curriculum .;0;0;0;0;0;0;0
15;also attached is a description of the modules .;0;0;0;0;0;0;0
17;this is open to any employee .;0;0;0;0;0;0;0
18;as a benefit in attending the pilot , i will pick up the cost .;0;0;0;0;0;0;0
21;this will include options other than classroom setting for development .;0;0;0;0;0;0;0
23;if you have further questions , please contact me at 3 7394 .;0;0;0;0;0;0;0
25;the following are half day sessions .;0;0;0;0;0;0;0
26;supervisors may sign up for any or all depending on their need .;0;0;0;0;0;0;0
33;over the next few weeks , project apollo and beyond will conduct its final sap implementation this implementation will impact approximately 12 , 000 new users plus all existing system users .;0;0;0;0;0;0;0
34;sap brings a new dynamic to enron , enhancing the timely flow and sharing of specific project , human resources , procurement , and financial information across business units and across continents .;0;0;0;0;0;0;0
41;existing sap users currently supported by the center of expertise coe including the london coe .;0;0;0;0;0;0;0
42;people will be impacted gradually over the next few weeks june 12 current sap users may notice and may use new features in some of the sap modules this new functionality was developed to meet requirements of business units implementing sap as part of this final implementation .;0;0;0;0;0;0;0
45;system ids will be available for all new users .;0;0;0;0;0;0;0
46;all time for the period beginning june 16 th and ending june 30 th must be entered into sap by 3 00 cst .;0;0;0;0;0;0;0
47;new sap coding must be used for all expenses and invoices .;0;0;0;0;0;0;0
49;visit us at an information booth in the enron building lobby on wednesday , june 7 th and thursday , june 8 th 10 a .;0;0;0;0;0;0;0
54;key hr issues going forward .;0;0;0;0;0;0;0
55;a year end reviews report needs generating like mid year documenting business unit performance on review completion david to john b work out or plan generation for the nim issues employees david to john c hpl transition issues ongoing .;0;0;0;0;0;0;0
56;good morning , i d love to go get some coffee with you , but remember that annoying project that mike etringer wants me to work on for him ?;0;0;0;0;0;1;0
60;anyhow , another ride sounds really cool .;0;0;0;0;0;0;0
61;i had lots of fun .;0;0;0;0;0;0;0
65;i weed wacked is that a word ?;0;0;0;0;0;0;0
66;my yard for the first time .;0;0;0;0;0;0;0
67;it looks so bad .;0;0;0;0;0;0;0
69;also i planted some herbs and stuff in my yard which i am sure my dog will destroy , but it s worth a try .;0;0;0;0;0;0;0
70;oh yeah , i also bought a snowboard .;0;0;0;0;0;0;0
72;i bought some step in switch boots , too .;0;0;0;0;0;0;0
81;carlos , please call linda and get everything set up .;0;0;0;0;0;0;0
85;darren , the attached appears to be a nomination from vastar resources , inc .;0;0;0;0;0;0;0
87;vastar now expects the well to commence production sometime tomorrow .;0;0;0;0;0;0;0
88;i told linda harris that we d get her a telephone number in gas control so she can provide notification of the turn on tomorrow .;0;0;0;0;0;0;0
93;congratulations on the execution of the central maine sos deal !;0;0;0;0;0;1;0
94;this is another great example of what we can do when everyone comes together to get something done .;0;0;0;0;0;0;0
96;hey dana , are you paying for the celebration dinner ?;0;0;0;0;0;0;0
101;please , call shirley crenshaw 3 5290 or stinson gibner 3 4748 from the reception to be admitted to the building .;0;0;0;0;0;0;0
106;my apologies again for having to leave the staff meeting early yesterday .;0;0;0;0;0;0;0
110;i shared this in the staff meeting so that you would be the first to know .;0;0;0;0;0;0;0
115;all is under control a we ve set up a work out group under cindy skinner and will be producing the stats and making sure we don t cop out .;0;0;0;0;0;0;0
117;stats will show this and progress on others .;0;0;0;0;0;0;0
120;fran and michele cash i also put another guy on this yesterday have all in hand .;0;0;0;0;0;0;0
125;feel free to take as many as you will need .;0;0;0;0;0;0;0
126;be sure to label everything with your new office location .;0;0;0;0;0;0;0
130;fyi see note below already done .;0;0;0;0;0;0;0
137;bill , the epmi st wbom book has been set up as an internal counterparty for desk to desk trading on enrononline .;0;0;0;0;0;0;0
144;we have ordered several baskets .;0;0;0;0;0;0;0
155;i have submitted steve s name as a point of contact .;0;0;0;0;0;0;0
160;i am in sydney today , but will be in tokyo next week .;0;0;0;0;0;0;0
162;what time might you be available ?;0;0;0;0;0;0;0
163;my japan mobile number is 81 90 4073 6761 .;0;0;0;0;0;0;0
165;please contact kristin walsh x 39510 or robert johnston x 39934 for further clarification .;0;0;0;0;0;0;0
166;executive summary utility bankruptcy appears increasingly likely next week unless the state can clear three hurdles agreement on payback for the bailout , rate increases , and further short term funding for dwr purchases of power .;0;0;0;0;0;0;0
174;bankruptcy outlook rising once again a deal to finalize a debt workout continues to be just beyond the reach of the state , the utilities , and their creditors , with time running out on the debt forbearance arrangement set to expire on tuesday .;0;0;0;0;0;0;0
176;they are working very hard to keep cash on hand , and have indicated that they feel that they are very close to an involuntary bankruptcy filing .;0;0;0;0;0;0;0
177;once this filing occurs , they will have 50 days until either the bankruptcy court accepts the filing or the utilities file a voluntary bankruptcy .;0;0;0;0;0;0;0
178;opinion within the assembly is divided with respect to the outlook for bankruptcy .;0;0;0;0;0;0;0
180;senator john burton is in no hurry to reach a deal with the utilities , as he believes that the state of california is in a good position to strong arm the utilities .;0;0;0;0;0;0;0
185;still , bankruptcy can be avoided if a last minute deal can be struck monday on what the state receives in return for the bailout the scope of rate hikes a federal court is expected to rule on the pg e socal v .;0;0;0;0;0;0;0
186;cpuc rate undercollection case monday additional financing is made available to the dwr to buy more power until the revenue bonds can be issued in may .;0;0;0;0;0;0;0
187;there is a possibility that significant progress on these issues could lead to a further extension of creditor forbearance .;0;0;0;0;0;0;0
188;however , the negative tone taken by standard poors and others concerning delays in the legislature suggest that further forbearance will difficult to achieve .;0;0;0;0;0;0;0
191;the non energy expenditures of the california government are now at risk , as there is not yet a rate structure in place to recover the costs being expended on power from the general fund .;0;0;0;0;0;0;0
192;state to take 2 3 of utility debt while the state seems to have succeeded in forcing the utility parents to eat close to one third of the 12 billion debt , a final deal has been held up on two fronts .;0;0;0;0;0;0;0
194;it is possible that there will be a mix of stock warrants and or transmission assets .;0;0;0;0;0;0;0
195;a takeover of the transmission assets seems more likely than a takeover of the hydro assets .;0;0;0;0;0;0;0
198;finally , expect davis and other california politicians to work to minimize rate hikes although the edison pg e v .;0;0;0;0;0;0;0
199;cpuc case on monday is likely to force their hand here and to do everything possible to avoid the appearance of a bailout .;0;0;0;0;0;0;0
200;the tangible transmission assets are more politically attractive than the nebulous stock warrants .;0;0;0;0;0;0;0
201;no price has been set at which the state would purchase the utilities transmission assets , which are currently valued at approximately 7 8 billion .;0;0;0;0;0;0;0
203;however , ipp sources advise that there is already a bid on the table for these transmission assets that is higher than what the state would offer .;0;0;0;0;0;0;0
205;much of the remainder reportedly was contracted in long term purchases from suppliers who are building power plants .;0;0;0;0;0;0;0
206;some of this will come on line in approximately two years .;0;0;0;0;0;0;0
210;the number is slightly different for pg e .;0;0;0;0;0;0;0
211;this assumption is based on a natural gas price of 7 .;0;0;0;0;0;0;0
214;these numbers were quoted to industry sources , who felt they were unrealistic .;0;0;0;0;0;0;0
215;these sources quoted the 2001 price of natural gas as 9 .;0;0;0;0;0;0;0
216;the sources agreed with keeley s number for the 2001 efficiency heating rate , but they felt that 7 , 200 in 2005 was very optimistic unless an enormous amount of new generation capacity comes on line .;0;0;0;0;0;0;0
217;according to keeley s numbers and assuming the filed rate case is settled at 7 billion rather than 12 billion , it would take 5 to 6 years to amortize all of the utility undercollection .;0;0;0;0;0;0;0
218;a settlement to this case will need to be reached so that the state can figure out how much to charge for power in order to amortize the undercollection .;0;0;0;0;0;0;0
219;however , since assemblyman keeley s numbers are unrealistic , a rate increase will be necessary .;0;0;0;0;0;0;0
222;currently there is no contemplation of loosening the aqmd compliance restrictions .;0;0;0;0;0;0;0
224;however , there might be a change in the means of implementation in southern california by moving away from the use of credits this apparently drives up the cost of gas fired power .;0;0;0;0;0;0;0
225;democratic moderates pressured by consumer advocates the moderate left sen .;0;0;0;0;0;0;0
226;burton , the puc , consumer activists is afraid of harvey rosenfield and his consumers movement .;0;0;0;0;0;0;0
230;eminent domain would have a limited effect the threats by burton to seize generation assets to insure continued power supply are limited .;0;0;0;0;0;0;0
234;smaller ipps feeling the squeeze many of the smaller ipps , which account for approximately 2500 mw of production , appear to be within a few days of running out of cash .;0;0;0;0;0;0;0
236;bill , is this the david gray you are going to see ?;0;0;0;0;0;0;0
239;is this how most of his sound is or did i just pick slower songs to listen to ?;0;0;0;0;0;0;0
244;20 th but i may be out of town the week before christmas .;0;0;0;0;0;0;0
247;please let me know if during those three weeks , you would like me to work and for what dates you would need the most help so that we can arrange a schedule that would be most helpful to you and so that i can contact andrea at prostaff soon .;0;0;0;0;0;0;0
250;i look forward to seeing you soon .;0;0;0;0;0;0;0
253;jackie , since the inlet to 3 river plant is shut in on 10 19 99 the last day of flow at what meter is the mcmullen gas being diverted to ?;0;0;0;0;0;0;0
254;at what meter is hpl buying the residue gas ?;0;0;0;0;0;0;0
257;global risk management operations .;0;0;0;0;0;0;0
262;in this role , sally will work closely with all enron geographic regions and wholesale companies to insure that each entity receives individualized regional support while also focusing on the following global responsibilities 1 .;0;0;0;0;0;0;0
267;coordinate user requirements for shared operational systems .;0;0;0;0;0;0;0
270;each regional operations team will continue its direct reporting relationship within its business unit , and will collaborate with sally in the delivery of these critical items .;0;0;0;0;0;0;0
271;the houston based risk management operations team under sue frusco , s leadership , which currently supports risk management activities for south america and australia , will also report directly to sally .;0;0;0;0;0;0;0
