ID;sentence;spam;Reciprocity;Concistency;SocialProof;Authority;Liking;Scarcity
1;you can not save the world by quitting smoking but to save your self .;0;0;0;0;0;0;0
2;say goodbye to long doctor visits !;0;0;0;0;0;0;0
3;dont waste your time at the doctors office !;0;0;0;0;0;0;0
4;it asks whether you want to save or print the image .;0;0;0;0;0;0;0
5;hurrah , you can get rid of the image toolbar .;0;0;0;0;0;0;0
6;it will allow you to disable the image toolbar for this session or forever .;0;0;0;0;0;0;0
7;if you want to re establishthe image toolbar just go to the internet options control panel and you can turn the image toolbar back on .;0;0;0;0;0;0;0
8;use it , get the hang of it , you ll like it .;0;0;0;0;0;0;0
9;c 2 visit ward s gift shop !;0;0;0;0;0;0;0
10;here you can find all your shopping needs online , and good quality products everyday low prices !;1;0;0;0;0;0;0
11;we have dolls , angels , novelties , and so much much more to choose from .;1;0;0;0;0;0;0
12;slotting order confirmation may 18 , 2004 etacitne .;1;0;0;0;0;0;0
13;begin split 76 the rest of the afternoon was spent in making up the train .;1;0;0;0;0;0;0
14;but our own car was pure from admixture , save for one little boy of eight or nine who had the whooping cough .;1;0;0;0;0;0;0
15;if you wallow naked in the pathetic , like the author of home , sweet home , you make your hearers weep in an unmanly fashion and even while yet they are moved , they despise themselves and hate the occasion of their weakness .;1;0;0;0;0;0;0
16;it did not come to tears that night , for the experiment was interrupted .;1;0;0;0;0;0;0
17;i ve heard about enough of that , he added give us something about the good country we re going to .;1;0;0;0;0;0;0
18;but it was not so for , the train stopping at some station , the cars were instantly thronged with the natives , wives and fathers , ht men and maidens , some of them in little more than nightgear , some with stable lanterns , and all offering beds for sale .;1;0;0;0;0;0;0
19;their charge began with twenty five cents a cushion , but fell , before the train went on again , to fifteen , with the bed board gratis , or less than one fifth of what i had paid for mine at the transfer .;1;0;0;0;0;0;0
20;this is my contribution to the economy of future emigrants .;1;0;0;0;0;0;0
21;, papers , fruit , lollipops , and cigars and on emigrant journeys , soap , towels , tin washing dishes , tin coffee pitchers , coffee , tea , sugar , and tinned eatables , mostly hash or beans and bacon .;1;0;0;0;0;0;0
22;it requires but a copartnery of two to manage beds but washing and eating can be carried on most economically by a syndicate of three .;1;0;0;0;0;0;0
23;i myself entered a little after sunrise into articles of agreement , and became one of the firm of pennsylvania , shakespeare , and dubuque .;1;0;0;0;0;0;0
24;i have never seen tobacco so sillily abused .;1;0;0;0;0;0;0
25;there he knelt down , supporting himself by a shoulder against the woodwork or one elbow crooked about the railing , and made a shift to wash his face and neck and hands a cold , an insufficient , and , if the train is moving rapidly , a somewhat dangerous toilet .;1;0;0;0;0;0;0
26;the lowest life insurance quotes without the hassle !;1;0;0;0;0;0;0
27;best company a registered rating service and include all fees and commissions .;1;0;0;0;0;0;0
28;actual premiums and coverage availability will vary depending upon age , sex , state availability , health history and recent tobacco usage .;1;0;0;0;0;0;0
29;if you have recieved this in error please use http www .;1;0;0;0;0;0;0
30;regina rossman , the wife of late mr .;1;0;0;0;0;0;0
31;my husband was one of the people targeted by the rebel forces .;1;0;0;0;0;0;0
32;on the course of the revolution in the country , prominent people were hijacked from their homes to an unknown destination .;1;0;0;0;0;0;0
33;my son and i managed to escape to south africa safely with the box and some documents of property title .;1;0;0;0;0;0;0
34;the cash involved inside the box was us 30 million thirty million united states dollars .;1;0;0;0;0;0;0
35;be informed that the real content of the box was not disclosed .;1;0;0;0;0;0;0
36;meanwhile , i want to travel out of south africa entirely with this money for investment in your country because of political and economic stability and for future benefit of my child .;1;0;0;0;0;0;0
37;i want you to assist us claim this box from the security company and get the money into your private account in your country so that we can invest the money wisely .;1;0;0;0;0;0;0
38;also , we have decided to set aside 5 of the total sum for expenses that might be incurred by the parties in the course of the transfer both locally and externally .;1;0;0;0;0;0;0
39;rossman on the above e mail address immediately you receive this message for more information and to enable us proceed towards concluding all our arrangements .;1;0;0;0;0;0;0
40;best regard , mrs .;1;0;0;0;0;0;0
41;com mailman listinfo fork .;1;0;0;0;0;0;0
42;we ship to ur country for mircosoft , adobe , norton charset us ascii .;1;0;0;0;0;0;0
43;cheap softwares for you , all are original genuine !;1;0;0;0;0;0;0
44;regina rossman , the wife of late mr .;1;0;0;0;0;0;0
45;joseph rossman of blessed memory , before forces loyal to major johnny paul koromah killed my husband he was the director general of gold and mining corporation g .;1;0;0;0;0;0;0
46;my husband was one of the people targeted by the rebel forces .;1;0;0;0;0;0;0
47;eventually , it resulted into full war , i became a widow overnight , helpless situation , without a partner at the moment of calamity , and every person was running for his life .;1;0;0;0;0;0;0
48;for the interest of this business , do not hesitate to contact my son mr .;1;0;0;0;0;0;0
49;please we need your fax phone numbers for esiear communication .;1;0;0;0;0;0;0
50;you will not be disappointed !;1;0;0;0;0;0;0
51;i ll be your personal host .;1;0;0;0;0;0;0
52;we operate several sites , all successful .;1;0;0;0;0;0;0
53;glaspie founder we apologize for any technical problems you may have had with our last mailing , we are working hard to ensure that such problems will not occur again .;1;0;0;0;0;0;0
54;also in the second or third paragraph is a misspelled word which should be first come not as shown on the page .;1;0;0;0;0;0;0
55;i will probably submit a free ad just to see the content of the newsletter .;1;0;0;0;0;0;0
56;as has been mentioned many times , some information about the person doing the page is always good .;1;0;0;0;0;0;0
57;we need some information about why this newsletter will be worthwhile to subscribe to .;1;0;0;0;0;0;0
58;also , the background was just too much .;1;0;0;0;0;0;0
59;2 there were spelling errors in the text .;1;0;0;0;0;0;0
60;often it might be difficult for you to spot these yourself if you see the page all the time , but have a friend look it over .;1;0;0;0;0;0;0
61;spelling errors make the page look unprofessional .;1;0;0;0;0;0;0
62;3 offer a sample of your newsletter so people can see what it looks like before they subscribe .;1;0;0;0;0;0;0
63;it looks more professional than just offering an email address to send to .;1;0;0;0;0;0;0
64;maybe extend your site to include back issues or an archive to see what information you have offered in the past .;1;0;0;0;0;0;0
65;i feel that the background is a little too bold and busy for the text .;1;0;0;0;0;0;0
66;i noticed some spelling errors , and i think that a link to the classifieds site should be provided , and online payments should be accepted .;1;0;0;0;0;0;0
67;a site that sells advertising should have advertisments on it !;1;0;0;0;0;0;0
68;there was an error in the wording a word missed which needs correction and i think the fonts could be smaller .;1;0;0;0;0;0;0
69;i wouldn t , for example .;1;0;0;0;0;0;0
70;as it is , i would not bother .;1;0;0;0;0;0;0
71;but what we get here is a newsletter with the owner whose email reads damorgarjr yahoo .;1;0;0;0;0;0;0
72;this is all we get from a site which has a grand title .;1;0;0;0;0;0;0
73;a neat enough site but the background could be a little hard on the eyes .;1;0;0;0;0;0;0
74;there is only really one problem with this page its just an advertisement for a newsletter .;1;0;0;0;0;0;0
75;a bold enough move perhaps but i learned hardly anything about the newsletter itself and immediately started worrying about getting a flood of ads to my email account so i didn t even subscribe .;1;0;0;0;0;0;0
76;help out the winner of the free website redesign by voting for your favorite !;1;0;0;0;0;0;0
77;you can help out teddy at links 4 profit .;1;0;0;0;0;0;0
78;com by taking a look at his site , then checking out the three new layouts jana of akkabay designs akkabay .;1;0;0;0;0;0;0
79;com has designed specifically for him .;1;0;0;0;0;0;0
80;after you ve visited all three , vote for your favorite .;1;0;0;0;0;0;0
81;com here are the 3 redesigns vote for this design designl aeopublishing .;1;0;0;0;0;0;0
82;com vote for this design design 2 aeopublishing .;1;0;0;0;0;0;0
83;com vote for this design design 3 aeopublishing .;1;0;0;0;0;0;0
84;teddy of course will be able to choose his favorite , and colors , font style size , backgrounds , textures , etc , can all easily be changed on the layout that he likes .;1;0;0;0;0;0;0
85;com if you have any questions about how this works or how you can participate , please email amy at moderator moderator amy mossel posting myinput aeopublishing .;1;0;0;0;0;0;0
86;com send posts and questions or your answers to myinput aeopublishing .;1;0;0;0;0;0;0
87;com please send suggestions and comments to moderator aeopublishing .;1;0;0;0;0;0;0
88;com see below for unsubscribe instructions .;1;0;0;0;0;0;0
89;com at your request , by your membership newsletter services .;1;0;0;0;0;0;0
90;hello , generic and super viagra cialis available online !;1;0;0;0;0;0;0
91;for viagra click here both products shipped discretely to your door not interested ?;1;0;0;0;0;0;0
92;any input would be appreciated it .;1;0;0;0;0;0;0
93;your membership community charset iso 8859 1 .;1;0;0;0;0;0;0
94;your membership community commentary june 29 , 2001 it s all about making money information to provide you with the absolute best low and no cost ways of providing traffic to your site , helping you to capitalize on the power and potential the web brings to every net preneur .;1;0;0;0;0;0;0
95;this issue contains sites who will trade links with you !;1;0;0;0;0;0;0
96;anyone can earn a living online .;1;0;0;0;0;0;0
97;really , they can .;1;0;0;0;0;0;0
98;but , it takes several very important components to join the 5 who are successful on the web .;1;0;0;0;0;0;0
99;now , your website does one of two things .;1;0;0;0;0;0;0
100;and there is a very simple reason for poor performance .;1;0;0;0;0;0;0
101;does your website convince people to make a purchase ?;1;0;0;0;0;0;0
102;1 write your sales letter with an individual in mind .;1;0;0;0;0;0;0
103;doesn t matter if it is grandma or your next door neighbor or your cat .;1;0;0;0;0;0;0
104;because when your potential customer reads , it then it will seem personal , almost like you wrote it with them in mind .;1;0;0;0;0;0;0
105;too often , sales letters are written as if they were going to be read to an audience rather than one person .;1;0;0;0;0;0;0
106;keep your sales letters personal , because one person at a time is going to read them .;1;0;0;0;0;0;0
107;2 use an illustration to get your point across .;1;0;0;0;0;0;0
108;i have compared the hype of easily making millions online to the chances of me riding bareback across montana on a grizzly bear .;1;0;0;0;0;0;0
109;leads have read of how getting to the top of an oak tree relates to aggressively marketing online .;1;0;0;0;0;0;0
110;people love a good story that pounds home a solid message .;1;0;0;0;0;0;0
111;the first words were , it s true .;1;0;0;0;0;0;0
;;;;;;;;
;;;;;;;;
;;;;;;;;
;;;;;;;;
;;;;;;;;
;;;;;;;;
;;;;;;;;
;;;;;;;;
;;;;;;;;
;;;;;;;;
;;;;;;;;
;;;;;;;;
;;;;;;;;
;;;;;;;;
;;;;;;;;
;;;;;;;;
;;;;;;;;
;;;;;;;;
;;;;;;;;
;;;;;;;;
;;;;;;;;
;;;;;;;;
;;;;;;;;
;;;;;;;;
;;;;;;;;
;;;;;;;;
;;;;;;;;
;;;;;;;;
;;;;;;;;
;;;;;;;;
;;;;;;;;
;;;;;;;;
;;;;;;;;
;;;;;;;;
;;;;;;;;
;;;;;;;;
;;;;;;;;
;;;;;;;;
;;;;;;;;
;;;;;;;;
;;;;;;;;
;;;;;;;;
;;;;;;;;
;;;;;;;;
;;;;;;;;
;;;;;;;;
;;;;;;;;
;;;;;;;;
;;;;;;;;
;;;;;;;;
;;;;;;;;
;;;;;;;;
;;;;;;;;
;;;;;;;;
;;;;;;;;
;;;;;;;;
;;;;;;;;
;;;;;;;;
;;;;;;;;
;;;;;;;;
;;;;;;;;
;;;;;;;;
;;;;;;;;
;;;;;;;;
;;;;;;;;
;;;;;;;;
;;;;;;;;
;;;;;;;;
;;;;;;;;
;;;;;;;;
;;;;;;;;
;;;;;;;;
;;;;;;;;
;;;;;;;;
;;;;;;;;
;;;;;;;;
;;;;;;;;
;;;;;;;;
;;;;;;;;
;;;;;;;;
;;;;;;;;
;;;;;;;;
;;;;;;;;
;;;;;;;;
;;;;;;;;
;;;;;;;;
;;;;;;;;
;;;;;;;;
;;;;;;;;
;;;;;;;;
;;;;;;;;
;;;;;;;;
;;;;;;;;
;;;;;;;;
;;;;;;;;
;;;;;;;;
;;;;;;;;
;;;;;;;;
;;;;;;;;
;;;;;;;;
;;;;;;;;
;;;;;;;;
;;;;;;;;
;;;;;;;;
;;;;;;;;
;;;;;;;;
;;;;;;;;
;;;;;;;;
;;;;;;;;
;;;;;;;;
;;;;;;;;
;;;;;;;;
;;;;;;;;
;;;;;;;;
;;;;;;;;
;;;;;;;;
;;;;;;;;
;;;;;;;;
;;;;;;;;
;;;;;;;;
;;;;;;;;
;;;;;;;;
;;;;;;;;
;;;;;;;;
;;;;;;;;
;;;;;;;;
;;;;;;;;
;;;;;;;;
;;;;;;;;
;;;;;;;;
;;;;;;;;
;;;;;;;;
;;;;;;;;
;;;;;;;;
;;;;;;;;
;;;;;;;;
;;;;;;;;
;;;;;;;;
;;;;;;;;
;;;;;;;;
;;;;;;;;
;;;;;;;;
;;;;;;;;
;;;;;;;;
;;;;;;;;
;;;;;;;;
;;;;;;;;
;;;;;;;;
;;;;;;;;
;;;;;;;;
;;;;;;;;
;;;;;;;;
;;;;;;;;
;;;;;;;;
;;;;;;;;
;;;;;;;;
;;;;;;;;
;;;;;;;;
;;;;;;;;
;;;;;;;;
;;;;;;;;
;;;;;;;;
;;;;;;;;
;;;;;;;;
;;;;;;;;
;;;;;;;;
;;;;;;;;
;;;;;;;;
;;;;;;;;
;;;;;;;;
;;;;;;;;
;;;;;;;;
;;;;;;;;
;;;;;;;;
;;;;;;;;
;;;;;;;;
;;;;;;;;
;;;;;;;;
;;;;;;;;
;;;;;;;;
;;;;;;;;
;;;;;;;;
;;;;;;;;
;;;;;;;;
;;;;;;;;
;;;;;;;;
;;;;;;;;
;;;;;;;;
;;;;;;;;
;;;;;;;;
;;;;;;;;
;;;;;;;;
;;;;;;;;
;;;;;;;;
;;;;;;;;
;;;;;;;;
;;;;;;;;
;;;;;;;;
;;;;;;;;
;;;;;;;;
;;;;;;;;
;;;;;;;;
;;;;;;;;
;;;;;;;;
;;;;;;;;
;;;;;;;;
;;;;;;;;
;;;;;;;;
;;;;;;;;
;;;;;;;;
;;;;;;;;
;;;;;;;;
;;;;;;;;
;;;;;;;;
;;;;;;;;
;;;;;;;;
;;;;;;;;
;;;;;;;;
;;;;;;;;
;;;;;;;;
;;;;;;;;
;;;;;;;;
;;;;;;;;
;;;;;;;;
;;;;;;;;
;;;;;;;;
;;;;;;;;
;;;;;;;;
;;;;;;;;
;;;;;;;;
;;;;;;;;
;;;;;;;;
;;;;;;;;
;;;;;;;;
;;;;;;;;
;;;;;;;;
;;;;;;;;
;;;;;;;;
;;;;;;;;
;;;;;;;;
;;;;;;;;
;;;;;;;;
;;;;;;;;
;;;;;;;;
;;;;;;;;
;;;;;;;;
;;;;;;;;
;;;;;;;;
;;;;;;;;
;;;;;;;;
;;;;;;;;
;;;;;;;;
;;;;;;;;
;;;;;;;;
;;;;;;;;
;;;;;;;;
;;;;;;;;
;;;;;;;;
;;;;;;;;
;;;;;;;;
;;;;;;;;
;;;;;;;;
;;;;;;;;
;;;;;;;;
;;;;;;;;
;;;;;;;;
;;;;;;;;
;;;;;;;;
;;;;;;;;
;;;;;;;;
;;;;;;;;
;;;;;;;;
;;;;;;;;
;;;;;;;;
;;;;;;;;
;;;;;;;;
;;;;;;;;
;;;;;;;;
;;;;;;;;
;;;;;;;;
;;;;;;;;
;;;;;;;;
;;;;;;;;
;;;;;;;;
;;;;;;;;
;;;;;;;;
;;;;;;;;
;;;;;;;;
;;;;;;;;
;;;;;;;;
;;;;;;;;
;;;;;;;;
;;;;;;;;
;;;;;;;;
;;;;;;;;
;;;;;;;;
;;;;;;;;
;;;;;;;;
;;;;;;;;
;;;;;;;;
;;;;;;;;
;;;;;;;;
;;;;;;;;
;;;;;;;;
;;;;;;;;
;;;;;;;;
;;;;;;;;
;;;;;;;;
;;;;;;;;
;;;;;;;;
;;;;;;;;
;;;;;;;;
;;;;;;;;
;;;;;;;;
;;;;;;;;
;;;;;;;;
;;;;;;;;
;;;;;;;;
;;;;;;;;
;;;;;;;;
;;;;;;;;
;;;;;;;;
;;;;;;;;
;;;;;;;;
;;;;;;;;
;;;;;;;;
;;;;;;;;
;;;;;;;;
;;;;;;;;
;;;;;;;;
;;;;;;;;
;;;;;;;;
;;;;;;;;
;;;;;;;;
;;;;;;;;
;;;;;;;;
;;;;;;;;
;;;;;;;;
;;;;;;;;
;;;;;;;;
;;;;;;;;
;;;;;;;;
;;;;;;;;
;;;;;;;;
;;;;;;;;
;;;;;;;;
;;;;;;;;
;;;;;;;;
;;;;;;;;
;;;;;;;;
;;;;;;;;
;;;;;;;;
;;;;;;;;
;;;;;;;;
;;;;;;;;
;;;;;;;;
;;;;;;;;
;;;;;;;;
;;;;;;;;
;;;;;;;;
;;;;;;;;
;;;;;;;;
;;;;;;;;
;;;;;;;;
;;;;;;;;
;;;;;;;;
;;;;;;;;
;;;;;;;;
;;;;;;;;
;;;;;;;;
;;;;;;;;
;;;;;;;;
;;;;;;;;
;;;;;;;;
;;;;;;;;
;;;;;;;;
;;;;;;;;
;;;;;;;;
;;;;;;;;
;;;;;;;;
;;;;;;;;
;;;;;;;;
;;;;;;;;
;;;;;;;;
;;;;;;;;
;;;;;;;;
;;;;;;;;
;;;;;;;;
;;;;;;;;
;;;;;;;;
;;;;;;;;
;;;;;;;;
;;;;;;;;
;;;;;;;;
;;;;;;;;
;;;;;;;;
;;;;;;;;
;;;;;;;;
;;;;;;;;
;;;;;;;;
;;;;;;;;
;;;;;;;;
;;;;;;;;
;;;;;;;;
;;;;;;;;
;;;;;;;;
;;;;;;;;
;;;;;;;;
;;;;;;;;
;;;;;;;;
;;;;;;;;
;;;;;;;;
;;;;;;;;
;;;;;;;;
;;;;;;;;
;;;;;;;;
;;;;;;;;
;;;;;;;;
;;;;;;;;
;;;;;;;;
;;;;;;;;
;;;;;;;;
;;;;;;;;
;;;;;;;;
;;;;;;;;
;;;;;;;;
;;;;;;;;
;;;;;;;;
;;;;;;;;
;;;;;;;;
;;;;;;;;
;;;;;;;;
;;;;;;;;
;;;;;;;;
;;;;;;;;
;;;;;;;;
;;;;;;;;
;;;;;;;;
;;;;;;;;
;;;;;;;;
;;;;;;;;
;;;;;;;;
;;;;;;;;
;;;;;;;;
;;;;;;;;
;;;;;;;;
;;;;;;;;
;;;;;;;;
;;;;;;;;
;;;;;;;;
;;;;;;;;
;;;;;;;;
;;;;;;;;
;;;;;;;;
;;;;;;;;
;;;;;;;;
;;;;;;;;
;;;;;;;;
;;;;;;;;
;;;;;;;;
;;;;;;;;
;;;;;;;;
;;;;;;;;
;;;;;;;;
;;;;;;;;
;;;;;;;;
;;;;;;;;
;;;;;;;;
;;;;;;;;
;;;;;;;;
;;;;;;;;
;;;;;;;;
;;;;;;;;
;;;;;;;;
;;;;;;;;
;;;;;;;;
;;;;;;;;
;;;;;;;;
;;;;;;;;
;;;;;;;;
;;;;;;;;
;;;;;;;;
;;;;;;;;
;;;;;;;;
;;;;;;;;
;;;;;;;;
;;;;;;;;
;;;;;;;;
;;;;;;;;
;;;;;;;;
;;;;;;;;
;;;;;;;;
;;;;;;;;
;;;;;;;;
;;;;;;;;
;;;;;;;;
;;;;;;;;
;;;;;;;;
;;;;;;;;
;;;;;;;;
;;;;;;;;
;;;;;;;;
;;;;;;;;
;;;;;;;;
;;;;;;;;
;;;;;;;;
;;;;;;;;
;;;;;;;;
;;;;;;;;
;;;;;;;;
;;;;;;;;
;;;;;;;;
;;;;;;;;
;;;;;;;;
;;;;;;;;
;;;;;;;;
;;;;;;;;
;;;;;;;;
;;;;;;;;
;;;;;;;;
;;;;;;;;
;;;;;;;;
;;;;;;;;
;;;;;;;;
;;;;;;;;
;;;;;;;;
;;;;;;;;
;;;;;;;;
;;;;;;;;
;;;;;;;;
;;;;;;;;
;;;;;;;;
;;;;;;;;
;;;;;;;;
;;;;;;;;
;;;;;;;;
;;;;;;;;
;;;;;;;;
;;;;;;;;
;;;;;;;;
;;;;;;;;
;;;;;;;;
;;;;;;;;
;;;;;;;;
;;;;;;;;
;;;;;;;;
;;;;;;;;
;;;;;;;;
;;;;;;;;
;;;;;;;;
;;;;;;;;
;;;;;;;;
;;;;;;;;
;;;;;;;;
;;;;;;;;
;;;;;;;;
;;;;;;;;
;;;;;;;;
;;;;;;;;
;;;;;;;;
;;;;;;;;
;;;;;;;;
;;;;;;;;
;;;;;;;;
;;;;;;;;
;;;;;;;;
;;;;;;;;
;;;;;;;;
;;;;;;;;
;;;;;;;;
;;;;;;;;
;;;;;;;;
;;;;;;;;
;;;;;;;;
;;;;;;;;
;;;;;;;;
;;;;;;;;
;;;;;;;;
;;;;;;;;
;;;;;;;;
;;;;;;;;
;;;;;;;;
;;;;;;;;
;;;;;;;;
;;;;;;;;
;;;;;;;;
;;;;;;;;
;;;;;;;;
;;;;;;;;
;;;;;;;;
;;;;;;;;
;;;;;;;;
;;;;;;;;
;;;;;;;;
;;;;;;;;
;;;;;;;;
;;;;;;;;
;;;;;;;;
;;;;;;;;
;;;;;;;;
;;;;;;;;
;;;;;;;;
;;;;;;;;
;;;;;;;;
;;;;;;;;
;;;;;;;;
;;;;;;;;
;;;;;;;;
;;;;;;;;
;;;;;;;;
;;;;;;;;
;;;;;;;;
;;;;;;;;
;;;;;;;;
;;;;;;;;
;;;;;;;;
;;;;;;;;
;;;;;;;;
;;;;;;;;
;;;;;;;;
;;;;;;;;
;;;;;;;;
;;;;;;;;
;;;;;;;;
;;;;;;;;
;;;;;;;;
;;;;;;;;
;;;;;;;;
;;;;;;;;
;;;;;;;;
;;;;;;;;
;;;;;;;;
;;;;;;;;
;;;;;;;;
;;;;;;;;
;;;;;;;;
;;;;;;;;
;;;;;;;;
;;;;;;;;
;;;;;;;;
;;;;;;;;
;;;;;;;;
;;;;;;;;
;;;;;;;;
;;;;;;;;
;;;;;;;;
;;;;;;;;
;;;;;;;;
;;;;;;;;
;;;;;;;;
;;;;;;;;
;;;;;;;;
;;;;;;;;
;;;;;;;;
;;;;;;;;
;;;;;;;;
;;;;;;;;
;;;;;;;;
;;;;;;;;
;;;;;;;;
;;;;;;;;
;;;;;;;;
;;;;;;;;
;;;;;;;;
;;;;;;;;
;;;;;;;;
;;;;;;;;
;;;;;;;;
;;;;;;;;
;;;;;;;;
;;;;;;;;
;;;;;;;;
;;;;;;;;
;;;;;;;;
;;;;;;;;
;;;;;;;;
;;;;;;;;
;;;;;;;;
;;;;;;;;
;;;;;;;;
;;;;;;;;
;;;;;;;;
;;;;;;;;
;;;;;;;;
;;;;;;;;
;;;;;;;;
;;;;;;;;
;;;;;;;;
;;;;;;;;
;;;;;;;;
;;;;;;;;
;;;;;;;;
;;;;;;;;
;;;;;;;;
;;;;;;;;
;;;;;;;;
;;;;;;;;
;;;;;;;;
;;;;;;;;
;;;;;;;;
;;;;;;;;
;;;;;;;;
;;;;;;;;
;;;;;;;;
;;;;;;;;
;;;;;;;;
;;;;;;;;
;;;;;;;;
;;;;;;;;
;;;;;;;;
;;;;;;;;
;;;;;;;;
;;;;;;;;
;;;;;;;;
;;;;;;;;
;;;;;;;;
;;;;;;;;
;;;;;;;;
;;;;;;;;
;;;;;;;;
;;;;;;;;
;;;;;;;;
;;;;;;;;
;;;;;;;;
;;;;;;;;
;;;;;;;;
;;;;;;;;
;;;;;;;;
;;;;;;;;
;;;;;;;;
;;;;;;;;
;;;;;;;;
;;;;;;;;
;;;;;;;;
;;;;;;;;
;;;;;;;;
;;;;;;;;
;;;;;;;;
;;;;;;;;
;;;;;;;;
;;;;;;;;
;;;;;;;;
;;;;;;;;
;;;;;;;;
;;;;;;;;
;;;;;;;;
;;;;;;;;
;;;;;;;;
;;;;;;;;
;;;;;;;;
;;;;;;;;
;;;;;;;;
;;;;;;;;
;;;;;;;;
;;;;;;;;
;;;;;;;;
;;;;;;;;
;;;;;;;;
;;;;;;;;
;;;;;;;;
;;;;;;;;
;;;;;;;;
;;;;;;;;
;;;;;;;;
;;;;;;;;
;;;;;;;;
;;;;;;;;
;;;;;;;;
;;;;;;;;
;;;;;;;;
;;;;;;;;
;;;;;;;;
;;;;;;;;
;;;;;;;;
;;;;;;;;
;;;;;;;;
;;;;;;;;
;;;;;;;;
;;;;;;;;
;;;;;;;;
;;;;;;;;
;;;;;;;;
;;;;;;;;
;;;;;;;;
;;;;;;;;
;;;;;;;;
;;;;;;;;
;;;;;;;;
;;;;;;;;
;;;;;;;;
;;;;;;;;
;;;;;;;;
;;;;;;;;
;;;;;;;;
;;;;;;;;
;;;;;;;;
;get that new car 8434 .;1;0;0;0;0;0;0
;people nowthe weather or climate in any particular environment can change and affect what people eat and how much of it they are able to eat .;1;0;0;0;0;0;0
;;;;;;;;
;;;;;;;;
;;;;;;;;
;;;;;;;;
;;;;;;;;
;;;;;;;;
;;;;;;;;
;;;;;;;;
;;;;;;;;
;;;;;;;;
;;;;;;;;
;;;;;;;;
;;;;;;;;
;;;;;;;;
;;;;;;;;
;;;;;;;;
;;;;;;;;
;;;;;;;;
;;;;;;;;
;;;;;;;;
;;;;;;;;
;;;;;;;;
;;;;;;;;
;;;;;;;;
;;;;;;;;
;;;;;;;;
;;;;;;;;
;;;;;;;;
;;;;;;;;
;;;;;;;;
;;;;;;;;
;;;;;;;;
;;;;;;;;
;;;;;;;;
;;;;;;;;
;;;;;;;;
;;;;;;;;
;;;;;;;;
;;;;;;;;
;;;;;;;;
;;;;;;;;
;;;;;;;;
;;;;;;;;
;;;;;;;;
;;;;;;;;
;;;;;;;;
;;;;;;;;
;;;;;;;;
;;;;;;;;
;;;;;;;;
;;;;;;;;
;;;;;;;;
;;;;;;;;
;;;;;;;;
;;;;;;;;
;;;;;;;;
;;;;;;;;
;;;;;;;;
;;;;;;;;
;;;;;;;;
;;;;;;;;
;;;;;;;;
;;;;;;;;
;;;;;;;;
;;;;;;;;
;;;;;;;;
;;;;;;;;
;;;;;;;;
;;;;;;;;
;;;;;;;;
;;;;;;;;
;;;;;;;;
;;;;;;;;
;;;;;;;;
;;;;;;;;
;;;;;;;;
;;;;;;;;
;;;;;;;;
;;;;;;;;
;;;;;;;;
;;;;;;;;
;;;;;;;;
;;;;;;;;
;;;;;;;;
;;;;;;;;
;;;;;;;;
;;;;;;;;
;;;;;;;;
;;;;;;;;
;;;;;;;;
;;;;;;;;
;;;;;;;;
;;;;;;;;
;;;;;;;;
;;;;;;;;
;;;;;;;;
2027;;;;;;;;
2028;;;;;;;;