ID;sentence;spam;Reciprocity;Concistency;SocialProof;Authority;Liking;Scarcity
1;800 world best software with 90 discount that is a really best offer just imagine , you can buy all software that you ever need and pay price of just one of it !;1;1;0;1;0;0;0
2;95 coreldraw graphics suite v 12 pc my price 100 normal 349 .;1;0;0;0;0;0;1
3;95 norton antivirus 2004 professional my price 15 normal 69 .;1;0;0;0;0;0;1
4;95 you save 419 .;1;0;0;0;0;0;1
5;95 you save 519 .;1;0;0;0;0;0;1
6;95 you save 54 .;1;0;0;0;0;0;1
7;99 microsoft office xp professional my price 100 normal 499 .;1;0;0;0;0;0;1
8;a permanent fix to penis enlargement limited offer increase atleast 3 inches or your money back click here and see more no thanks .;1;0;0;0;0;0;1
9;a substantial number of our members earn 5 , 000 us to 12 , 000 us per month .;1;0;0;1;0;0;0
10;aka vicqodin , xacnax , suprervisagra and much more no presccription needed !;1;1;0;0;0;0;0
11;all participants were selected through a computer ballot system drawn from over 200 , 000 , 000 company and 300 , 000 , 000 individual email addresses and names from all over the world .;1;0;0;1;0;0;0
12;all quotes shown are from insurance companies rated a , a , a or a by a .;1;0;0;1;0;0;0
13;also , we have decided to set aside 5 of the total sum for expenses that might be incurred by the parties in the course of the transfer both locally and externally .;1;0;0;0;0;1;0
14;and , trust me , that brick wall won t ever get in your way again .;1;0;0;0;0;1;0
15;and remember what bob marley said who makes music thinking to money , his music will loose its value .;1;0;0;0;0;0;1
16;annals our qualified physicians are standing by to serve you .;1;0;0;0;1;0;0
17;are you drowning in debt ?;1;1;0;0;0;0;0
18;as a member of unlimited downloads the premier downloading club on the internet this is what you could be getting for free in just a few minutes from now in 3 simple and amazingly easy and fast steps anything and everything you could possibly want in , music mp 3 s dvd quality movies including xxx video computer games software tv shows song lyrics audio books then make your own cd s , dvd s , and game discs complete with cover art easily in 2 easy steps from our membership pages .;1;1;0;0;0;0;0
19;ask the ceos of yahoo .;1;0;0;0;1;0;0
20;assemblyman keeley expressed frustration that he has received a tablet from on high from governor davis that there must not be a rate increase .;0;0;0;0;1;0;0
21;assemblyman keeley told our source that a filing is likely , but that everything will be resolved during that 50 day period .;0;0;0;0;1;0;0
22;be informed that the real content of the box was not disclosed .;1;0;0;0;0;0;1
23;became public in october 2001 , via reverse merger with hitech resource corp .;1;0;0;1;0;0;0
24;because as a valuable member we want you to be successful !;1;0;0;0;0;1;0
25;beck , vice president .;0;0;0;0;1;0;0
26;but , i do care about keeping my 3 month old baby girl safe while we are traveling .;1;0;0;0;0;1;0
27;but i am happy enough to be able to say it should be considered by any man looking to increase his fertility .;1;0;0;1;0;0;0
28;buy something while you still can !;1;0;0;0;0;0;1
29;canadian pharmacy up to 80 off and free cia lis sample !;1;1;0;0;0;0;0
30;cheap online medicine here .;1;1;0;0;0;0;0
31;click here free teleseminar michael t .;1;1;0;0;0;0;0
32;click here there is never any fee to consumers for using this service .;1;1;0;0;0;0;0
33;click here to enjoy our super discount !;1;0;0;0;0;0;1
34;click here we have already signed 300 isps on a 4 year contract , see if any are in your town at click here you are a member in at least one of these programs you should be in them all !;1;0;0;1;0;0;0
35;com chronicles to over 11 , 500 subscribing members , authors articles which appear all over the net , and helps hundreds of wealth hungry people in their journey to internet success .;1;0;0;1;0;0;0
36;com click here we have already signed 300 isps on a 4 year contract , see if any are in your town at http www .;1;1;0;1;0;0;0
37;com email us visit our site phone this email was sent to jm netnoteinc .;1;1;0;0;0;0;0
38;com ezine win a free ad in community commentary to keep this interesting , how about this , every month we ll draw a name from the replies and that person will win one sponsorship showcase ad in the community commentary , for free .;1;1;0;0;0;0;0
39;com internet success through simplicity every day of the week , i get questions from people all over the world , including my no bs gimg members , wanting to know some of the most valuable secrets to my on going internet success .;1;0;0;1;0;0;0
40;com questions free advertising to other members , and soon chances to win cash !;0;1;0;0;0;0;0
41;com ranks very high and most often 1 or 2 on all major search engines and directories even yahoo entering the keyword zesto .;1;0;0;1;1;0;0
42;com retire quickly free report seven secrets to earning 100 , 000 from home .;1;1;0;0;0;0;0
43;com stop smoking free lesson !;1;1;0;0;0;0;0
44;com today s special announcement we can help you become an internet service provider within 7 daysor we will give you 100 .;1;1;0;0;0;0;1
45;compare rates from the nation s top insurance companies shop , compare and save fill out the simple form , and you ll have the 15 best custom quotes in 1 minute .;1;0;0;1;1;0;0
46;compare your current coverage to these sample 10 year level term monthly premiums 20 year , 30 year and smoker rates also available 250 , 000 500 , 000 1 , 000 , 000 age male female male female male female 30 12 11 19 15 31 27 40 15 13 26 21 38 37 50 32 24 59 43 107 78 60 75 46 134 87 259 161 click here to compare !;1;1;0;0;0;0;0
47;concerning the money , we are prepared to give you reasonable percentage of 30 for your kind assistance .;1;1;0;0;0;1;0
48;concurrently , we have been in discussions with world players on the international distribution scene .;1;0;0;0;1;0;0
49;congrats to you zlptv .;1;0;0;0;0;1;0
50;contratulations on the execution of the central maine sos deal !;0;0;0;0;0;1;0
51;dear cheapsoft customer , my name is annie kincaid , and i work at cheapsoft llc .;1;1;0;0;0;0;0
52;dear valued paypal member it has come to our attention that your paypal account information needs to be updated as part of our continuing commitment to protect your account and to reduce the instance of fraud on our website .;1;0;0;0;0;1;0
53;dear valued paypal member it has come to out attention that your paypal account informations needs to be updated as .;1;0;0;0;1;0;0
54;discover the secrets your governments don t want you to know here s a sample of what s inside the quick start guide to offshore banking how to keep all your money open anonymous merchant accounts how to get anonymous visa and mastercard credit cards how to set up discreet mail drops in over 100 countries find anyone anywhere repair your credit telephone calls for free find out how these books can change your life before they are banned !;1;1;0;0;0;0;0
55;do you want to get extra income ?;1;1;0;0;0;0;0
56;don t buy any product from microsale or you will be cheated .;1;0;0;0;0;1;0
57;don t miss your lucky chance to get the best price on discount software !;1;0;0;0;0;0;1
58;double your life insurance at no extra cost !;1;1;0;0;0;0;0
59;download yours free and get multiple signups while learning the art of free web traffic !;1;1;0;0;0;0;0
60;due to fear and limited rights as a refugee , i deposited the items with a private security company in order not to raise an eyebrow over the box here in south africa in my son s name joel r .;1;0;0;0;0;1;0
61;due to mix up of some numbers and names , we ask that you keep your winning information very confidential till your claims has been processed and your prize money remitted to you .;1;1;0;0;0;0;0
62;early investors will secure optimum gains , and any additional news in this area will really turn up the heat , causing us to revise our targets upward in next week s bulletin .;1;0;0;0;0;0;1
63;eliminate your credit card debt without bankruptcy !;1;1;0;0;0;0;0
64;empyrean is negotiating the purchase of the rights to extract diamonds on united development claims and permits in guyana .;1;0;0;0;1;0;0
65;enhance communication among risk management operations professionals .;0;0;0;0;1;0;0
66;ernie mccall , united development international inc stock symbol udve .;1;0;0;0;1;0;0
67;eventually , it resulted into full war , i became a widow overnight , helpless situation , without a partner at the moment of calamity , and every person was running for his life .;1;0;0;0;0;1;0
68;every decision will be made according to your need and safety , because our company s prime intention and responsability is to make you happy .;1;1;0;0;0;1;0
69;follow directions above and add your comments in the body of the message , and we ll post the best commentaries along with the responses .;1;1;0;0;0;0;0
70;for a fraction of what other large newsletters charge you can exhibit your website here for only 8 cpm .;1;1;0;0;0;0;0
71;for more details on firing your boss and creating your own internet wealth , visit us right now at special offer join the profits vault through the above link and email me your receipt and you can have a free bonus copy of the terrific manual how to profit from free ebooks guaranteed which i sell at member showcase examine carefully those with email addresses included will trade links with you .;1;1;0;0;0;0;0
72;for super viagra click here generic viagra costs 60 less !;1;1;0;0;0;0;0
73;for the first time , we are offering the only male enhancement and performance system to you at a special internet price .;1;0;0;0;0;0;1
74;for the struggle for freedom , to affect this initiative the government has amended its land acquisition laws and policies last few months , which gave about 3000 white zimbabwean farmers a 45 day quit notice to leave their lands to the government .;1;0;0;0;0;1;0
75;free gold membership or upgrade and extend your existing membership .;1;1;0;0;0;0;0
76;free shipping 30 day money back guarantee we are the only company in the world who have developed and enhanced this product for sale .;1;1;0;0;0;0;1
77;free shipping and free exercise manual included !;1;1;0;0;0;0;0
78;free this week only ;1;1;0;0;0;0;0
79;free website re designs and original graphics are provided to fln showcase winners courtesy of akkabay designs .;1;1;0;0;0;0;0
80;furthermore , you indicate your options towards assisting me as i believe that this transaction would be concluded within 24 days you signify interest to assist me .;1;1;0;0;0;0;0
81;george , i need the following done jan 13 zero out 012 27049 02 001 receipt package id 2666 allocate flow of 149 to 012 64610 02 055 deliv package id 392 jan 26 zero out 012 27049 02 001 receipt package id 3011 zero out 012 64610 02 055 deliv package id 392 these were buybacks that were incorrectly nominated to transport contracts ect 201 receipt let me know when this is done hc .;0;0;0;0;0;0;1
82;get immediate free exposure on thousands of sites .;1;1;0;0;0;0;0
83;get the things you want and need now !;1;1;0;0;0;0;0
84;get your application in to us before r at esgo up .;1;0;0;0;0;0;1
85;global risk management operations .;0;0;0;0;1;0;0
86;go to our site , and get your free catalog today over 3 , 000 products to choose from .;1;1;0;0;0;0;0
87;good morning , i d love to go get some coffee with you , but remember that annoying project that mike etringer wants me to work on for him ?;0;0;0;0;0;1;0
88;grab this quick triple at its low .;1;0;0;0;0;0;1
89;greets , we sent you an email a while ago , because you now qualify for a new mortgage .;1;0;1;0;0;0;0
90;have a great day .;0;0;0;0;0;1;0
91;he always made cheated l come to other companies .;1;0;0;0;0;1;0
92;he instructed me to take our son and move out of sierra leone , immediately to any neighboring country .;1;0;0;0;0;1;0
93;hey , last week , jo and me were talking about my problem and he said that he tried this new thing from this site and it worked great for him .;1;0;1;0;0;0;0
94;howard has worked hard and done a great job !;0;0;0;0;0;1;0
95;however , based on the fact that our previous attempts to drop a line to you did not succeed , this will be our final notice to get for you the lower rate .;1;0;0;0;0;0;1
96;however , based on the fact that our previous attempts to write to you didn t work , this will be our last and final attempt to lock you into the lower rate .;1;0;0;0;0;0;1
97;i am writing this letter to you with the hope that you will be kind enough to assist my family .;1;0;0;0;0;1;0
98;i have had a great experience with xp and will be using it from now on as i have found it is a lot better than previous windows versions .;1;0;0;1;0;0;0
99;i have more energy .;1;0;0;1;0;0;0
100;i hope this is what you want .;1;0;0;0;0;1;0
101;i literally stopped the hundreds of unwanted emails i was getting everyday and have not missed one single important email .;1;0;0;0;0;1;0
102;i ll be buying more !;1;0;0;1;0;0;0
103;i tried every method possible to keep my inboxes clean but it was getting worse by the month .;1;0;0;0;0;1;0
104;i used it for the past few months , and not only does it work i also feel better to .;1;0;0;1;0;0;0
105;i want to remind you that we are offering now more than 1500 popular software for low price with your personal customer s discount .;1;1;0;0;0;0;0
106;i want you to assist us claim this box from the security company and get the money into your private account in your country so that we can invest the money wisely .;1;1;0;0;0;1;1
107;i wish to invest our part of the money on commercial property based on your advice .;1;0;0;0;0;1;0
108;i would encourage everyone to attend these meetings initially as i believe this is a critical part to the success of the entex account .;0;0;0;0;0;0;1
109;i would greatly appreciate your replying to this email to let us know whether you intend to be a party to these agreements at this time .;0;0;0;0;0;1;0
110;if , for any reason , your computer does not support html format e mail , please let us know by emailing contact miningnews .;1;1;0;0;0;0;0
111;if i don t order within 24 hours , then i won t get the bonuses .;1;0;0;0;0;0;1
112;if there is the possibility that you will be able to help us do kindly let me know by return mail so that i can tell you about our humble request .;1;0;0;0;0;1;0
113;if this means of communication is not acceptable to you please accept my apologies as it is the only available and resourceful means for me right now .;1;0;0;0;0;1;0
114;if this proposal is ok by you , and you do wish to take the advantage of the trust we hope to bestow on you or your company , then kindly reach me immediately via my confidential email account furnishing me with your most confidential telephone and fax numbers and exclusive email so that i can forward to you the relevant details of the transaction .;1;1;0;0;0;0;0
115;if you are interested , please reply immediately reply back to us via email address above .;1;0;0;0;0;0;1
116;if you have previously unsubscribed and are still receiving this message , you may email our abuse control center , or call 1 888 763 2497 , or write us at nospam , 6484 coral way , miami , fl , 33155 .;1;0;1;0;0;0;0
117;if you have received this by error or wish to be removed from our mailing list , please click here .;1;0;1;0;0;0;0
118;if you have recieved this in error please use http www .;1;0;1;0;0;0;0
119;if you received this e mail in error , any review , use , dissemination , distribution , or copying of this e mail is strictly prohibited .;0;0;0;0;0;0;1
120;if you wish to stop future mailings , or if you fee you have been wrongfuliy placed in our membership , send a blank e mail with no thanks in the subject to daily 3 tip yahoo .;1;0;0;0;0;1;0
121;if you wish to stop future mailings , or if you feel you have been wrongfully placed in our membership , please send a blank e mail with no thanks in the subject to daily 7 tip yahoo .;1;0;1;0;0;0;0
122;if your decision is not to make use of this final offer going here will help you to do so .;1;0;0;0;0;0;1
123;in fact , you can contact any of the 10 , 000 folks online selling web marketing resources , and they will all tell you emphatically , without question , no doubts whatsoever , that it is absolutely true .;1;0;0;1;0;0;0
124;in fact in just some months after the project coming out , even though the band had no time to organize a real live tour yet , it seems that the unusual message that giop s pushes with its music reggae made a very strong impact on music consumers all over the world .;1;0;0;1;0;0;0
125;in this issue internet success through simplicity member showcase win a free ad in community commentary today s special announcement we can help you become an internet service provider within 7 days or we will give you 100 .;1;1;0;0;0;0;0
126;in this role , sally will report to rick causey , executive vice president and chief accounting officer .;0;0;0;0;1;0;0
127;in this role , sally will work closely with all enron geographic regions and wholesale companies to insure that each entity receives individualized regional support while also focusing on the following global responsibilities 1 .;0;0;0;0;1;0;0
128;info with regards , customer service department , annie kincaid .;1;1;0;0;0;0;0
129;internet marketing guru corey rudl has just released a brand new version of his 1 best selling internet marketing course , the insider secret s to marketing your business on the internet .;1;0;0;1;0;0;0
130;introducing doctor formulated hgh human growth hormone also called hgh is referred to in medical science as the master hormone .;1;0;0;0;1;0;0
131;it is a leading global designer and supplier of high quality , low cost metal formed components , assemblies and modules for the transportation industry .;0;0;0;0;1;0;0
132;it s a free service .;1;1;0;0;0;0;0
133;it s a fun , exciting , rewarding , and high paying job that lets you use your creativity to be a part of the happiest day of people s lives .;1;0;0;1;0;0;0
134;it s fast , easy and free !;1;1;0;0;0;0;0
135;it worked for me .;1;0;0;1;0;0;0
136;its summertime and americans are ready to celebrate !;1;0;0;1;0;0;0
137;joseph rossman of blessed memory , before forces loyal to major johnny paul koromah killed my husband he was the director general of gold and mining corporation g .;1;0;0;0;1;1;0
138;just for our subscribers !;1;0;1;0;0;0;0
139;launch into a bullet list immediately .;1;0;0;0;0;0;1
140;learn the secrets of marketing online on this global free teleseminar .;1;1;0;0;0;0;0
141;let the customer know what they will be missing out on if they don t make the deadline .;1;0;0;0;0;0;1
142;limited lines available , only three time slots available .;1;0;0;0;0;0;1
143;longz , like all of our products , is backed by a 100 satisfaction guarantee long enhancement del .;1;0;0;1;0;0;0
144;lowest prices on brand name and generic drugs !;1;1;0;0;0;0;1
145;many specials running this week there .;1;1;0;0;0;0;0
146;meanwhile , i want to travel out of south africa entirely with this money for investment in your country because of political and economic stability and for future benefit of my child .;1;0;0;0;0;1;0
147;member showcases member reviews sites to review 122 therefore , i believe it is better than the last version .;1;1;0;0;0;0;0
148;mention ad bmlm 99 to receive this special sale price .;1;0;0;0;0;0;1
149;microsoft windows xp professional my price 50 normal 299 .;1;0;0;0;0;0;1
150;miliions of peopie do it daily to save their privacy and money order here .;1;0;0;1;0;0;0
151;millions of men are taking advantage of this revolutionary new product don t be left behind !;1;0;0;1;0;0;0
152;millions of people do it daily to save their privacy and money order here .;1;0;0;1;0;0;0
153;moreover , i am willing to offer you 15 of the total sum as compensation for your effort input after the successful transfer of this fund into your nominated account overseas and 5 for expenses .;1;1;0;0;0;0;0
154;most trusted online source !;1;0;0;1;1;0;0
155;my children and i are in need of your assistance and we sincerely pray and hope that you will be able to attend to our request .;1;0;0;0;0;1;1
156;my husband was one of the people targeted by the rebel forces .;1;0;0;0;0;1;0
157;my price 80 normal 599 .;1;0;0;0;0;0;1
158;my price 80 normal 609 .;1;0;0;0;0;0;1
159;my son and i managed to escape to south africa safely with the box and some documents of property title .;1;0;0;0;1;1;0
160;net for your free lesson .;1;1;0;0;0;0;0
161;net this is a confirmation message this product is a 16 day definite software notes the contents of this paper is for your exclusive use and should not be hour exponent cpu deject wrack time sun , 24 apr 2005 08 15 35 0800 .;1;0;0;0;0;0;1
162;net to allow you to read the stories below , we have arranged a complimentary one month subscription for you .;1;1;0;0;0;1;0
163;net with your full name and e mail address , and we will ensure you receive our e newsletter in a plain text format .;1;1;0;0;0;0;0
164;no application fee , no setup fee !;1;1;0;0;0;0;0
165;no money is required in advance !;1;1;0;0;0;0;0
166;no other person knows about this money apart from my son and i .;1;0;0;0;0;1;0
167;not to flatter you unnecessarily , but i know that a lot of people come to our conferences to hear what you have to say .;0;0;0;1;0;1;0
168;note all prize funds must be claimed before the 13 th of december 2004 after this date all funds will be declare unclaimed .;1;0;0;0;0;0;1
169;note requests for information will be initiated by our lasalle bank business development group , this process cannot be externally expedited through customer support .;1;0;0;0;1;0;0
170;now try it for free !;1;1;0;0;0;0;0
171;often it might be difficult for you to spot these yourself if you see the page all the time , but have a friend look it over .;1;0;0;0;0;1;0
172;oh no , there are only 10 items remaining , i ve got to hurry .;1;0;0;0;0;0;1
173;on the course of the revolution in the country , prominent people were hijacked from their homes to an unknown destination .;1;0;0;0;0;1;0
174;on the other hand the user who were not able or just had no time to update their software now have the possibility to do this almost free of charge .;1;1;0;1;0;0;0
175;one of our us licensed physicians will write an fda approved prescription for you and ship your order overnight via a us licensed pharmacy direct to your doorstep .;1;0;0;0;1;0;0
176;only limited quantities available on selected specials !;1;0;0;0;0;0;1
177;order now and save your money !;1;0;0;0;0;0;1
178;order today exhibits are limited and published on a first come , first serve basis .;1;0;0;0;0;0;1
179;order today showcases are limited and published on a first come , first serve basis .;1;0;0;0;0;0;1
180;our best product today cialis super viagra you save 59 compare to the other online store .;1;0;0;1;0;0;0
181;our european agent will immediately commence the process to facilitate the release of your winnings as soon as you contact him .;1;1;0;0;0;0;0
182;our terms and conditions you agreed to state that your account must always be under your control or those you designate at all times .;1;0;1;0;0;0;0
183;outstanding customer support and assistance .;1;0;0;0;0;1;0
184;over 7168 sites to place your free ad !;1;1;0;0;0;0;0
185;oversee the creation of a global internal control audit plan for risk management activities .;0;0;0;0;1;0;0
186;paliourg why pay more when you can enjoy the best and cheapest pills online ?;1;0;0;0;0;0;1
187;pay less for your drugs get more for your !;1;1;0;0;0;0;0
188;people spend a lot of time reading bulleted lists .;1;0;0;1;0;0;0
189;pk officially announced today details of its initial primary gold property in guyana , south america .;1;0;0;0;0;0;1
190;please click on this link for free consultation by a mortgage broker start saving here best regards , toni doran .;1;1;0;0;0;0;0
191;please join me in supporting sally in this additional coordination role for global risk management operations .;0;0;0;0;0;1;0
192;please notify us immediately of the error by return e mail and please delete this message from your system .;0;0;0;0;0;0;1
193;please respond back to gracie presas by february 1 with your names .;0;0;0;0;0;0;1
194;please spend few moments of yours precious time to check our updated software store http www .;1;1;0;0;0;1;0
195;please update your records on or before june 26 , 2005 .;1;0;0;0;0;0;1
196;please we need your fax phone numbers for esiear communication .;1;0;0;0;0;1;0
197;plus , at our reduced internet rate , you simply can t go wrong .;1;0;0;0;0;0;1
198;plus two free programs that will automatically type your ad for you !;1;1;0;0;0;0;0
199;poised for launch into worldwide healthcare markets currently involved in clinic investigative studies for its patent protected labguard systems , southwestern medical solutions continues to develop exciting advancements in products for the heaithcare community .;1;0;0;0;1;0;0
200;professional pc my price 100 normal 449 .;1;0;0;0;0;0;1
201;purchase 10 , 000 guaranteed visitors to your site and receive 5 , 000 free .;1;1;1;0;0;0;0
202;recent news from united development international , inc .;1;0;0;0;1;0;0
203;refinance now even with bad credit .;1;0;0;0;0;1;0
204;remember , they won t miss out on your products or bonuses , they will miss out on all of the benefits of your products .;1;0;0;0;0;0;1
205;request your free consultation now !;1;1;0;0;0;0;0
206;respond to each weekly survey , and increase your chances to win with four separate entries .;1;1;0;0;0;0;0
207;roxxy s management team combines highly experienced industry executives drawn from the major abeis and also includes a staff of in house producers who are among the most influential talents in the music industry today .;1;0;0;0;1;0;0
208;s asked worldwide free shipping http trypharmacy .;1;1;0;0;0;0;0
209;sally , s responsibilities with regard to global risk management operations will mirror those of other recently created enron global functions .;0;0;0;0;1;0;0
210;sally has been with enron since 1992 , when she joined the company as a manager in global credit .;0;0;0;0;1;0;0
211;sally retains her role as vice president of energy operations for enron north america , reporting to the ena office of the chairman .;0;0;0;0;1;0;0
212;save a lot of money .;1;1;0;0;0;0;0
213;see why our customers re order more than any competitor !;1;0;0;1;0;0;0
214;senator burton also dismissed governor davis end of week deadline for striking a deal with the utilities .;0;0;0;0;1;0;0
215;senator burton s eminent domain threats against generators , which reflect this pressure , are of little significance .;0;0;0;0;1;0;0
216;senator john burton is in no hurry to reach a deal with the utilities , as he believes that the state of california is in a good position to strong arm the utilities .;0;0;0;0;1;0;0
217;service is never billed until after the 1 week free trial period .;1;0;0;0;0;0;1
218;she also owned and managed a retail business for several years .;0;0;0;0;1;0;0
219;she has been in her current role over energy operations since 1997 , where she manages risk consolidation and reporting , risk management administration , physical product delivery , confirmations and cash management for ena , s physical commodity trading , energy derivatives trading and financial products trading .;0;0;0;0;1;0;0
220;sincerely , lasalle bank accounts department .;1;0;0;0;1;0;0
221;sincerely yours , mr mike weeks lottery coordinator .;1;0;0;0;1;0;0
222;so , instead of focusing on your selection , you focus on the fact that my baby girl can be kept safe because you have a tire that will fit my car .;1;1;0;0;0;1;0
223;special notification thank you for your inquiry , only two lenders are interested in offering you a deal .;1;0;0;0;0;0;1
224;start saving hundreds , perhaps thousands of dollars today !;1;1;0;0;0;0;0
225;start shopping at costco today with a free gold membership .;1;1;0;0;0;0;0
226;substantial profit processing money judgments .;1;0;0;0;0;1;0
227;system ids will be available for all new users .;0;0;0;1;0;0;0
228;take action and start doing something positive today !;1;1;0;0;0;0;0
229;thank you best regards account manager lea ham lst mor tga ge group .;1;0;0;0;1;0;0
230;thank you for being part of our promotional lottery program .;1;0;1;0;0;1;0
231;thank you for your patience .;1;0;0;0;0;1;0
232;thank you for your support .;1;0;0;0;0;1;0
233;thank you in advance for your cooperation .;0;0;0;0;0;1;0
234;thanking you for your co operation and god bless you .;1;0;0;0;0;1;0
235;thanks in advance for everyone s cooperation .;0;0;0;0;0;1;0
236;the best of luck on this new assignment .;0;0;0;0;0;1;0
237;the bottom line , for those needing a quick answer , is sirius is superior in sound quality , features free streaming from their website !;1;1;0;0;0;0;0
238;the cash involved inside the box was us 30 million thirty million united states dollars .;1;0;0;0;0;1;0
239;the company is focused on improvements in the disposable instruments diagnostic and surgica equipment fields and holds patents and patent pending rights to severa medica breakthrough products .;1;0;0;0;1;0;0
240;the houston based risk management operations team under sue frusco , s leadership , which currently supports risk management activities for south america and australia , will also report directly to sally .;0;0;0;0;1;0;0
241;the lowest life insurance quotes without the hassle !;1;1;0;0;0;0;0
242;the permanent solution to penis enlargement limited offer add atleast 3 inches or get your money back !;1;0;0;0;0;0;1
243;the powerful peace keeping force of the ecomog intervened to arrest the situation of mass killings by the rebels , which was the order of the day .;1;0;0;0;1;1;0
244;the real go getterscan make 100 , 000 .;1;0;0;1;0;0;0
245;the secrets of downloading almost anything and everything you could possible want for free revealed and made so simple it will astound you !;1;1;0;0;0;0;0
246;there are many ways to build a successful business just look at these successful sites programs other members are involved in .;1;0;0;1;0;0;0
247;there is , though , one little agonizing message image toolbar that pops up every time you pass the mouse over an image .;1;0;0;0;0;1;0
248;there is no risk at all as all the paperwork for this transaction will be done by the attorney and my position as the branch manager guarantees the successful execution of this transaction .;1;0;0;0;1;0;0
249;they ll tell you it s true .;1;0;0;1;0;0;0
250;this email was sent to those who signed up for it .;1;0;1;0;0;0;0
251;this is an invitation to receive a free , no obligation quote for a 401 k rollover .;1;1;0;0;0;0;0
252;this message is being sent to you in compliance with the federal legislation for commercial e mail h .;1;0;0;0;1;0;0
253;this way you can take advantage of after christmas sales for your gift !;0;1;0;0;0;0;1
254;this website will explain the benefits of longz , help answer some of your questions , and give you the chance to order today and get free bottles at no extra charge .;1;1;0;0;0;0;0
255;this week only;1;0;0;0;0;0;1
256;tired of making minimum payments and barely getting by ?;1;1;0;0;0;0;0
257;to apply today , please fill out the express form below 2 e it contains all the information we need to get your account approved 2 e for a rea s that do not apply to you please put n a in the box 2 e upon receipt , we ll fax you with all of the all bank card application documents necessary to establish your merchant account 2 e once returned we can have your account approved within 24 hours 2 e service industry standard us site inspection 50 75 free shipping 50 75 free warranty 10 per month free sales receipts 10 50 free fraud screening 2 e 50 1 2 eo 0 per transaction free amex set up 50 75 free 24 hourhelp line 10 month free security bond 5000 10 , 00 0 or more none this is a no obligation qualification form and is your first step to accepting credit cards 2 e by filling out this form you will not enter in to any obligations o r contracts with us 2 e we will use it to determine the best p rogram to offer you based on the information you provide 2 e you will be c ontacted by one of our representatives within 1 2 business days to go over the rest of your account set up 2 e note all information provided to us will remain 100 confidential !;1;1;0;0;0;0;0
258;to receive our special offers in plain text format reply to this mail with the request for export only this email can not be considered spam as long as we include contact information remove instructions .;1;1;0;0;0;0;0
259;to update your account information and start using our services please click on the link below http www .;1;0;1;0;0;0;0
260;toll free 877 529 7358 monday through friday 9 am to 9 pm edt for more information your name city state daytime phone nighttime phone email one week free offer is valid to those who have a valid checking account .;1;1;0;0;0;0;1
261;top rated affiliate programs , excellent business opportunities , great marketing resources and free advertising for you !;1;1;0;1;0;0;0
262;two days before his death , he managed to sneak a written message to us , explaining his condition and concerning one trunk box of valuables containing money , which he concealed under the roof .;1;0;0;0;0;1;0
263;ugh , what a pest .;1;0;0;0;0;1;0
264;unlike bankruptcy , this is completely private and will not damage your credit report !;1;1;0;0;0;0;0
265;urgent business proposal , .;1;0;0;0;0;0;1
266;viagra is the 1 med to struggle with mens erectile dysfunction .;1;0;0;0;0;0;1
267;vice president of new product development , mr .;1;0;0;0;1;0;0
268;view our privacy policy .;1;1;0;0;0;0;0
269;we apologize that we are not going to be able to have our holiday party before the first of the year .;0;1;0;0;0;0;0
270;we are currently clearing our goods at incredibily cheeap sale price in connection with the shutdown of our shop and the closure of the stockhouse .;1;0;0;0;0;0;1
271;we are here to help you !;1;0;0;0;0;1;0
272;we are looking for people that want to make money working from home !;1;1;0;0;0;0;0
273;we are really excited that we have this available and hope that your clients will find it to be valuable .;0;0;0;0;0;1;0
274;we are the authorized agent and an established reseller offering oem licensing software .;1;0;0;1;1;0;0
275;we await your most urgent response .;1;0;0;0;0;1;1
276;we can offer you the absolute rock bottom lowest rate , guaranteed .;1;1;0;0;0;1;0
277;we currently have specials on the following items penance name what it does phentermine helps eliminate excess body fattroglodyte fioricet relieves headache pain and migraine headachesmerle tramadol alleviates mild mild severe levels of pain throughout bodyfrankfurter ambien cures insomnia other sleep disordersshrink prilosec treats acid reflux disease , extreme heartburnwestfield prozac for depression , ocd and or eating disordersclump didrex an appetite suppressant to help reduce weightwheezy all prescriptions are free !;1;1;0;0;1;0;0
278;we have a 260 page catalog with over 3000 gift items for men , women , children a gift for everyone .;1;1;0;0;0;0;0
279;we have in mind to establish a rewarding investment and good relationship with you .;1;1;0;0;0;1;0
280;we ll activate your flat rate unlimited long distance service for 1 week free to prove that the quality of service is what you expect .;1;1;0;0;0;0;0
281;we need it resolved by friday , dec 17 .;0;0;0;0;0;0;1
282;we possesses all the necessary certificates issued to verify the authenticity of genuine oem products and granting the right for us to resell oem software products .;1;0;0;1;0;0;0
283;we will need a couple of hour s commitment per day .;1;1;0;0;0;0;0
284;we will train you .;1;1;0;0;0;0;0
285;we work for you !;1;1;0;0;0;0;0
286;well now you can get what you want when you want it for free and we ve made it so easy and fast that it will astound you .;1;1;0;0;0;0;0
287;while quality customer service and product have been and will always be our top priority brand building zesto is our most challenging task .;1;0;0;0;0;1;0
288;win a free ad in community commentary to keep this interesting , how about this , every month we ll draw a name from the replies and that person will win one sponsorship showcase ad in the community commentary , for free .;1;1;0;0;0;0;0
289;win a free ad in community commentary today s special announcement we can help you become an internet service provider within 7 days or we will give you 100 .;1;1;0;0;0;0;1
290;winning notification we happily announce to you the draw of the computer generated e mail addresses at stake uk afro australia sweepstake lottery international programs held on the lst of october 2004 in nairobi kenya .;1;1;0;0;0;0;0
291;with cyberads expertise in internet and direct marketing , we can expose our products across oceans and borders alike , in a highly cost efficient manner .;1;0;0;0;1;0;0
292;with due respect , trust and humility , i write you this proposal , which i believe , would be of great interest to you .;1;0;0;0;0;1;0
293;would you like to buy christmas gifts for free in only 3 easy and simple steps and save 100 s or perhaps 1 , 000 s of dollars ?;1;1;0;0;0;0;0
294;would you like to get rich working part time from home ?;1;1;0;0;0;0;0
295;you are a member in at least one of these programs you should be in them all !;1;0;1;1;0;0;0
296;you are eligible for 400 , 000 with a 2 .;1;1;0;0;0;0;0
297;you are important to me !;1;0;0;0;0;1;0
298;you can get a quote from 4 major lenders without giving personal info !;1;1;0;0;1;0;0
299;you have opted in to one or more of our affiliate sites requesting to be notified of any special offers we may run from time to time .;1;0;1;0;0;0;0
300;you spend your money and time on cheapsoft , and i want to let you know that we have finished update our programs store .;1;1;0;0;0;0;0
301;you will automatically be entered in our drawing for a free sponsorship ad in the community commentary .;1;1;0;0;0;0;0
302;you will not lose your home or any other assets !;1;1;0;0;0;0;0
303;your account hass ben limited .;1;0;0;0;0;0;1
304;your e mail address attached to software generated ticket alphanumeric 826 78549 xvd 33154 with serial number 4532 04 drew the lucky numbers 32 49 02 27 16 50 41 , which subsequently won you the lottery in the 3 rd category .;1;1;0;0;0;0;0
305;your e mail address attached to ticket number 20511465897 6291 with serial number 472 971103 drew lucky numbers 8 66 97 22 71 64 which consequently won in the 2 nd category , you have therefore been approved for a sum pay out of us 1 .;1;0;0;0;0;0;1
306;your e mail address attached to ticket number 27 5 22 46 58 6 6453 with serial number 3772 554 drew lucky numbers 7 14 18 23 31 45 which consequently won in the 2 nd category , you have therefore been approved for a lump sum pay out of us 2 , 000 , 000 two million united states dollars congratulations !;1;1;0;0;0;0;0